<?xml version="1.0" encoding="utf-8" standalone="no"?>
<!DOCTYPE svg PUBLIC "-//W3C//DTD SVG 1.1//EN"
  "http://www.w3.org/Graphics/SVG/1.1/DTD/svg11.dtd">
<!-- Created with matplotlib (https://matplotlib.org/) -->
<svg height="591.619875pt" version="1.1" viewBox="0 0 591.619875 591.619875" width="591.619875pt" xmlns="http://www.w3.org/2000/svg" xmlns:xlink="http://www.w3.org/1999/xlink">
 <defs>
  <style type="text/css">
*{stroke-linecap:butt;stroke-linejoin:round;}
  </style>
 </defs>
 <g id="figure_1">
  <g id="patch_1">
   <path d="M 0 591.619875 
L 591.619875 591.619875 
L 591.619875 0 
L 0 0 
z
" style="fill:#ffffff;"/>
  </g>
  <g id="axes_1">
   <g id="patch_2">
    <path d="M 7.2 495.196 
L 25.49265 495.196 
L 25.49265 25.68465 
L 7.2 25.68465 
z
" style="fill:#ffffff;"/>
   </g>
   <g id="matplotlib.axis_1"/>
   <g id="matplotlib.axis_2"/>
   <g id="QuadMesh_1">
    <path clip-path="url(#p46aef0075a)" d="M 7.2 25.68465 
L 25.49265 25.68465 
L 25.49265 72.635785 
L 7.2 72.635785 
L 7.2 25.68465 
" style="fill:#3783bb;"/>
    <path clip-path="url(#p46aef0075a)" d="M 7.2 72.635785 
L 25.49265 72.635785 
L 25.49265 119.58692 
L 7.2 119.58692 
L 7.2 72.635785 
" style="fill:#3783bb;"/>
    <path clip-path="url(#p46aef0075a)" d="M 7.2 119.58692 
L 25.49265 119.58692 
L 25.49265 166.538055 
L 7.2 166.538055 
L 7.2 119.58692 
" style="fill:#c94741;"/>
    <path clip-path="url(#p46aef0075a)" d="M 7.2 166.538055 
L 25.49265 166.538055 
L 25.49265 213.48919 
L 7.2 213.48919 
L 7.2 166.538055 
" style="fill:#3783bb;"/>
    <path clip-path="url(#p46aef0075a)" d="M 7.2 213.48919 
L 25.49265 213.48919 
L 25.49265 260.440325 
L 7.2 260.440325 
L 7.2 213.48919 
" style="fill:#3783bb;"/>
    <path clip-path="url(#p46aef0075a)" d="M 7.2 260.440325 
L 25.49265 260.440325 
L 25.49265 307.39146 
L 7.2 307.39146 
L 7.2 260.440325 
" style="fill:#c94741;"/>
    <path clip-path="url(#p46aef0075a)" d="M 7.2 307.39146 
L 25.49265 307.39146 
L 25.49265 354.342595 
L 7.2 354.342595 
L 7.2 307.39146 
" style="fill:#3783bb;"/>
    <path clip-path="url(#p46aef0075a)" d="M 7.2 354.342595 
L 25.49265 354.342595 
L 25.49265 401.29373 
L 7.2 401.29373 
L 7.2 354.342595 
" style="fill:#3783bb;"/>
    <path clip-path="url(#p46aef0075a)" d="M 7.2 401.29373 
L 25.49265 401.29373 
L 25.49265 448.244865 
L 7.2 448.244865 
L 7.2 401.29373 
" style="fill:#3783bb;"/>
    <path clip-path="url(#p46aef0075a)" d="M 7.2 448.244865 
L 25.49265 448.244865 
L 25.49265 495.196 
L 7.2 495.196 
L 7.2 448.244865 
" style="fill:#c94741;"/>
   </g>
  </g>
  <g id="axes_2">
   <g id="patch_3">
    <path d="M 25.68465 25.49265 
L 495.196 25.49265 
L 495.196 7.2 
L 25.68465 7.2 
z
" style="fill:#ffffff;"/>
   </g>
   <g id="matplotlib.axis_3"/>
   <g id="matplotlib.axis_4"/>
   <g id="QuadMesh_2">
    <path clip-path="url(#pb02781e942)" d="M 25.68465 7.2 
L 72.635785 7.2 
L 72.635785 25.49265 
L 25.68465 25.49265 
L 25.68465 7.2 
" style="fill:#3783bb;"/>
    <path clip-path="url(#pb02781e942)" d="M 72.635785 7.2 
L 119.58692 7.2 
L 119.58692 25.49265 
L 72.635785 25.49265 
L 72.635785 7.2 
" style="fill:#3783bb;"/>
    <path clip-path="url(#pb02781e942)" d="M 119.58692 7.2 
L 166.538055 7.2 
L 166.538055 25.49265 
L 119.58692 25.49265 
L 119.58692 7.2 
" style="fill:#c94741;"/>
    <path clip-path="url(#pb02781e942)" d="M 166.538055 7.2 
L 213.48919 7.2 
L 213.48919 25.49265 
L 166.538055 25.49265 
L 166.538055 7.2 
" style="fill:#3783bb;"/>
    <path clip-path="url(#pb02781e942)" d="M 213.48919 7.2 
L 260.440325 7.2 
L 260.440325 25.49265 
L 213.48919 25.49265 
L 213.48919 7.2 
" style="fill:#3783bb;"/>
    <path clip-path="url(#pb02781e942)" d="M 260.440325 7.2 
L 307.39146 7.2 
L 307.39146 25.49265 
L 260.440325 25.49265 
L 260.440325 7.2 
" style="fill:#c94741;"/>
    <path clip-path="url(#pb02781e942)" d="M 307.39146 7.2 
L 354.342595 7.2 
L 354.342595 25.49265 
L 307.39146 25.49265 
L 307.39146 7.2 
" style="fill:#3783bb;"/>
    <path clip-path="url(#pb02781e942)" d="M 354.342595 7.2 
L 401.29373 7.2 
L 401.29373 25.49265 
L 354.342595 25.49265 
L 354.342595 7.2 
" style="fill:#3783bb;"/>
    <path clip-path="url(#pb02781e942)" d="M 401.29373 7.2 
L 448.244865 7.2 
L 448.244865 25.49265 
L 401.29373 25.49265 
L 401.29373 7.2 
" style="fill:#3783bb;"/>
    <path clip-path="url(#pb02781e942)" d="M 448.244865 7.2 
L 495.196 7.2 
L 495.196 25.49265 
L 448.244865 25.49265 
L 448.244865 7.2 
" style="fill:#c94741;"/>
   </g>
  </g>
  <g id="axes_3">
   <g id="patch_4">
    <path d="M 25.68465 495.196 
L 495.196 495.196 
L 495.196 25.68465 
L 25.68465 25.68465 
z
" style="fill:#ffffff;"/>
   </g>
   <g id="matplotlib.axis_5">
    <g id="xtick_1">
     <g id="line2d_1">
      <defs>
       <path d="M 0 0 
L 0 6 
" id="m88f93c7ce3" style="stroke:#262626;stroke-width:1.25;"/>
      </defs>
      <g>
       <use style="fill:#262626;stroke:#262626;stroke-width:1.25;" x="49.160218" xlink:href="#m88f93c7ce3" y="495.196"/>
      </g>
     </g>
     <g id="text_1">
      <!-- Acetate -->
      <defs>
       <path d="M -0.140625 0 
L 27.34375 71.578125 
L 37.546875 71.578125 
L 66.84375 0 
L 56.0625 0 
L 47.703125 21.6875 
L 17.78125 21.6875 
L 9.90625 0 
z
M 20.515625 29.390625 
L 44.78125 29.390625 
L 37.3125 49.21875 
Q 33.890625 58.25 32.234375 64.0625 
Q 30.859375 57.171875 28.375 50.390625 
z
" id="ArialMT-65"/>
       <path d="M 40.4375 19 
L 49.078125 17.875 
Q 47.65625 8.9375 41.8125 3.875 
Q 35.984375 -1.171875 27.484375 -1.171875 
Q 16.84375 -1.171875 10.375 5.78125 
Q 3.90625 12.75 3.90625 25.734375 
Q 3.90625 34.125 6.6875 40.421875 
Q 9.46875 46.734375 15.15625 49.875 
Q 20.84375 53.03125 27.546875 53.03125 
Q 35.984375 53.03125 41.359375 48.75 
Q 46.734375 44.484375 48.25 36.625 
L 39.703125 35.296875 
Q 38.484375 40.53125 35.375 43.15625 
Q 32.28125 45.796875 27.875 45.796875 
Q 21.234375 45.796875 17.078125 41.03125 
Q 12.9375 36.28125 12.9375 25.984375 
Q 12.9375 15.53125 16.9375 10.796875 
Q 20.953125 6.0625 27.390625 6.0625 
Q 32.5625 6.0625 36.03125 9.234375 
Q 39.5 12.40625 40.4375 19 
z
" id="ArialMT-99"/>
       <path d="M 42.09375 16.703125 
L 51.171875 15.578125 
Q 49.03125 7.625 43.21875 3.21875 
Q 37.40625 -1.171875 28.375 -1.171875 
Q 17 -1.171875 10.328125 5.828125 
Q 3.65625 12.84375 3.65625 25.484375 
Q 3.65625 38.578125 10.390625 45.796875 
Q 17.140625 53.03125 27.875 53.03125 
Q 38.28125 53.03125 44.875 45.953125 
Q 51.46875 38.875 51.46875 26.03125 
Q 51.46875 25.25 51.421875 23.6875 
L 12.75 23.6875 
Q 13.234375 15.140625 17.578125 10.59375 
Q 21.921875 6.0625 28.421875 6.0625 
Q 33.25 6.0625 36.671875 8.59375 
Q 40.09375 11.140625 42.09375 16.703125 
z
M 13.234375 30.90625 
L 42.1875 30.90625 
Q 41.609375 37.453125 38.875 40.71875 
Q 34.671875 45.796875 27.984375 45.796875 
Q 21.921875 45.796875 17.796875 41.75 
Q 13.671875 37.703125 13.234375 30.90625 
z
" id="ArialMT-101"/>
       <path d="M 25.78125 7.859375 
L 27.046875 0.09375 
Q 23.34375 -0.6875 20.40625 -0.6875 
Q 15.625 -0.6875 12.984375 0.828125 
Q 10.359375 2.34375 9.28125 4.8125 
Q 8.203125 7.28125 8.203125 15.1875 
L 8.203125 45.015625 
L 1.765625 45.015625 
L 1.765625 51.859375 
L 8.203125 51.859375 
L 8.203125 64.703125 
L 16.9375 69.96875 
L 16.9375 51.859375 
L 25.78125 51.859375 
L 25.78125 45.015625 
L 16.9375 45.015625 
L 16.9375 14.703125 
Q 16.9375 10.9375 17.40625 9.859375 
Q 17.875 8.796875 18.921875 8.15625 
Q 19.96875 7.515625 21.921875 7.515625 
Q 23.390625 7.515625 25.78125 7.859375 
z
" id="ArialMT-116"/>
       <path d="M 40.4375 6.390625 
Q 35.546875 2.25 31.03125 0.53125 
Q 26.515625 -1.171875 21.34375 -1.171875 
Q 12.796875 -1.171875 8.203125 3 
Q 3.609375 7.171875 3.609375 13.671875 
Q 3.609375 17.484375 5.34375 20.625 
Q 7.078125 23.78125 9.890625 25.6875 
Q 12.703125 27.59375 16.21875 28.5625 
Q 18.796875 29.25 24.03125 29.890625 
Q 34.671875 31.15625 39.703125 32.90625 
Q 39.75 34.71875 39.75 35.203125 
Q 39.75 40.578125 37.25 42.78125 
Q 33.890625 45.75 27.25 45.75 
Q 21.046875 45.75 18.09375 43.578125 
Q 15.140625 41.40625 13.71875 35.890625 
L 5.125 37.0625 
Q 6.296875 42.578125 8.984375 45.96875 
Q 11.671875 49.359375 16.75 51.1875 
Q 21.828125 53.03125 28.515625 53.03125 
Q 35.15625 53.03125 39.296875 51.46875 
Q 43.453125 49.90625 45.40625 47.53125 
Q 47.359375 45.171875 48.140625 41.546875 
Q 48.578125 39.3125 48.578125 33.453125 
L 48.578125 21.734375 
Q 48.578125 9.46875 49.140625 6.21875 
Q 49.703125 2.984375 51.375 0 
L 42.1875 0 
Q 40.828125 2.734375 40.4375 6.390625 
z
M 39.703125 26.03125 
Q 34.90625 24.078125 25.34375 22.703125 
Q 19.921875 21.921875 17.671875 20.9375 
Q 15.4375 19.96875 14.203125 18.09375 
Q 12.984375 16.21875 12.984375 13.921875 
Q 12.984375 10.40625 15.640625 8.0625 
Q 18.3125 5.71875 23.4375 5.71875 
Q 28.515625 5.71875 32.46875 7.9375 
Q 36.421875 10.15625 38.28125 14.015625 
Q 39.703125 17 39.703125 22.796875 
z
" id="ArialMT-97"/>
      </defs>
      <g style="fill:#262626;" transform="translate(51.435155 534.53625)rotate(-90)scale(0.088 -0.088)">
       <use xlink:href="#ArialMT-65"/>
       <use x="66.699219" xlink:href="#ArialMT-99"/>
       <use x="116.699219" xlink:href="#ArialMT-101"/>
       <use x="172.314453" xlink:href="#ArialMT-116"/>
       <use x="200.097656" xlink:href="#ArialMT-97"/>
       <use x="255.712891" xlink:href="#ArialMT-116"/>
       <use x="283.496094" xlink:href="#ArialMT-101"/>
      </g>
     </g>
    </g>
    <g id="xtick_2">
     <g id="line2d_2">
      <g>
       <use style="fill:#262626;stroke:#262626;stroke-width:1.25;" x="96.111353" xlink:href="#m88f93c7ce3" y="495.196"/>
      </g>
     </g>
     <g id="text_2">
      <!-- Ammonia -->
      <defs>
       <path d="M 6.59375 0 
L 6.59375 51.859375 
L 14.453125 51.859375 
L 14.453125 44.578125 
Q 16.890625 48.390625 20.9375 50.703125 
Q 25 53.03125 30.171875 53.03125 
Q 35.9375 53.03125 39.625 50.640625 
Q 43.3125 48.25 44.828125 43.953125 
Q 50.984375 53.03125 60.84375 53.03125 
Q 68.5625 53.03125 72.703125 48.75 
Q 76.859375 44.484375 76.859375 35.59375 
L 76.859375 0 
L 68.109375 0 
L 68.109375 32.671875 
Q 68.109375 37.9375 67.25 40.25 
Q 66.40625 42.578125 64.15625 43.984375 
Q 61.921875 45.40625 58.890625 45.40625 
Q 53.421875 45.40625 49.796875 41.765625 
Q 46.1875 38.140625 46.1875 30.125 
L 46.1875 0 
L 37.40625 0 
L 37.40625 33.6875 
Q 37.40625 39.546875 35.25 42.46875 
Q 33.109375 45.40625 28.21875 45.40625 
Q 24.515625 45.40625 21.359375 43.453125 
Q 18.21875 41.5 16.796875 37.734375 
Q 15.375 33.984375 15.375 26.90625 
L 15.375 0 
z
" id="ArialMT-109"/>
       <path d="M 3.328125 25.921875 
Q 3.328125 40.328125 11.328125 47.265625 
Q 18.015625 53.03125 27.640625 53.03125 
Q 38.328125 53.03125 45.109375 46.015625 
Q 51.90625 39.015625 51.90625 26.65625 
Q 51.90625 16.65625 48.90625 10.90625 
Q 45.90625 5.171875 40.15625 2 
Q 34.421875 -1.171875 27.640625 -1.171875 
Q 16.75 -1.171875 10.03125 5.8125 
Q 3.328125 12.796875 3.328125 25.921875 
z
M 12.359375 25.921875 
Q 12.359375 15.96875 16.703125 11.015625 
Q 21.046875 6.0625 27.640625 6.0625 
Q 34.1875 6.0625 38.53125 11.03125 
Q 42.875 16.015625 42.875 26.21875 
Q 42.875 35.84375 38.5 40.796875 
Q 34.125 45.75 27.640625 45.75 
Q 21.046875 45.75 16.703125 40.8125 
Q 12.359375 35.890625 12.359375 25.921875 
z
" id="ArialMT-111"/>
       <path d="M 6.59375 0 
L 6.59375 51.859375 
L 14.5 51.859375 
L 14.5 44.484375 
Q 20.21875 53.03125 31 53.03125 
Q 35.6875 53.03125 39.625 51.34375 
Q 43.5625 49.65625 45.515625 46.921875 
Q 47.46875 44.1875 48.25 40.4375 
Q 48.734375 37.984375 48.734375 31.890625 
L 48.734375 0 
L 39.9375 0 
L 39.9375 31.546875 
Q 39.9375 36.921875 38.90625 39.578125 
Q 37.890625 42.234375 35.28125 43.8125 
Q 32.671875 45.40625 29.15625 45.40625 
Q 23.53125 45.40625 19.453125 41.84375 
Q 15.375 38.28125 15.375 28.328125 
L 15.375 0 
z
" id="ArialMT-110"/>
       <path d="M 6.640625 61.46875 
L 6.640625 71.578125 
L 15.4375 71.578125 
L 15.4375 61.46875 
z
M 6.640625 0 
L 6.640625 51.859375 
L 15.4375 51.859375 
L 15.4375 0 
z
" id="ArialMT-105"/>
      </defs>
      <g style="fill:#262626;" transform="translate(98.38629 541.86225)rotate(-90)scale(0.088 -0.088)">
       <use xlink:href="#ArialMT-65"/>
       <use x="66.699219" xlink:href="#ArialMT-109"/>
       <use x="150" xlink:href="#ArialMT-109"/>
       <use x="233.300781" xlink:href="#ArialMT-111"/>
       <use x="288.916016" xlink:href="#ArialMT-110"/>
       <use x="344.53125" xlink:href="#ArialMT-105"/>
       <use x="366.748047" xlink:href="#ArialMT-97"/>
      </g>
     </g>
    </g>
    <g id="xtick_3">
     <g id="line2d_3">
      <g>
       <use style="fill:#262626;stroke:#262626;stroke-width:1.25;" x="143.062488" xlink:href="#m88f93c7ce3" y="495.196"/>
      </g>
     </g>
     <g id="text_3">
      <!-- CO$_2$ -->
      <defs>
       <path d="M 58.796875 25.09375 
L 68.265625 22.703125 
Q 65.28125 11.03125 57.546875 4.90625 
Q 49.8125 -1.21875 38.625 -1.21875 
Q 27.046875 -1.21875 19.796875 3.484375 
Q 12.546875 8.203125 8.765625 17.140625 
Q 4.984375 26.078125 4.984375 36.328125 
Q 4.984375 47.515625 9.25 55.828125 
Q 13.53125 64.15625 21.40625 68.46875 
Q 29.296875 72.796875 38.765625 72.796875 
Q 49.515625 72.796875 56.828125 67.328125 
Q 64.15625 61.859375 67.046875 51.953125 
L 57.71875 49.75 
Q 55.21875 57.5625 50.484375 61.125 
Q 45.75 64.703125 38.578125 64.703125 
Q 30.328125 64.703125 24.78125 60.734375 
Q 19.234375 56.78125 16.984375 50.109375 
Q 14.75 43.453125 14.75 36.375 
Q 14.75 27.25 17.40625 20.4375 
Q 20.0625 13.625 25.671875 10.25 
Q 31.296875 6.890625 37.84375 6.890625 
Q 45.796875 6.890625 51.3125 11.46875 
Q 56.84375 16.0625 58.796875 25.09375 
z
" id="ArialMT-67"/>
       <path d="M 4.828125 34.859375 
Q 4.828125 52.6875 14.390625 62.765625 
Q 23.96875 72.859375 39.109375 72.859375 
Q 49.03125 72.859375 56.984375 68.109375 
Q 64.9375 63.375 69.109375 54.90625 
Q 73.296875 46.4375 73.296875 35.6875 
Q 73.296875 24.8125 68.890625 16.21875 
Q 64.5 7.625 56.4375 3.203125 
Q 48.390625 -1.21875 39.0625 -1.21875 
Q 28.953125 -1.21875 20.984375 3.65625 
Q 13.03125 8.546875 8.921875 16.984375 
Q 4.828125 25.4375 4.828125 34.859375 
z
M 14.59375 34.71875 
Q 14.59375 21.78125 21.546875 14.328125 
Q 28.515625 6.890625 39.015625 6.890625 
Q 49.703125 6.890625 56.609375 14.40625 
Q 63.53125 21.921875 63.53125 35.75 
Q 63.53125 44.484375 60.578125 51 
Q 57.625 57.515625 51.921875 61.109375 
Q 46.234375 64.703125 39.15625 64.703125 
Q 29.109375 64.703125 21.84375 57.78125 
Q 14.59375 50.875 14.59375 34.71875 
z
" id="ArialMT-79"/>
       <path d="M 50.34375 8.453125 
L 50.34375 0 
L 3.03125 0 
Q 2.9375 3.171875 4.046875 6.109375 
Q 5.859375 10.9375 9.828125 15.625 
Q 13.8125 20.3125 21.34375 26.46875 
Q 33.015625 36.03125 37.109375 41.625 
Q 41.21875 47.21875 41.21875 52.203125 
Q 41.21875 57.421875 37.46875 61 
Q 33.734375 64.59375 27.734375 64.59375 
Q 21.390625 64.59375 17.578125 60.78125 
Q 13.765625 56.984375 13.71875 50.25 
L 4.6875 51.171875 
Q 5.609375 61.28125 11.65625 66.578125 
Q 17.71875 71.875 27.9375 71.875 
Q 38.234375 71.875 44.234375 66.15625 
Q 50.25 60.453125 50.25 52 
Q 50.25 47.703125 48.484375 43.546875 
Q 46.734375 39.40625 42.65625 34.8125 
Q 38.578125 30.21875 29.109375 22.21875 
Q 21.1875 15.578125 18.9375 13.203125 
Q 16.703125 10.84375 15.234375 8.453125 
z
" id="ArialMT-50"/>
      </defs>
      <g style="fill:#262626;" transform="translate(144.954488 521.944)rotate(-90)scale(0.088 -0.088)">
       <use transform="translate(0 0.140625)" xlink:href="#ArialMT-67"/>
       <use transform="translate(72.216797 0.140625)" xlink:href="#ArialMT-79"/>
       <use transform="translate(151.742344 -29.728125)scale(0.7)" xlink:href="#ArialMT-50"/>
      </g>
     </g>
    </g>
    <g id="xtick_4">
     <g id="line2d_4">
      <g>
       <use style="fill:#262626;stroke:#262626;stroke-width:1.25;" x="190.013623" xlink:href="#m88f93c7ce3" y="495.196"/>
      </g>
     </g>
     <g id="text_4">
      <!-- CO$_2$ -->
      <g style="fill:#262626;" transform="translate(191.905623 521.944)rotate(-90)scale(0.088 -0.088)">
       <use transform="translate(0 0.140625)" xlink:href="#ArialMT-67"/>
       <use transform="translate(72.216797 0.140625)" xlink:href="#ArialMT-79"/>
       <use transform="translate(151.742344 -29.728125)scale(0.7)" xlink:href="#ArialMT-50"/>
      </g>
     </g>
    </g>
    <g id="xtick_5">
     <g id="line2d_5">
      <g>
       <use style="fill:#262626;stroke:#262626;stroke-width:1.25;" x="236.964758" xlink:href="#m88f93c7ce3" y="495.196"/>
      </g>
     </g>
     <g id="text_5">
      <!-- Glycolate -->
      <defs>
       <path d="M 41.21875 28.078125 
L 41.21875 36.46875 
L 71.53125 36.53125 
L 71.53125 9.96875 
Q 64.546875 4.390625 57.125 1.578125 
Q 49.703125 -1.21875 41.890625 -1.21875 
Q 31.34375 -1.21875 22.71875 3.296875 
Q 14.109375 7.8125 9.71875 16.359375 
Q 5.328125 24.90625 5.328125 35.453125 
Q 5.328125 45.90625 9.6875 54.953125 
Q 14.0625 64.015625 22.265625 68.40625 
Q 30.46875 72.796875 41.15625 72.796875 
Q 48.921875 72.796875 55.1875 70.28125 
Q 61.46875 67.78125 65.03125 63.28125 
Q 68.609375 58.796875 70.453125 51.5625 
L 61.921875 49.21875 
Q 60.296875 54.6875 57.90625 57.8125 
Q 55.515625 60.9375 51.0625 62.8125 
Q 46.625 64.703125 41.21875 64.703125 
Q 34.71875 64.703125 29.984375 62.71875 
Q 25.25 60.75 22.34375 57.515625 
Q 19.4375 54.296875 17.828125 50.4375 
Q 15.09375 43.796875 15.09375 36.03125 
Q 15.09375 26.46875 18.390625 20.015625 
Q 21.6875 13.578125 27.984375 10.453125 
Q 34.28125 7.328125 41.359375 7.328125 
Q 47.515625 7.328125 53.375 9.6875 
Q 59.234375 12.0625 62.25 14.75 
L 62.25 28.078125 
z
" id="ArialMT-71"/>
       <path d="M 6.390625 0 
L 6.390625 71.578125 
L 15.1875 71.578125 
L 15.1875 0 
z
" id="ArialMT-108"/>
       <path d="M 6.203125 -19.96875 
L 5.21875 -11.71875 
Q 8.109375 -12.5 10.25 -12.5 
Q 13.1875 -12.5 14.9375 -11.515625 
Q 16.703125 -10.546875 17.828125 -8.796875 
Q 18.65625 -7.46875 20.515625 -2.25 
Q 20.75 -1.515625 21.296875 -0.09375 
L 1.609375 51.859375 
L 11.078125 51.859375 
L 21.875 21.828125 
Q 23.96875 16.109375 25.640625 9.8125 
Q 27.15625 15.875 29.25 21.625 
L 40.328125 51.859375 
L 49.125 51.859375 
L 29.390625 -0.875 
Q 26.21875 -9.421875 24.46875 -12.640625 
Q 22.125 -17 19.09375 -19.015625 
Q 16.0625 -21.046875 11.859375 -21.046875 
Q 9.328125 -21.046875 6.203125 -19.96875 
z
" id="ArialMT-121"/>
      </defs>
      <g style="fill:#262626;" transform="translate(239.241758 541.376875)rotate(-90)scale(0.088 -0.088)">
       <use xlink:href="#ArialMT-71"/>
       <use x="77.783203" xlink:href="#ArialMT-108"/>
       <use x="100" xlink:href="#ArialMT-121"/>
       <use x="150" xlink:href="#ArialMT-99"/>
       <use x="200" xlink:href="#ArialMT-111"/>
       <use x="255.615234" xlink:href="#ArialMT-108"/>
       <use x="277.832031" xlink:href="#ArialMT-97"/>
       <use x="333.447266" xlink:href="#ArialMT-116"/>
       <use x="361.230469" xlink:href="#ArialMT-101"/>
      </g>
     </g>
    </g>
    <g id="xtick_6">
     <g id="line2d_6">
      <g>
       <use style="fill:#262626;stroke:#262626;stroke-width:1.25;" x="283.915893" xlink:href="#m88f93c7ce3" y="495.196"/>
      </g>
     </g>
     <g id="text_6">
      <!-- Hydrogen -->
      <defs>
       <path d="M 8.015625 0 
L 8.015625 71.578125 
L 17.484375 71.578125 
L 17.484375 42.1875 
L 54.6875 42.1875 
L 54.6875 71.578125 
L 64.15625 71.578125 
L 64.15625 0 
L 54.6875 0 
L 54.6875 33.734375 
L 17.484375 33.734375 
L 17.484375 0 
z
" id="ArialMT-72"/>
       <path d="M 40.234375 0 
L 40.234375 6.546875 
Q 35.296875 -1.171875 25.734375 -1.171875 
Q 19.53125 -1.171875 14.328125 2.25 
Q 9.125 5.671875 6.265625 11.796875 
Q 3.421875 17.921875 3.421875 25.875 
Q 3.421875 33.640625 6 39.96875 
Q 8.59375 46.296875 13.765625 49.65625 
Q 18.953125 53.03125 25.34375 53.03125 
Q 30.03125 53.03125 33.6875 51.046875 
Q 37.359375 49.078125 39.65625 45.90625 
L 39.65625 71.578125 
L 48.390625 71.578125 
L 48.390625 0 
z
M 12.453125 25.875 
Q 12.453125 15.921875 16.640625 10.984375 
Q 20.84375 6.0625 26.5625 6.0625 
Q 32.328125 6.0625 36.34375 10.765625 
Q 40.375 15.484375 40.375 25.140625 
Q 40.375 35.796875 36.265625 40.765625 
Q 32.171875 45.75 26.171875 45.75 
Q 20.3125 45.75 16.375 40.96875 
Q 12.453125 36.1875 12.453125 25.875 
z
" id="ArialMT-100"/>
       <path d="M 6.5 0 
L 6.5 51.859375 
L 14.40625 51.859375 
L 14.40625 44 
Q 17.4375 49.515625 20 51.265625 
Q 22.5625 53.03125 25.640625 53.03125 
Q 30.078125 53.03125 34.671875 50.203125 
L 31.640625 42.046875 
Q 28.421875 43.953125 25.203125 43.953125 
Q 22.3125 43.953125 20.015625 42.21875 
Q 17.71875 40.484375 16.75 37.40625 
Q 15.28125 32.71875 15.28125 27.15625 
L 15.28125 0 
z
" id="ArialMT-114"/>
       <path d="M 4.984375 -4.296875 
L 13.53125 -5.5625 
Q 14.0625 -9.515625 16.5 -11.328125 
Q 19.78125 -13.765625 25.4375 -13.765625 
Q 31.546875 -13.765625 34.859375 -11.328125 
Q 38.1875 -8.890625 39.359375 -4.5 
Q 40.046875 -1.8125 39.984375 6.78125 
Q 34.234375 0 25.640625 0 
Q 14.9375 0 9.078125 7.71875 
Q 3.21875 15.4375 3.21875 26.21875 
Q 3.21875 33.640625 5.90625 39.90625 
Q 8.59375 46.1875 13.6875 49.609375 
Q 18.796875 53.03125 25.6875 53.03125 
Q 34.859375 53.03125 40.828125 45.609375 
L 40.828125 51.859375 
L 48.921875 51.859375 
L 48.921875 7.03125 
Q 48.921875 -5.078125 46.453125 -10.125 
Q 44 -15.1875 38.640625 -18.109375 
Q 33.296875 -21.046875 25.484375 -21.046875 
Q 16.21875 -21.046875 10.5 -16.875 
Q 4.78125 -12.703125 4.984375 -4.296875 
z
M 12.25 26.859375 
Q 12.25 16.65625 16.296875 11.96875 
Q 20.359375 7.28125 26.46875 7.28125 
Q 32.515625 7.28125 36.609375 11.9375 
Q 40.71875 16.609375 40.71875 26.5625 
Q 40.71875 36.078125 36.5 40.90625 
Q 32.28125 45.75 26.3125 45.75 
Q 20.453125 45.75 16.34375 40.984375 
Q 12.25 36.234375 12.25 26.859375 
z
" id="ArialMT-103"/>
      </defs>
      <g style="fill:#262626;" transform="translate(286.139268 542.8495)rotate(-90)scale(0.088 -0.088)">
       <use xlink:href="#ArialMT-72"/>
       <use x="72.216797" xlink:href="#ArialMT-121"/>
       <use x="122.216797" xlink:href="#ArialMT-100"/>
       <use x="177.832031" xlink:href="#ArialMT-114"/>
       <use x="211.132812" xlink:href="#ArialMT-111"/>
       <use x="266.748047" xlink:href="#ArialMT-103"/>
       <use x="322.363281" xlink:href="#ArialMT-101"/>
       <use x="377.978516" xlink:href="#ArialMT-110"/>
      </g>
     </g>
    </g>
    <g id="xtick_7">
     <g id="line2d_7">
      <g>
       <use style="fill:#262626;stroke:#262626;stroke-width:1.25;" x="330.867028" xlink:href="#m88f93c7ce3" y="495.196"/>
      </g>
     </g>
     <g id="text_7">
      <!-- Hydrogen -->
      <g style="fill:#262626;" transform="translate(333.090403 542.8495)rotate(-90)scale(0.088 -0.088)">
       <use xlink:href="#ArialMT-72"/>
       <use x="72.216797" xlink:href="#ArialMT-121"/>
       <use x="122.216797" xlink:href="#ArialMT-100"/>
       <use x="177.832031" xlink:href="#ArialMT-114"/>
       <use x="211.132812" xlink:href="#ArialMT-111"/>
       <use x="266.748047" xlink:href="#ArialMT-103"/>
       <use x="322.363281" xlink:href="#ArialMT-101"/>
       <use x="377.978516" xlink:href="#ArialMT-110"/>
      </g>
     </g>
    </g>
    <g id="xtick_8">
     <g id="line2d_8">
      <g>
       <use style="fill:#262626;stroke:#262626;stroke-width:1.25;" x="377.818163" xlink:href="#m88f93c7ce3" y="495.196"/>
      </g>
     </g>
     <g id="text_8">
      <!-- Light -->
      <defs>
       <path d="M 7.328125 0 
L 7.328125 71.578125 
L 16.796875 71.578125 
L 16.796875 8.453125 
L 52.046875 8.453125 
L 52.046875 0 
z
" id="ArialMT-76"/>
       <path d="M 6.59375 0 
L 6.59375 71.578125 
L 15.375 71.578125 
L 15.375 45.90625 
Q 21.53125 53.03125 30.90625 53.03125 
Q 36.671875 53.03125 40.921875 50.75 
Q 45.171875 48.484375 47 44.484375 
Q 48.828125 40.484375 48.828125 32.859375 
L 48.828125 0 
L 40.046875 0 
L 40.046875 32.859375 
Q 40.046875 39.453125 37.1875 42.453125 
Q 34.328125 45.453125 29.109375 45.453125 
Q 25.203125 45.453125 21.75 43.421875 
Q 18.3125 41.40625 16.84375 37.9375 
Q 15.375 34.46875 15.375 28.375 
L 15.375 0 
z
" id="ArialMT-104"/>
      </defs>
      <g style="fill:#262626;" transform="translate(380.041538 523.776875)rotate(-90)scale(0.088 -0.088)">
       <use xlink:href="#ArialMT-76"/>
       <use x="55.615234" xlink:href="#ArialMT-105"/>
       <use x="77.832031" xlink:href="#ArialMT-103"/>
       <use x="133.447266" xlink:href="#ArialMT-104"/>
       <use x="189.0625" xlink:href="#ArialMT-116"/>
      </g>
     </g>
    </g>
    <g id="xtick_9">
     <g id="line2d_9">
      <g>
       <use style="fill:#262626;stroke:#262626;stroke-width:1.25;" x="424.769298" xlink:href="#m88f93c7ce3" y="495.196"/>
      </g>
     </g>
     <g id="text_9">
      <!-- Oxygen -->
      <defs>
       <path d="M 0.734375 0 
L 19.671875 26.953125 
L 2.15625 51.859375 
L 13.140625 51.859375 
L 21.09375 39.703125 
Q 23.34375 36.234375 24.703125 33.890625 
Q 26.859375 37.109375 28.65625 39.59375 
L 37.40625 51.859375 
L 47.90625 51.859375 
L 29.984375 27.4375 
L 49.265625 0 
L 38.484375 0 
L 27.828125 16.109375 
L 25 20.453125 
L 11.375 0 
z
" id="ArialMT-120"/>
      </defs>
      <g style="fill:#262626;" transform="translate(427.049048 535.021625)rotate(-90)scale(0.088 -0.088)">
       <use xlink:href="#ArialMT-79"/>
       <use x="77.783203" xlink:href="#ArialMT-120"/>
       <use x="127.783203" xlink:href="#ArialMT-121"/>
       <use x="177.783203" xlink:href="#ArialMT-103"/>
       <use x="233.398438" xlink:href="#ArialMT-101"/>
       <use x="289.013672" xlink:href="#ArialMT-110"/>
      </g>
     </g>
    </g>
    <g id="xtick_10">
     <g id="line2d_10">
      <g>
       <use style="fill:#262626;stroke:#262626;stroke-width:1.25;" x="471.720433" xlink:href="#m88f93c7ce3" y="495.196"/>
      </g>
     </g>
     <g id="text_10">
      <!-- Polyhydroxybutyrate -->
      <defs>
       <path d="M 7.71875 0 
L 7.71875 71.578125 
L 34.71875 71.578125 
Q 41.84375 71.578125 45.609375 70.90625 
Q 50.875 70.015625 54.4375 67.546875 
Q 58.015625 65.09375 60.1875 60.640625 
Q 62.359375 56.203125 62.359375 50.875 
Q 62.359375 41.75 56.546875 35.421875 
Q 50.734375 29.109375 35.546875 29.109375 
L 17.1875 29.109375 
L 17.1875 0 
z
M 17.1875 37.546875 
L 35.6875 37.546875 
Q 44.875 37.546875 48.734375 40.96875 
Q 52.59375 44.390625 52.59375 50.59375 
Q 52.59375 55.078125 50.3125 58.265625 
Q 48.046875 61.46875 44.34375 62.5 
Q 41.9375 63.140625 35.5 63.140625 
L 17.1875 63.140625 
z
" id="ArialMT-80"/>
       <path d="M 14.703125 0 
L 6.546875 0 
L 6.546875 71.578125 
L 15.328125 71.578125 
L 15.328125 46.046875 
Q 20.90625 53.03125 29.546875 53.03125 
Q 34.328125 53.03125 38.59375 51.09375 
Q 42.875 49.171875 45.625 45.671875 
Q 48.390625 42.1875 49.953125 37.25 
Q 51.515625 32.328125 51.515625 26.703125 
Q 51.515625 13.375 44.921875 6.09375 
Q 38.328125 -1.171875 29.109375 -1.171875 
Q 19.921875 -1.171875 14.703125 6.5 
z
M 14.59375 26.3125 
Q 14.59375 17 17.140625 12.84375 
Q 21.296875 6.0625 28.375 6.0625 
Q 34.125 6.0625 38.328125 11.0625 
Q 42.53125 16.0625 42.53125 25.984375 
Q 42.53125 36.140625 38.5 40.96875 
Q 34.46875 45.796875 28.765625 45.796875 
Q 23 45.796875 18.796875 40.796875 
Q 14.59375 35.796875 14.59375 26.3125 
z
" id="ArialMT-98"/>
       <path d="M 40.578125 0 
L 40.578125 7.625 
Q 34.515625 -1.171875 24.125 -1.171875 
Q 19.53125 -1.171875 15.546875 0.578125 
Q 11.578125 2.34375 9.640625 5 
Q 7.71875 7.671875 6.9375 11.53125 
Q 6.390625 14.109375 6.390625 19.734375 
L 6.390625 51.859375 
L 15.1875 51.859375 
L 15.1875 23.09375 
Q 15.1875 16.21875 15.71875 13.8125 
Q 16.546875 10.359375 19.234375 8.375 
Q 21.921875 6.390625 25.875 6.390625 
Q 29.828125 6.390625 33.296875 8.421875 
Q 36.765625 10.453125 38.203125 13.9375 
Q 39.65625 17.4375 39.65625 24.078125 
L 39.65625 51.859375 
L 48.4375 51.859375 
L 48.4375 0 
z
" id="ArialMT-117"/>
      </defs>
      <g style="fill:#262626;" transform="translate(473.943807 584.419875)rotate(-90)scale(0.088 -0.088)">
       <use xlink:href="#ArialMT-80"/>
       <use x="66.699219" xlink:href="#ArialMT-111"/>
       <use x="122.314453" xlink:href="#ArialMT-108"/>
       <use x="144.53125" xlink:href="#ArialMT-121"/>
       <use x="194.53125" xlink:href="#ArialMT-104"/>
       <use x="250.146484" xlink:href="#ArialMT-121"/>
       <use x="300.146484" xlink:href="#ArialMT-100"/>
       <use x="355.761719" xlink:href="#ArialMT-114"/>
       <use x="389.0625" xlink:href="#ArialMT-111"/>
       <use x="444.677734" xlink:href="#ArialMT-120"/>
       <use x="494.677734" xlink:href="#ArialMT-121"/>
       <use x="544.677734" xlink:href="#ArialMT-98"/>
       <use x="600.292969" xlink:href="#ArialMT-117"/>
       <use x="655.908203" xlink:href="#ArialMT-116"/>
       <use x="683.691406" xlink:href="#ArialMT-121"/>
       <use x="733.691406" xlink:href="#ArialMT-114"/>
       <use x="766.992188" xlink:href="#ArialMT-97"/>
       <use x="822.607422" xlink:href="#ArialMT-116"/>
       <use x="850.390625" xlink:href="#ArialMT-101"/>
      </g>
     </g>
    </g>
   </g>
   <g id="matplotlib.axis_6">
    <g id="ytick_1">
     <g id="line2d_11">
      <defs>
       <path d="M 0 0 
L 6 0 
" id="mebc246d8ac" style="stroke:#262626;stroke-width:1.25;"/>
      </defs>
      <g>
       <use style="fill:#262626;stroke:#262626;stroke-width:1.25;" x="495.196" xlink:href="#mebc246d8ac" y="49.160218"/>
      </g>
     </g>
     <g id="text_11">
      <!-- Acetate -->
      <g style="fill:#262626;" transform="translate(504.696 52.309655)scale(0.088 -0.088)">
       <use xlink:href="#ArialMT-65"/>
       <use x="66.699219" xlink:href="#ArialMT-99"/>
       <use x="116.699219" xlink:href="#ArialMT-101"/>
       <use x="172.314453" xlink:href="#ArialMT-116"/>
       <use x="200.097656" xlink:href="#ArialMT-97"/>
       <use x="255.712891" xlink:href="#ArialMT-116"/>
       <use x="283.496094" xlink:href="#ArialMT-101"/>
      </g>
     </g>
    </g>
    <g id="ytick_2">
     <g id="line2d_12">
      <g>
       <use style="fill:#262626;stroke:#262626;stroke-width:1.25;" x="495.196" xlink:href="#mebc246d8ac" y="96.111353"/>
      </g>
     </g>
     <g id="text_12">
      <!-- Ammonia -->
      <g style="fill:#262626;" transform="translate(504.696 99.26079)scale(0.088 -0.088)">
       <use xlink:href="#ArialMT-65"/>
       <use x="66.699219" xlink:href="#ArialMT-109"/>
       <use x="150" xlink:href="#ArialMT-109"/>
       <use x="233.300781" xlink:href="#ArialMT-111"/>
       <use x="288.916016" xlink:href="#ArialMT-110"/>
       <use x="344.53125" xlink:href="#ArialMT-105"/>
       <use x="366.748047" xlink:href="#ArialMT-97"/>
      </g>
     </g>
    </g>
    <g id="ytick_3">
     <g id="line2d_13">
      <g>
       <use style="fill:#262626;stroke:#262626;stroke-width:1.25;" x="495.196" xlink:href="#mebc246d8ac" y="143.062488"/>
      </g>
     </g>
     <g id="text_13">
      <!-- CO$_2$ -->
      <g style="fill:#262626;" transform="translate(504.696 146.274488)scale(0.088 -0.088)">
       <use transform="translate(0 0.140625)" xlink:href="#ArialMT-67"/>
       <use transform="translate(72.216797 0.140625)" xlink:href="#ArialMT-79"/>
       <use transform="translate(151.742344 -29.728125)scale(0.7)" xlink:href="#ArialMT-50"/>
      </g>
     </g>
    </g>
    <g id="ytick_4">
     <g id="line2d_14">
      <g>
       <use style="fill:#262626;stroke:#262626;stroke-width:1.25;" x="495.196" xlink:href="#mebc246d8ac" y="190.013623"/>
      </g>
     </g>
     <g id="text_14">
      <!-- CO$_2$ -->
      <g style="fill:#262626;" transform="translate(504.696 193.225623)scale(0.088 -0.088)">
       <use transform="translate(0 0.140625)" xlink:href="#ArialMT-67"/>
       <use transform="translate(72.216797 0.140625)" xlink:href="#ArialMT-79"/>
       <use transform="translate(151.742344 -29.728125)scale(0.7)" xlink:href="#ArialMT-50"/>
      </g>
     </g>
    </g>
    <g id="ytick_5">
     <g id="line2d_15">
      <g>
       <use style="fill:#262626;stroke:#262626;stroke-width:1.25;" x="495.196" xlink:href="#mebc246d8ac" y="236.964758"/>
      </g>
     </g>
     <g id="text_15">
      <!-- Glycolate -->
      <g style="fill:#262626;" transform="translate(504.696 240.16782)scale(0.088 -0.088)">
       <use xlink:href="#ArialMT-71"/>
       <use x="77.783203" xlink:href="#ArialMT-108"/>
       <use x="100" xlink:href="#ArialMT-121"/>
       <use x="150" xlink:href="#ArialMT-99"/>
       <use x="200" xlink:href="#ArialMT-111"/>
       <use x="255.615234" xlink:href="#ArialMT-108"/>
       <use x="277.832031" xlink:href="#ArialMT-97"/>
       <use x="333.447266" xlink:href="#ArialMT-116"/>
       <use x="361.230469" xlink:href="#ArialMT-101"/>
      </g>
     </g>
    </g>
    <g id="ytick_6">
     <g id="line2d_16">
      <g>
       <use style="fill:#262626;stroke:#262626;stroke-width:1.25;" x="495.196" xlink:href="#mebc246d8ac" y="283.915893"/>
      </g>
     </g>
     <g id="text_16">
      <!-- Hydrogen -->
      <g style="fill:#262626;" transform="translate(504.696 287.06533)scale(0.088 -0.088)">
       <use xlink:href="#ArialMT-72"/>
       <use x="72.216797" xlink:href="#ArialMT-121"/>
       <use x="122.216797" xlink:href="#ArialMT-100"/>
       <use x="177.832031" xlink:href="#ArialMT-114"/>
       <use x="211.132812" xlink:href="#ArialMT-111"/>
       <use x="266.748047" xlink:href="#ArialMT-103"/>
       <use x="322.363281" xlink:href="#ArialMT-101"/>
       <use x="377.978516" xlink:href="#ArialMT-110"/>
      </g>
     </g>
    </g>
    <g id="ytick_7">
     <g id="line2d_17">
      <g>
       <use style="fill:#262626;stroke:#262626;stroke-width:1.25;" x="495.196" xlink:href="#mebc246d8ac" y="330.867028"/>
      </g>
     </g>
     <g id="text_17">
      <!-- Hydrogen -->
      <g style="fill:#262626;" transform="translate(504.696 334.016465)scale(0.088 -0.088)">
       <use xlink:href="#ArialMT-72"/>
       <use x="72.216797" xlink:href="#ArialMT-121"/>
       <use x="122.216797" xlink:href="#ArialMT-100"/>
       <use x="177.832031" xlink:href="#ArialMT-114"/>
       <use x="211.132812" xlink:href="#ArialMT-111"/>
       <use x="266.748047" xlink:href="#ArialMT-103"/>
       <use x="322.363281" xlink:href="#ArialMT-101"/>
       <use x="377.978516" xlink:href="#ArialMT-110"/>
      </g>
     </g>
    </g>
    <g id="ytick_8">
     <g id="line2d_18">
      <g>
       <use style="fill:#262626;stroke:#262626;stroke-width:1.25;" x="495.196" xlink:href="#mebc246d8ac" y="377.818163"/>
      </g>
     </g>
     <g id="text_18">
      <!-- Light -->
      <g style="fill:#262626;" transform="translate(504.696 380.9676)scale(0.088 -0.088)">
       <use xlink:href="#ArialMT-76"/>
       <use x="55.615234" xlink:href="#ArialMT-105"/>
       <use x="77.832031" xlink:href="#ArialMT-103"/>
       <use x="133.447266" xlink:href="#ArialMT-104"/>
       <use x="189.0625" xlink:href="#ArialMT-116"/>
      </g>
     </g>
    </g>
    <g id="ytick_9">
     <g id="line2d_19">
      <g>
       <use style="fill:#262626;stroke:#262626;stroke-width:1.25;" x="495.196" xlink:href="#mebc246d8ac" y="424.769298"/>
      </g>
     </g>
     <g id="text_19">
      <!-- Oxygen -->
      <g style="fill:#262626;" transform="translate(504.696 427.97511)scale(0.088 -0.088)">
       <use xlink:href="#ArialMT-79"/>
       <use x="77.783203" xlink:href="#ArialMT-120"/>
       <use x="127.783203" xlink:href="#ArialMT-121"/>
       <use x="177.783203" xlink:href="#ArialMT-103"/>
       <use x="233.398438" xlink:href="#ArialMT-101"/>
       <use x="289.013672" xlink:href="#ArialMT-110"/>
      </g>
     </g>
    </g>
    <g id="ytick_10">
     <g id="line2d_20">
      <g>
       <use style="fill:#262626;stroke:#262626;stroke-width:1.25;" x="495.196" xlink:href="#mebc246d8ac" y="471.720433"/>
      </g>
     </g>
     <g id="text_20">
      <!-- Polyhydroxybutyrate -->
      <g style="fill:#262626;" transform="translate(504.696 474.86987)scale(0.088 -0.088)">
       <use xlink:href="#ArialMT-80"/>
       <use x="66.699219" xlink:href="#ArialMT-111"/>
       <use x="122.314453" xlink:href="#ArialMT-108"/>
       <use x="144.53125" xlink:href="#ArialMT-121"/>
       <use x="194.53125" xlink:href="#ArialMT-104"/>
       <use x="250.146484" xlink:href="#ArialMT-121"/>
       <use x="300.146484" xlink:href="#ArialMT-100"/>
       <use x="355.761719" xlink:href="#ArialMT-114"/>
       <use x="389.0625" xlink:href="#ArialMT-111"/>
       <use x="444.677734" xlink:href="#ArialMT-120"/>
       <use x="494.677734" xlink:href="#ArialMT-121"/>
       <use x="544.677734" xlink:href="#ArialMT-98"/>
       <use x="600.292969" xlink:href="#ArialMT-117"/>
       <use x="655.908203" xlink:href="#ArialMT-116"/>
       <use x="683.691406" xlink:href="#ArialMT-121"/>
       <use x="733.691406" xlink:href="#ArialMT-114"/>
       <use x="766.992188" xlink:href="#ArialMT-97"/>
       <use x="822.607422" xlink:href="#ArialMT-116"/>
       <use x="850.390625" xlink:href="#ArialMT-101"/>
      </g>
     </g>
    </g>
   </g>
   <g id="QuadMesh_3">
    <path clip-path="url(#p72a008edc9)" d="M 25.68465 25.68465 
L 72.635785 25.68465 
L 72.635785 72.635785 
L 25.68465 72.635785 
L 25.68465 25.68465 
" style="fill:#66c2a5;"/>
    <path clip-path="url(#p72a008edc9)" d="M 72.635785 25.68465 
L 119.58692 25.68465 
L 119.58692 72.635785 
L 72.635785 72.635785 
L 72.635785 25.68465 
" style="fill:#9ed8c6;"/>
    <path clip-path="url(#p72a008edc9)" d="M 119.58692 25.68465 
L 166.538055 25.68465 
L 166.538055 72.635785 
L 119.58692 72.635785 
L 119.58692 25.68465 
" style="fill:#bfe6da;"/>
    <path clip-path="url(#p72a008edc9)" d="M 166.538055 25.68465 
L 213.48919 25.68465 
L 213.48919 72.635785 
L 166.538055 72.635785 
L 166.538055 25.68465 
" style="fill:#f1f9f7;"/>
    <path clip-path="url(#p72a008edc9)" d="M 213.48919 25.68465 
L 260.440325 25.68465 
L 260.440325 72.635785 
L 213.48919 72.635785 
L 213.48919 25.68465 
" style="fill:#c4e7dc;"/>
    <path clip-path="url(#p72a008edc9)" d="M 260.440325 25.68465 
L 307.39146 25.68465 
L 307.39146 72.635785 
L 260.440325 72.635785 
L 260.440325 25.68465 
" style="fill:#f1f9f7;"/>
    <path clip-path="url(#p72a008edc9)" d="M 307.39146 25.68465 
L 354.342595 25.68465 
L 354.342595 72.635785 
L 307.39146 72.635785 
L 307.39146 25.68465 
" style="fill:#cbeae0;"/>
    <path clip-path="url(#p72a008edc9)" d="M 354.342595 25.68465 
L 401.29373 25.68465 
L 401.29373 72.635785 
L 354.342595 72.635785 
L 354.342595 25.68465 
" style="fill:#bfe6da;"/>
    <path clip-path="url(#p72a008edc9)" d="M 401.29373 25.68465 
L 448.244865 25.68465 
L 448.244865 72.635785 
L 401.29373 72.635785 
L 401.29373 25.68465 
" style="fill:#b5e1d3;"/>
    <path clip-path="url(#p72a008edc9)" d="M 448.244865 25.68465 
L 495.196 25.68465 
L 495.196 72.635785 
L 448.244865 72.635785 
L 448.244865 25.68465 
" style="fill:#f4fbf9;"/>
    <path clip-path="url(#p72a008edc9)" d="M 25.68465 72.635785 
L 72.635785 72.635785 
L 72.635785 119.58692 
L 25.68465 119.58692 
L 25.68465 72.635785 
" style="fill:#9ed8c6;"/>
    <path clip-path="url(#p72a008edc9)" d="M 72.635785 72.635785 
L 119.58692 72.635785 
L 119.58692 119.58692 
L 72.635785 119.58692 
L 72.635785 72.635785 
" style="fill:#66c2a5;"/>
    <path clip-path="url(#p72a008edc9)" d="M 119.58692 72.635785 
L 166.538055 72.635785 
L 166.538055 119.58692 
L 119.58692 119.58692 
L 119.58692 72.635785 
" style="fill:#a1dac8;"/>
    <path clip-path="url(#p72a008edc9)" d="M 166.538055 72.635785 
L 213.48919 72.635785 
L 213.48919 119.58692 
L 166.538055 119.58692 
L 166.538055 72.635785 
" style="fill:#e2f3ee;"/>
    <path clip-path="url(#p72a008edc9)" d="M 213.48919 72.635785 
L 260.440325 72.635785 
L 260.440325 119.58692 
L 213.48919 119.58692 
L 213.48919 72.635785 
" style="fill:#92d4bf;"/>
    <path clip-path="url(#p72a008edc9)" d="M 260.440325 72.635785 
L 307.39146 72.635785 
L 307.39146 119.58692 
L 260.440325 119.58692 
L 260.440325 72.635785 
" style="fill:#e9f6f2;"/>
    <path clip-path="url(#p72a008edc9)" d="M 307.39146 72.635785 
L 354.342595 72.635785 
L 354.342595 119.58692 
L 307.39146 119.58692 
L 307.39146 72.635785 
" style="fill:#a9ddcd;"/>
    <path clip-path="url(#p72a008edc9)" d="M 354.342595 72.635785 
L 401.29373 72.635785 
L 401.29373 119.58692 
L 354.342595 119.58692 
L 354.342595 72.635785 
" style="fill:#a1dac8;"/>
    <path clip-path="url(#p72a008edc9)" d="M 401.29373 72.635785 
L 448.244865 72.635785 
L 448.244865 119.58692 
L 401.29373 119.58692 
L 401.29373 72.635785 
" style="fill:#8fd2bd;"/>
    <path clip-path="url(#p72a008edc9)" d="M 448.244865 72.635785 
L 495.196 72.635785 
L 495.196 119.58692 
L 448.244865 119.58692 
L 448.244865 72.635785 
" style="fill:#f1f9f7;"/>
    <path clip-path="url(#p72a008edc9)" d="M 25.68465 119.58692 
L 72.635785 119.58692 
L 72.635785 166.538055 
L 25.68465 166.538055 
L 25.68465 119.58692 
" style="fill:#bfe6da;"/>
    <path clip-path="url(#p72a008edc9)" d="M 72.635785 119.58692 
L 119.58692 119.58692 
L 119.58692 166.538055 
L 72.635785 166.538055 
L 72.635785 119.58692 
" style="fill:#a1dac8;"/>
    <path clip-path="url(#p72a008edc9)" d="M 119.58692 119.58692 
L 166.538055 119.58692 
L 166.538055 166.538055 
L 119.58692 166.538055 
L 119.58692 119.58692 
" style="fill:#66c2a5;"/>
    <path clip-path="url(#p72a008edc9)" d="M 166.538055 119.58692 
L 213.48919 119.58692 
L 213.48919 166.538055 
L 166.538055 166.538055 
L 166.538055 119.58692 
" style="fill:#ffffff;"/>
    <path clip-path="url(#p72a008edc9)" d="M 213.48919 119.58692 
L 260.440325 119.58692 
L 260.440325 166.538055 
L 213.48919 166.538055 
L 213.48919 119.58692 
" style="fill:#b8e3d5;"/>
    <path clip-path="url(#p72a008edc9)" d="M 260.440325 119.58692 
L 307.39146 119.58692 
L 307.39146 166.538055 
L 260.440325 166.538055 
L 260.440325 119.58692 
" style="fill:#e9f6f2;"/>
    <path clip-path="url(#p72a008edc9)" d="M 307.39146 119.58692 
L 354.342595 119.58692 
L 354.342595 166.538055 
L 307.39146 166.538055 
L 307.39146 119.58692 
" style="fill:#e5f5f0;"/>
    <path clip-path="url(#p72a008edc9)" d="M 354.342595 119.58692 
L 401.29373 119.58692 
L 401.29373 166.538055 
L 354.342595 166.538055 
L 354.342595 119.58692 
" style="fill:#c4e7dc;"/>
    <path clip-path="url(#p72a008edc9)" d="M 401.29373 119.58692 
L 448.244865 119.58692 
L 448.244865 166.538055 
L 401.29373 166.538055 
L 401.29373 119.58692 
" style="fill:#bce4d7;"/>
    <path clip-path="url(#p72a008edc9)" d="M 448.244865 119.58692 
L 495.196 119.58692 
L 495.196 166.538055 
L 448.244865 166.538055 
L 448.244865 119.58692 
" style="fill:#f1f9f7;"/>
    <path clip-path="url(#p72a008edc9)" d="M 25.68465 166.538055 
L 72.635785 166.538055 
L 72.635785 213.48919 
L 25.68465 213.48919 
L 25.68465 166.538055 
" style="fill:#f1f9f7;"/>
    <path clip-path="url(#p72a008edc9)" d="M 72.635785 166.538055 
L 119.58692 166.538055 
L 119.58692 213.48919 
L 72.635785 213.48919 
L 72.635785 166.538055 
" style="fill:#e2f3ee;"/>
    <path clip-path="url(#p72a008edc9)" d="M 119.58692 166.538055 
L 166.538055 166.538055 
L 166.538055 213.48919 
L 119.58692 213.48919 
L 119.58692 166.538055 
" style="fill:#ffffff;"/>
    <path clip-path="url(#p72a008edc9)" d="M 166.538055 166.538055 
L 213.48919 166.538055 
L 213.48919 213.48919 
L 166.538055 213.48919 
L 166.538055 166.538055 
" style="fill:#66c2a5;"/>
    <path clip-path="url(#p72a008edc9)" d="M 213.48919 166.538055 
L 260.440325 166.538055 
L 260.440325 213.48919 
L 213.48919 213.48919 
L 213.48919 166.538055 
" style="fill:#f1f9f7;"/>
    <path clip-path="url(#p72a008edc9)" d="M 260.440325 166.538055 
L 307.39146 166.538055 
L 307.39146 213.48919 
L 260.440325 213.48919 
L 260.440325 166.538055 
" style="fill:#ffffff;"/>
    <path clip-path="url(#p72a008edc9)" d="M 307.39146 166.538055 
L 354.342595 166.538055 
L 354.342595 213.48919 
L 307.39146 213.48919 
L 307.39146 166.538055 
" style="fill:#e2f3ee;"/>
    <path clip-path="url(#p72a008edc9)" d="M 354.342595 166.538055 
L 401.29373 166.538055 
L 401.29373 213.48919 
L 354.342595 213.48919 
L 354.342595 166.538055 
" style="fill:#f1f9f7;"/>
    <path clip-path="url(#p72a008edc9)" d="M 401.29373 166.538055 
L 448.244865 166.538055 
L 448.244865 213.48919 
L 401.29373 213.48919 
L 401.29373 166.538055 
" style="fill:#e9f6f2;"/>
    <path clip-path="url(#p72a008edc9)" d="M 448.244865 166.538055 
L 495.196 166.538055 
L 495.196 213.48919 
L 448.244865 213.48919 
L 448.244865 166.538055 
" style="fill:#ffffff;"/>
    <path clip-path="url(#p72a008edc9)" d="M 25.68465 213.48919 
L 72.635785 213.48919 
L 72.635785 260.440325 
L 25.68465 260.440325 
L 25.68465 213.48919 
" style="fill:#c4e7dc;"/>
    <path clip-path="url(#p72a008edc9)" d="M 72.635785 213.48919 
L 119.58692 213.48919 
L 119.58692 260.440325 
L 72.635785 260.440325 
L 72.635785 213.48919 
" style="fill:#92d4bf;"/>
    <path clip-path="url(#p72a008edc9)" d="M 119.58692 213.48919 
L 166.538055 213.48919 
L 166.538055 260.440325 
L 119.58692 260.440325 
L 119.58692 213.48919 
" style="fill:#b8e3d5;"/>
    <path clip-path="url(#p72a008edc9)" d="M 166.538055 213.48919 
L 213.48919 213.48919 
L 213.48919 260.440325 
L 166.538055 260.440325 
L 166.538055 213.48919 
" style="fill:#f1f9f7;"/>
    <path clip-path="url(#p72a008edc9)" d="M 213.48919 213.48919 
L 260.440325 213.48919 
L 260.440325 260.440325 
L 213.48919 260.440325 
L 213.48919 213.48919 
" style="fill:#66c2a5;"/>
    <path clip-path="url(#p72a008edc9)" d="M 260.440325 213.48919 
L 307.39146 213.48919 
L 307.39146 260.440325 
L 260.440325 260.440325 
L 260.440325 213.48919 
" style="fill:#ecf8f4;"/>
    <path clip-path="url(#p72a008edc9)" d="M 307.39146 213.48919 
L 354.342595 213.48919 
L 354.342595 260.440325 
L 307.39146 260.440325 
L 307.39146 213.48919 
" style="fill:#c7e9de;"/>
    <path clip-path="url(#p72a008edc9)" d="M 354.342595 213.48919 
L 401.29373 213.48919 
L 401.29373 260.440325 
L 354.342595 260.440325 
L 354.342595 213.48919 
" style="fill:#bce4d7;"/>
    <path clip-path="url(#p72a008edc9)" d="M 401.29373 213.48919 
L 448.244865 213.48919 
L 448.244865 260.440325 
L 401.29373 260.440325 
L 401.29373 213.48919 
" style="fill:#bce4d7;"/>
    <path clip-path="url(#p72a008edc9)" d="M 448.244865 213.48919 
L 495.196 213.48919 
L 495.196 260.440325 
L 448.244865 260.440325 
L 448.244865 213.48919 
" style="fill:#f4fbf9;"/>
    <path clip-path="url(#p72a008edc9)" d="M 25.68465 260.440325 
L 72.635785 260.440325 
L 72.635785 307.39146 
L 25.68465 307.39146 
L 25.68465 260.440325 
" style="fill:#f1f9f7;"/>
    <path clip-path="url(#p72a008edc9)" d="M 72.635785 260.440325 
L 119.58692 260.440325 
L 119.58692 307.39146 
L 72.635785 307.39146 
L 72.635785 260.440325 
" style="fill:#e9f6f2;"/>
    <path clip-path="url(#p72a008edc9)" d="M 119.58692 260.440325 
L 166.538055 260.440325 
L 166.538055 307.39146 
L 119.58692 307.39146 
L 119.58692 260.440325 
" style="fill:#e9f6f2;"/>
    <path clip-path="url(#p72a008edc9)" d="M 166.538055 260.440325 
L 213.48919 260.440325 
L 213.48919 307.39146 
L 166.538055 307.39146 
L 166.538055 260.440325 
" style="fill:#ffffff;"/>
    <path clip-path="url(#p72a008edc9)" d="M 213.48919 260.440325 
L 260.440325 260.440325 
L 260.440325 307.39146 
L 213.48919 307.39146 
L 213.48919 260.440325 
" style="fill:#ecf8f4;"/>
    <path clip-path="url(#p72a008edc9)" d="M 260.440325 260.440325 
L 307.39146 260.440325 
L 307.39146 307.39146 
L 260.440325 307.39146 
L 260.440325 260.440325 
" style="fill:#66c2a5;"/>
    <path clip-path="url(#p72a008edc9)" d="M 307.39146 260.440325 
L 354.342595 260.440325 
L 354.342595 307.39146 
L 307.39146 307.39146 
L 307.39146 260.440325 
" style="fill:#ffffff;"/>
    <path clip-path="url(#p72a008edc9)" d="M 354.342595 260.440325 
L 401.29373 260.440325 
L 401.29373 307.39146 
L 354.342595 307.39146 
L 354.342595 260.440325 
" style="fill:#f1f9f7;"/>
    <path clip-path="url(#p72a008edc9)" d="M 401.29373 260.440325 
L 448.244865 260.440325 
L 448.244865 307.39146 
L 401.29373 307.39146 
L 401.29373 260.440325 
" style="fill:#f1f9f7;"/>
    <path clip-path="url(#p72a008edc9)" d="M 448.244865 260.440325 
L 495.196 260.440325 
L 495.196 307.39146 
L 448.244865 307.39146 
L 448.244865 260.440325 
" style="fill:#ffffff;"/>
    <path clip-path="url(#p72a008edc9)" d="M 25.68465 307.39146 
L 72.635785 307.39146 
L 72.635785 354.342595 
L 25.68465 354.342595 
L 25.68465 307.39146 
" style="fill:#cbeae0;"/>
    <path clip-path="url(#p72a008edc9)" d="M 72.635785 307.39146 
L 119.58692 307.39146 
L 119.58692 354.342595 
L 72.635785 354.342595 
L 72.635785 307.39146 
" style="fill:#a9ddcd;"/>
    <path clip-path="url(#p72a008edc9)" d="M 119.58692 307.39146 
L 166.538055 307.39146 
L 166.538055 354.342595 
L 119.58692 354.342595 
L 119.58692 307.39146 
" style="fill:#e5f5f0;"/>
    <path clip-path="url(#p72a008edc9)" d="M 166.538055 307.39146 
L 213.48919 307.39146 
L 213.48919 354.342595 
L 166.538055 354.342595 
L 166.538055 307.39146 
" style="fill:#e2f3ee;"/>
    <path clip-path="url(#p72a008edc9)" d="M 213.48919 307.39146 
L 260.440325 307.39146 
L 260.440325 354.342595 
L 213.48919 354.342595 
L 213.48919 307.39146 
" style="fill:#c7e9de;"/>
    <path clip-path="url(#p72a008edc9)" d="M 260.440325 307.39146 
L 307.39146 307.39146 
L 307.39146 354.342595 
L 260.440325 354.342595 
L 260.440325 307.39146 
" style="fill:#ffffff;"/>
    <path clip-path="url(#p72a008edc9)" d="M 307.39146 307.39146 
L 354.342595 307.39146 
L 354.342595 354.342595 
L 307.39146 354.342595 
L 307.39146 307.39146 
" style="fill:#66c2a5;"/>
    <path clip-path="url(#p72a008edc9)" d="M 354.342595 307.39146 
L 401.29373 307.39146 
L 401.29373 354.342595 
L 354.342595 354.342595 
L 354.342595 307.39146 
" style="fill:#ceece2;"/>
    <path clip-path="url(#p72a008edc9)" d="M 401.29373 307.39146 
L 448.244865 307.39146 
L 448.244865 354.342595 
L 401.29373 354.342595 
L 401.29373 307.39146 
" style="fill:#bfe6da;"/>
    <path clip-path="url(#p72a008edc9)" d="M 448.244865 307.39146 
L 495.196 307.39146 
L 495.196 354.342595 
L 448.244865 354.342595 
L 448.244865 307.39146 
" style="fill:#ffffff;"/>
    <path clip-path="url(#p72a008edc9)" d="M 25.68465 354.342595 
L 72.635785 354.342595 
L 72.635785 401.29373 
L 25.68465 401.29373 
L 25.68465 354.342595 
" style="fill:#bfe6da;"/>
    <path clip-path="url(#p72a008edc9)" d="M 72.635785 354.342595 
L 119.58692 354.342595 
L 119.58692 401.29373 
L 72.635785 401.29373 
L 72.635785 354.342595 
" style="fill:#a1dac8;"/>
    <path clip-path="url(#p72a008edc9)" d="M 119.58692 354.342595 
L 166.538055 354.342595 
L 166.538055 401.29373 
L 119.58692 401.29373 
L 119.58692 354.342595 
" style="fill:#c4e7dc;"/>
    <path clip-path="url(#p72a008edc9)" d="M 166.538055 354.342595 
L 213.48919 354.342595 
L 213.48919 401.29373 
L 166.538055 401.29373 
L 166.538055 354.342595 
" style="fill:#f1f9f7;"/>
    <path clip-path="url(#p72a008edc9)" d="M 213.48919 354.342595 
L 260.440325 354.342595 
L 260.440325 401.29373 
L 213.48919 401.29373 
L 213.48919 354.342595 
" style="fill:#bce4d7;"/>
    <path clip-path="url(#p72a008edc9)" d="M 260.440325 354.342595 
L 307.39146 354.342595 
L 307.39146 401.29373 
L 260.440325 401.29373 
L 260.440325 354.342595 
" style="fill:#f1f9f7;"/>
    <path clip-path="url(#p72a008edc9)" d="M 307.39146 354.342595 
L 354.342595 354.342595 
L 354.342595 401.29373 
L 307.39146 401.29373 
L 307.39146 354.342595 
" style="fill:#ceece2;"/>
    <path clip-path="url(#p72a008edc9)" d="M 354.342595 354.342595 
L 401.29373 354.342595 
L 401.29373 401.29373 
L 354.342595 401.29373 
L 354.342595 354.342595 
" style="fill:#66c2a5;"/>
    <path clip-path="url(#p72a008edc9)" d="M 401.29373 354.342595 
L 448.244865 354.342595 
L 448.244865 401.29373 
L 401.29373 401.29373 
L 401.29373 354.342595 
" style="fill:#cbeae0;"/>
    <path clip-path="url(#p72a008edc9)" d="M 448.244865 354.342595 
L 495.196 354.342595 
L 495.196 401.29373 
L 448.244865 401.29373 
L 448.244865 354.342595 
" style="fill:#f4fbf9;"/>
    <path clip-path="url(#p72a008edc9)" d="M 25.68465 401.29373 
L 72.635785 401.29373 
L 72.635785 448.244865 
L 25.68465 448.244865 
L 25.68465 401.29373 
" style="fill:#b5e1d3;"/>
    <path clip-path="url(#p72a008edc9)" d="M 72.635785 401.29373 
L 119.58692 401.29373 
L 119.58692 448.244865 
L 72.635785 448.244865 
L 72.635785 401.29373 
" style="fill:#8fd2bd;"/>
    <path clip-path="url(#p72a008edc9)" d="M 119.58692 401.29373 
L 166.538055 401.29373 
L 166.538055 448.244865 
L 119.58692 448.244865 
L 119.58692 401.29373 
" style="fill:#bce4d7;"/>
    <path clip-path="url(#p72a008edc9)" d="M 166.538055 401.29373 
L 213.48919 401.29373 
L 213.48919 448.244865 
L 166.538055 448.244865 
L 166.538055 401.29373 
" style="fill:#e9f6f2;"/>
    <path clip-path="url(#p72a008edc9)" d="M 213.48919 401.29373 
L 260.440325 401.29373 
L 260.440325 448.244865 
L 213.48919 448.244865 
L 213.48919 401.29373 
" style="fill:#bce4d7;"/>
    <path clip-path="url(#p72a008edc9)" d="M 260.440325 401.29373 
L 307.39146 401.29373 
L 307.39146 448.244865 
L 260.440325 448.244865 
L 260.440325 401.29373 
" style="fill:#f1f9f7;"/>
    <path clip-path="url(#p72a008edc9)" d="M 307.39146 401.29373 
L 354.342595 401.29373 
L 354.342595 448.244865 
L 307.39146 448.244865 
L 307.39146 401.29373 
" style="fill:#bfe6da;"/>
    <path clip-path="url(#p72a008edc9)" d="M 354.342595 401.29373 
L 401.29373 401.29373 
L 401.29373 448.244865 
L 354.342595 448.244865 
L 354.342595 401.29373 
" style="fill:#cbeae0;"/>
    <path clip-path="url(#p72a008edc9)" d="M 401.29373 401.29373 
L 448.244865 401.29373 
L 448.244865 448.244865 
L 401.29373 448.244865 
L 401.29373 401.29373 
" style="fill:#66c2a5;"/>
    <path clip-path="url(#p72a008edc9)" d="M 448.244865 401.29373 
L 495.196 401.29373 
L 495.196 448.244865 
L 448.244865 448.244865 
L 448.244865 401.29373 
" style="fill:#f4fbf9;"/>
    <path clip-path="url(#p72a008edc9)" d="M 25.68465 448.244865 
L 72.635785 448.244865 
L 72.635785 495.196 
L 25.68465 495.196 
L 25.68465 448.244865 
" style="fill:#f4fbf9;"/>
    <path clip-path="url(#p72a008edc9)" d="M 72.635785 448.244865 
L 119.58692 448.244865 
L 119.58692 495.196 
L 72.635785 495.196 
L 72.635785 448.244865 
" style="fill:#f1f9f7;"/>
    <path clip-path="url(#p72a008edc9)" d="M 119.58692 448.244865 
L 166.538055 448.244865 
L 166.538055 495.196 
L 119.58692 495.196 
L 119.58692 448.244865 
" style="fill:#f1f9f7;"/>
    <path clip-path="url(#p72a008edc9)" d="M 166.538055 448.244865 
L 213.48919 448.244865 
L 213.48919 495.196 
L 166.538055 495.196 
L 166.538055 448.244865 
" style="fill:#ffffff;"/>
    <path clip-path="url(#p72a008edc9)" d="M 213.48919 448.244865 
L 260.440325 448.244865 
L 260.440325 495.196 
L 213.48919 495.196 
L 213.48919 448.244865 
" style="fill:#f4fbf9;"/>
    <path clip-path="url(#p72a008edc9)" d="M 260.440325 448.244865 
L 307.39146 448.244865 
L 307.39146 495.196 
L 260.440325 495.196 
L 260.440325 448.244865 
" style="fill:#ffffff;"/>
    <path clip-path="url(#p72a008edc9)" d="M 307.39146 448.244865 
L 354.342595 448.244865 
L 354.342595 495.196 
L 307.39146 495.196 
L 307.39146 448.244865 
" style="fill:#ffffff;"/>
    <path clip-path="url(#p72a008edc9)" d="M 354.342595 448.244865 
L 401.29373 448.244865 
L 401.29373 495.196 
L 354.342595 495.196 
L 354.342595 448.244865 
" style="fill:#f4fbf9;"/>
    <path clip-path="url(#p72a008edc9)" d="M 401.29373 448.244865 
L 448.244865 448.244865 
L 448.244865 495.196 
L 401.29373 495.196 
L 401.29373 448.244865 
" style="fill:#f4fbf9;"/>
    <path clip-path="url(#p72a008edc9)" d="M 448.244865 448.244865 
L 495.196 448.244865 
L 495.196 495.196 
L 448.244865 495.196 
L 448.244865 448.244865 
" style="fill:#66c2a5;"/>
   </g>
   <g id="text_21">
    <!-- 1.0 -->
    <defs>
     <path d="M 37.25 0 
L 28.46875 0 
L 28.46875 56 
Q 25.296875 52.984375 20.140625 49.953125 
Q 14.984375 46.921875 10.890625 45.40625 
L 10.890625 53.90625 
Q 18.265625 57.375 23.78125 62.296875 
Q 29.296875 67.234375 31.59375 71.875 
L 37.25 71.875 
z
" id="ArialMT-49"/>
     <path d="M 9.078125 0 
L 9.078125 10.015625 
L 19.09375 10.015625 
L 19.09375 0 
z
" id="ArialMT-46"/>
     <path d="M 4.15625 35.296875 
Q 4.15625 48 6.765625 55.734375 
Q 9.375 63.484375 14.515625 67.671875 
Q 19.671875 71.875 27.484375 71.875 
Q 33.25 71.875 37.59375 69.546875 
Q 41.9375 67.234375 44.765625 62.859375 
Q 47.609375 58.5 49.21875 52.21875 
Q 50.828125 45.953125 50.828125 35.296875 
Q 50.828125 22.703125 48.234375 14.96875 
Q 45.65625 7.234375 40.5 3 
Q 35.359375 -1.21875 27.484375 -1.21875 
Q 17.140625 -1.21875 11.234375 6.203125 
Q 4.15625 15.140625 4.15625 35.296875 
z
M 13.1875 35.296875 
Q 13.1875 17.671875 17.3125 11.828125 
Q 21.4375 6 27.484375 6 
Q 33.546875 6 37.671875 11.859375 
Q 41.796875 17.71875 41.796875 35.296875 
Q 41.796875 52.984375 37.671875 58.78125 
Q 33.546875 64.59375 27.390625 64.59375 
Q 21.34375 64.59375 17.71875 59.46875 
Q 13.1875 52.9375 13.1875 35.296875 
z
" id="ArialMT-48"/>
    </defs>
    <g style="fill:#262626;" transform="translate(42.488218 51.641968)scale(0.096 -0.096)">
     <use xlink:href="#ArialMT-49"/>
     <use x="55.615234" xlink:href="#ArialMT-46"/>
     <use x="83.398438" xlink:href="#ArialMT-48"/>
    </g>
   </g>
   <g id="text_22">
    <!-- 0.6 -->
    <defs>
     <path d="M 49.75 54.046875 
L 41.015625 53.375 
Q 39.84375 58.546875 37.703125 60.890625 
Q 34.125 64.65625 28.90625 64.65625 
Q 24.703125 64.65625 21.53125 62.3125 
Q 17.390625 59.28125 14.984375 53.46875 
Q 12.59375 47.65625 12.5 36.921875 
Q 15.671875 41.75 20.265625 44.09375 
Q 24.859375 46.4375 29.890625 46.4375 
Q 38.671875 46.4375 44.84375 39.96875 
Q 51.03125 33.5 51.03125 23.25 
Q 51.03125 16.5 48.125 10.71875 
Q 45.21875 4.9375 40.140625 1.859375 
Q 35.0625 -1.21875 28.609375 -1.21875 
Q 17.625 -1.21875 10.6875 6.859375 
Q 3.765625 14.9375 3.765625 33.5 
Q 3.765625 54.25 11.421875 63.671875 
Q 18.109375 71.875 29.4375 71.875 
Q 37.890625 71.875 43.28125 67.140625 
Q 48.6875 62.40625 49.75 54.046875 
z
M 13.875 23.1875 
Q 13.875 18.65625 15.796875 14.5 
Q 17.71875 10.359375 21.1875 8.171875 
Q 24.65625 6 28.46875 6 
Q 34.03125 6 38.03125 10.484375 
Q 42.046875 14.984375 42.046875 22.703125 
Q 42.046875 30.125 38.078125 34.390625 
Q 34.125 38.671875 28.125 38.671875 
Q 22.171875 38.671875 18.015625 34.390625 
Q 13.875 30.125 13.875 23.1875 
z
" id="ArialMT-54"/>
    </defs>
    <g style="fill:#262626;" transform="translate(89.439353 51.641968)scale(0.096 -0.096)">
     <use xlink:href="#ArialMT-48"/>
     <use x="55.615234" xlink:href="#ArialMT-46"/>
     <use x="83.398438" xlink:href="#ArialMT-54"/>
    </g>
   </g>
   <g id="text_23">
    <!-- 0.4 -->
    <defs>
     <path d="M 32.328125 0 
L 32.328125 17.140625 
L 1.265625 17.140625 
L 1.265625 25.203125 
L 33.9375 71.578125 
L 41.109375 71.578125 
L 41.109375 25.203125 
L 50.78125 25.203125 
L 50.78125 17.140625 
L 41.109375 17.140625 
L 41.109375 0 
z
M 32.328125 25.203125 
L 32.328125 57.46875 
L 9.90625 25.203125 
z
" id="ArialMT-52"/>
    </defs>
    <g style="fill:#262626;" transform="translate(136.390488 51.641968)scale(0.096 -0.096)">
     <use xlink:href="#ArialMT-48"/>
     <use x="55.615234" xlink:href="#ArialMT-46"/>
     <use x="83.398438" xlink:href="#ArialMT-52"/>
    </g>
   </g>
   <g id="text_24">
    <!-- 0.1 -->
    <g style="fill:#262626;" transform="translate(183.341623 51.641968)scale(0.096 -0.096)">
     <use xlink:href="#ArialMT-48"/>
     <use x="55.615234" xlink:href="#ArialMT-46"/>
     <use x="83.398438" xlink:href="#ArialMT-49"/>
    </g>
   </g>
   <g id="text_25">
    <!-- 0.4 -->
    <g style="fill:#262626;" transform="translate(230.292758 51.641968)scale(0.096 -0.096)">
     <use xlink:href="#ArialMT-48"/>
     <use x="55.615234" xlink:href="#ArialMT-46"/>
     <use x="83.398438" xlink:href="#ArialMT-52"/>
    </g>
   </g>
   <g id="text_26">
    <!-- 0.1 -->
    <g style="fill:#262626;" transform="translate(277.243893 51.641968)scale(0.096 -0.096)">
     <use xlink:href="#ArialMT-48"/>
     <use x="55.615234" xlink:href="#ArialMT-46"/>
     <use x="83.398438" xlink:href="#ArialMT-49"/>
    </g>
   </g>
   <g id="text_27">
    <!-- 0.3 -->
    <defs>
     <path d="M 4.203125 18.890625 
L 12.984375 20.0625 
Q 14.5 12.59375 18.140625 9.296875 
Q 21.78125 6 27 6 
Q 33.203125 6 37.46875 10.296875 
Q 41.75 14.59375 41.75 20.953125 
Q 41.75 27 37.796875 30.921875 
Q 33.84375 34.859375 27.734375 34.859375 
Q 25.25 34.859375 21.53125 33.890625 
L 22.515625 41.609375 
Q 23.390625 41.5 23.921875 41.5 
Q 29.546875 41.5 34.03125 44.421875 
Q 38.53125 47.359375 38.53125 53.46875 
Q 38.53125 58.296875 35.25 61.46875 
Q 31.984375 64.65625 26.8125 64.65625 
Q 21.6875 64.65625 18.265625 61.421875 
Q 14.84375 58.203125 13.875 51.765625 
L 5.078125 53.328125 
Q 6.6875 62.15625 12.390625 67.015625 
Q 18.109375 71.875 26.609375 71.875 
Q 32.46875 71.875 37.390625 69.359375 
Q 42.328125 66.84375 44.9375 62.5 
Q 47.5625 58.15625 47.5625 53.265625 
Q 47.5625 48.640625 45.0625 44.828125 
Q 42.578125 41.015625 37.703125 38.765625 
Q 44.046875 37.3125 47.5625 32.6875 
Q 51.078125 28.078125 51.078125 21.140625 
Q 51.078125 11.765625 44.234375 5.25 
Q 37.40625 -1.265625 26.953125 -1.265625 
Q 17.53125 -1.265625 11.296875 4.34375 
Q 5.078125 9.96875 4.203125 18.890625 
z
" id="ArialMT-51"/>
    </defs>
    <g style="fill:#262626;" transform="translate(324.195028 51.641968)scale(0.096 -0.096)">
     <use xlink:href="#ArialMT-48"/>
     <use x="55.615234" xlink:href="#ArialMT-46"/>
     <use x="83.398438" xlink:href="#ArialMT-51"/>
    </g>
   </g>
   <g id="text_28">
    <!-- 0.4 -->
    <g style="fill:#262626;" transform="translate(371.146163 51.641968)scale(0.096 -0.096)">
     <use xlink:href="#ArialMT-48"/>
     <use x="55.615234" xlink:href="#ArialMT-46"/>
     <use x="83.398438" xlink:href="#ArialMT-52"/>
    </g>
   </g>
   <g id="text_29">
    <!-- 0.5 -->
    <defs>
     <path d="M 4.15625 18.75 
L 13.375 19.53125 
Q 14.40625 12.796875 18.140625 9.390625 
Q 21.875 6 27.15625 6 
Q 33.5 6 37.890625 10.78125 
Q 42.28125 15.578125 42.28125 23.484375 
Q 42.28125 31 38.0625 35.34375 
Q 33.84375 39.703125 27 39.703125 
Q 22.75 39.703125 19.328125 37.765625 
Q 15.921875 35.84375 13.96875 32.765625 
L 5.71875 33.84375 
L 12.640625 70.609375 
L 48.25 70.609375 
L 48.25 62.203125 
L 19.671875 62.203125 
L 15.828125 42.96875 
Q 22.265625 47.46875 29.34375 47.46875 
Q 38.71875 47.46875 45.15625 40.96875 
Q 51.609375 34.46875 51.609375 24.265625 
Q 51.609375 14.546875 45.953125 7.46875 
Q 39.0625 -1.21875 27.15625 -1.21875 
Q 17.390625 -1.21875 11.203125 4.25 
Q 5.03125 9.71875 4.15625 18.75 
z
" id="ArialMT-53"/>
    </defs>
    <g style="fill:#262626;" transform="translate(418.097298 51.641968)scale(0.096 -0.096)">
     <use xlink:href="#ArialMT-48"/>
     <use x="55.615234" xlink:href="#ArialMT-46"/>
     <use x="83.398438" xlink:href="#ArialMT-53"/>
    </g>
   </g>
   <g id="text_30">
    <!-- 0.1 -->
    <g style="fill:#262626;" transform="translate(465.048432 51.641968)scale(0.096 -0.096)">
     <use xlink:href="#ArialMT-48"/>
     <use x="55.615234" xlink:href="#ArialMT-46"/>
     <use x="83.398438" xlink:href="#ArialMT-49"/>
    </g>
   </g>
   <g id="text_31">
    <!-- 0.6 -->
    <g style="fill:#262626;" transform="translate(42.488218 98.593103)scale(0.096 -0.096)">
     <use xlink:href="#ArialMT-48"/>
     <use x="55.615234" xlink:href="#ArialMT-46"/>
     <use x="83.398438" xlink:href="#ArialMT-54"/>
    </g>
   </g>
   <g id="text_32">
    <!-- 1.0 -->
    <g style="fill:#262626;" transform="translate(89.439353 98.593103)scale(0.096 -0.096)">
     <use xlink:href="#ArialMT-49"/>
     <use x="55.615234" xlink:href="#ArialMT-46"/>
     <use x="83.398438" xlink:href="#ArialMT-48"/>
    </g>
   </g>
   <g id="text_33">
    <!-- 0.6 -->
    <g style="fill:#262626;" transform="translate(136.390488 98.593103)scale(0.096 -0.096)">
     <use xlink:href="#ArialMT-48"/>
     <use x="55.615234" xlink:href="#ArialMT-46"/>
     <use x="83.398438" xlink:href="#ArialMT-54"/>
    </g>
   </g>
   <g id="text_34">
    <!-- 0.2 -->
    <g style="fill:#262626;" transform="translate(183.341623 98.593103)scale(0.096 -0.096)">
     <use xlink:href="#ArialMT-48"/>
     <use x="55.615234" xlink:href="#ArialMT-46"/>
     <use x="83.398438" xlink:href="#ArialMT-50"/>
    </g>
   </g>
   <g id="text_35">
    <!-- 0.7 -->
    <defs>
     <path d="M 4.734375 62.203125 
L 4.734375 70.65625 
L 51.078125 70.65625 
L 51.078125 63.8125 
Q 44.234375 56.546875 37.515625 44.484375 
Q 30.8125 32.421875 27.15625 19.671875 
Q 24.515625 10.6875 23.78125 0 
L 14.75 0 
Q 14.890625 8.453125 18.0625 20.40625 
Q 21.234375 32.375 27.171875 43.484375 
Q 33.109375 54.59375 39.796875 62.203125 
z
" id="ArialMT-55"/>
    </defs>
    <g style="fill:#262626;" transform="translate(230.292758 98.593103)scale(0.096 -0.096)">
     <use xlink:href="#ArialMT-48"/>
     <use x="55.615234" xlink:href="#ArialMT-46"/>
     <use x="83.398438" xlink:href="#ArialMT-55"/>
    </g>
   </g>
   <g id="text_36">
    <!-- 0.1 -->
    <g style="fill:#262626;" transform="translate(277.243893 98.593103)scale(0.096 -0.096)">
     <use xlink:href="#ArialMT-48"/>
     <use x="55.615234" xlink:href="#ArialMT-46"/>
     <use x="83.398438" xlink:href="#ArialMT-49"/>
    </g>
   </g>
   <g id="text_37">
    <!-- 0.6 -->
    <g style="fill:#262626;" transform="translate(324.195028 98.593103)scale(0.096 -0.096)">
     <use xlink:href="#ArialMT-48"/>
     <use x="55.615234" xlink:href="#ArialMT-46"/>
     <use x="83.398438" xlink:href="#ArialMT-54"/>
    </g>
   </g>
   <g id="text_38">
    <!-- 0.6 -->
    <g style="fill:#262626;" transform="translate(371.146163 98.593103)scale(0.096 -0.096)">
     <use xlink:href="#ArialMT-48"/>
     <use x="55.615234" xlink:href="#ArialMT-46"/>
     <use x="83.398438" xlink:href="#ArialMT-54"/>
    </g>
   </g>
   <g id="text_39">
    <!-- 0.7 -->
    <g style="fill:#262626;" transform="translate(418.097298 98.593103)scale(0.096 -0.096)">
     <use xlink:href="#ArialMT-48"/>
     <use x="55.615234" xlink:href="#ArialMT-46"/>
     <use x="83.398438" xlink:href="#ArialMT-55"/>
    </g>
   </g>
   <g id="text_40">
    <!-- 0.1 -->
    <g style="fill:#262626;" transform="translate(465.048432 98.593103)scale(0.096 -0.096)">
     <use xlink:href="#ArialMT-48"/>
     <use x="55.615234" xlink:href="#ArialMT-46"/>
     <use x="83.398438" xlink:href="#ArialMT-49"/>
    </g>
   </g>
   <g id="text_41">
    <!-- 0.4 -->
    <g style="fill:#262626;" transform="translate(42.488218 145.544238)scale(0.096 -0.096)">
     <use xlink:href="#ArialMT-48"/>
     <use x="55.615234" xlink:href="#ArialMT-46"/>
     <use x="83.398438" xlink:href="#ArialMT-52"/>
    </g>
   </g>
   <g id="text_42">
    <!-- 0.6 -->
    <g style="fill:#262626;" transform="translate(89.439353 145.544238)scale(0.096 -0.096)">
     <use xlink:href="#ArialMT-48"/>
     <use x="55.615234" xlink:href="#ArialMT-46"/>
     <use x="83.398438" xlink:href="#ArialMT-54"/>
    </g>
   </g>
   <g id="text_43">
    <!-- 1.0 -->
    <g style="fill:#262626;" transform="translate(136.390488 145.544238)scale(0.096 -0.096)">
     <use xlink:href="#ArialMT-49"/>
     <use x="55.615234" xlink:href="#ArialMT-46"/>
     <use x="83.398438" xlink:href="#ArialMT-48"/>
    </g>
   </g>
   <g id="text_44">
    <!-- 0.0 -->
    <g style="fill:#262626;" transform="translate(183.341623 145.544238)scale(0.096 -0.096)">
     <use xlink:href="#ArialMT-48"/>
     <use x="55.615234" xlink:href="#ArialMT-46"/>
     <use x="83.398438" xlink:href="#ArialMT-48"/>
    </g>
   </g>
   <g id="text_45">
    <!-- 0.5 -->
    <g style="fill:#262626;" transform="translate(230.292758 145.544238)scale(0.096 -0.096)">
     <use xlink:href="#ArialMT-48"/>
     <use x="55.615234" xlink:href="#ArialMT-46"/>
     <use x="83.398438" xlink:href="#ArialMT-53"/>
    </g>
   </g>
   <g id="text_46">
    <!-- 0.1 -->
    <g style="fill:#262626;" transform="translate(277.243893 145.544238)scale(0.096 -0.096)">
     <use xlink:href="#ArialMT-48"/>
     <use x="55.615234" xlink:href="#ArialMT-46"/>
     <use x="83.398438" xlink:href="#ArialMT-49"/>
    </g>
   </g>
   <g id="text_47">
    <!-- 0.2 -->
    <g style="fill:#262626;" transform="translate(324.195028 145.544238)scale(0.096 -0.096)">
     <use xlink:href="#ArialMT-48"/>
     <use x="55.615234" xlink:href="#ArialMT-46"/>
     <use x="83.398438" xlink:href="#ArialMT-50"/>
    </g>
   </g>
   <g id="text_48">
    <!-- 0.4 -->
    <g style="fill:#262626;" transform="translate(371.146163 145.544238)scale(0.096 -0.096)">
     <use xlink:href="#ArialMT-48"/>
     <use x="55.615234" xlink:href="#ArialMT-46"/>
     <use x="83.398438" xlink:href="#ArialMT-52"/>
    </g>
   </g>
   <g id="text_49">
    <!-- 0.4 -->
    <g style="fill:#262626;" transform="translate(418.097298 145.544238)scale(0.096 -0.096)">
     <use xlink:href="#ArialMT-48"/>
     <use x="55.615234" xlink:href="#ArialMT-46"/>
     <use x="83.398438" xlink:href="#ArialMT-52"/>
    </g>
   </g>
   <g id="text_50">
    <!-- 0.1 -->
    <g style="fill:#262626;" transform="translate(465.048432 145.544238)scale(0.096 -0.096)">
     <use xlink:href="#ArialMT-48"/>
     <use x="55.615234" xlink:href="#ArialMT-46"/>
     <use x="83.398438" xlink:href="#ArialMT-49"/>
    </g>
   </g>
   <g id="text_51">
    <!-- 0.1 -->
    <g style="fill:#262626;" transform="translate(42.488218 192.495373)scale(0.096 -0.096)">
     <use xlink:href="#ArialMT-48"/>
     <use x="55.615234" xlink:href="#ArialMT-46"/>
     <use x="83.398438" xlink:href="#ArialMT-49"/>
    </g>
   </g>
   <g id="text_52">
    <!-- 0.2 -->
    <g style="fill:#262626;" transform="translate(89.439353 192.495373)scale(0.096 -0.096)">
     <use xlink:href="#ArialMT-48"/>
     <use x="55.615234" xlink:href="#ArialMT-46"/>
     <use x="83.398438" xlink:href="#ArialMT-50"/>
    </g>
   </g>
   <g id="text_53">
    <!-- 0.0 -->
    <g style="fill:#262626;" transform="translate(136.390488 192.495373)scale(0.096 -0.096)">
     <use xlink:href="#ArialMT-48"/>
     <use x="55.615234" xlink:href="#ArialMT-46"/>
     <use x="83.398438" xlink:href="#ArialMT-48"/>
    </g>
   </g>
   <g id="text_54">
    <!-- 1.0 -->
    <g style="fill:#262626;" transform="translate(183.341623 192.495373)scale(0.096 -0.096)">
     <use xlink:href="#ArialMT-49"/>
     <use x="55.615234" xlink:href="#ArialMT-46"/>
     <use x="83.398438" xlink:href="#ArialMT-48"/>
    </g>
   </g>
   <g id="text_55">
    <!-- 0.1 -->
    <g style="fill:#262626;" transform="translate(230.292758 192.495373)scale(0.096 -0.096)">
     <use xlink:href="#ArialMT-48"/>
     <use x="55.615234" xlink:href="#ArialMT-46"/>
     <use x="83.398438" xlink:href="#ArialMT-49"/>
    </g>
   </g>
   <g id="text_56">
    <!-- 0.0 -->
    <g style="fill:#262626;" transform="translate(277.243893 192.495373)scale(0.096 -0.096)">
     <use xlink:href="#ArialMT-48"/>
     <use x="55.615234" xlink:href="#ArialMT-46"/>
     <use x="83.398438" xlink:href="#ArialMT-48"/>
    </g>
   </g>
   <g id="text_57">
    <!-- 0.2 -->
    <g style="fill:#262626;" transform="translate(324.195028 192.495373)scale(0.096 -0.096)">
     <use xlink:href="#ArialMT-48"/>
     <use x="55.615234" xlink:href="#ArialMT-46"/>
     <use x="83.398438" xlink:href="#ArialMT-50"/>
    </g>
   </g>
   <g id="text_58">
    <!-- 0.1 -->
    <g style="fill:#262626;" transform="translate(371.146163 192.495373)scale(0.096 -0.096)">
     <use xlink:href="#ArialMT-48"/>
     <use x="55.615234" xlink:href="#ArialMT-46"/>
     <use x="83.398438" xlink:href="#ArialMT-49"/>
    </g>
   </g>
   <g id="text_59">
    <!-- 0.1 -->
    <g style="fill:#262626;" transform="translate(418.097298 192.495373)scale(0.096 -0.096)">
     <use xlink:href="#ArialMT-48"/>
     <use x="55.615234" xlink:href="#ArialMT-46"/>
     <use x="83.398438" xlink:href="#ArialMT-49"/>
    </g>
   </g>
   <g id="text_60">
    <!-- 0.0 -->
    <g style="fill:#262626;" transform="translate(465.048432 192.495373)scale(0.096 -0.096)">
     <use xlink:href="#ArialMT-48"/>
     <use x="55.615234" xlink:href="#ArialMT-46"/>
     <use x="83.398438" xlink:href="#ArialMT-48"/>
    </g>
   </g>
   <g id="text_61">
    <!-- 0.4 -->
    <g style="fill:#262626;" transform="translate(42.488218 239.446508)scale(0.096 -0.096)">
     <use xlink:href="#ArialMT-48"/>
     <use x="55.615234" xlink:href="#ArialMT-46"/>
     <use x="83.398438" xlink:href="#ArialMT-52"/>
    </g>
   </g>
   <g id="text_62">
    <!-- 0.7 -->
    <g style="fill:#262626;" transform="translate(89.439353 239.446508)scale(0.096 -0.096)">
     <use xlink:href="#ArialMT-48"/>
     <use x="55.615234" xlink:href="#ArialMT-46"/>
     <use x="83.398438" xlink:href="#ArialMT-55"/>
    </g>
   </g>
   <g id="text_63">
    <!-- 0.5 -->
    <g style="fill:#262626;" transform="translate(136.390488 239.446508)scale(0.096 -0.096)">
     <use xlink:href="#ArialMT-48"/>
     <use x="55.615234" xlink:href="#ArialMT-46"/>
     <use x="83.398438" xlink:href="#ArialMT-53"/>
    </g>
   </g>
   <g id="text_64">
    <!-- 0.1 -->
    <g style="fill:#262626;" transform="translate(183.341623 239.446508)scale(0.096 -0.096)">
     <use xlink:href="#ArialMT-48"/>
     <use x="55.615234" xlink:href="#ArialMT-46"/>
     <use x="83.398438" xlink:href="#ArialMT-49"/>
    </g>
   </g>
   <g id="text_65">
    <!-- 1.0 -->
    <g style="fill:#262626;" transform="translate(230.292758 239.446508)scale(0.096 -0.096)">
     <use xlink:href="#ArialMT-49"/>
     <use x="55.615234" xlink:href="#ArialMT-46"/>
     <use x="83.398438" xlink:href="#ArialMT-48"/>
    </g>
   </g>
   <g id="text_66">
    <!-- 0.1 -->
    <g style="fill:#262626;" transform="translate(277.243893 239.446508)scale(0.096 -0.096)">
     <use xlink:href="#ArialMT-48"/>
     <use x="55.615234" xlink:href="#ArialMT-46"/>
     <use x="83.398438" xlink:href="#ArialMT-49"/>
    </g>
   </g>
   <g id="text_67">
    <!-- 0.4 -->
    <g style="fill:#262626;" transform="translate(324.195028 239.446508)scale(0.096 -0.096)">
     <use xlink:href="#ArialMT-48"/>
     <use x="55.615234" xlink:href="#ArialMT-46"/>
     <use x="83.398438" xlink:href="#ArialMT-52"/>
    </g>
   </g>
   <g id="text_68">
    <!-- 0.4 -->
    <g style="fill:#262626;" transform="translate(371.146163 239.446508)scale(0.096 -0.096)">
     <use xlink:href="#ArialMT-48"/>
     <use x="55.615234" xlink:href="#ArialMT-46"/>
     <use x="83.398438" xlink:href="#ArialMT-52"/>
    </g>
   </g>
   <g id="text_69">
    <!-- 0.4 -->
    <g style="fill:#262626;" transform="translate(418.097298 239.446508)scale(0.096 -0.096)">
     <use xlink:href="#ArialMT-48"/>
     <use x="55.615234" xlink:href="#ArialMT-46"/>
     <use x="83.398438" xlink:href="#ArialMT-52"/>
    </g>
   </g>
   <g id="text_70">
    <!-- 0.1 -->
    <g style="fill:#262626;" transform="translate(465.048432 239.446508)scale(0.096 -0.096)">
     <use xlink:href="#ArialMT-48"/>
     <use x="55.615234" xlink:href="#ArialMT-46"/>
     <use x="83.398438" xlink:href="#ArialMT-49"/>
    </g>
   </g>
   <g id="text_71">
    <!-- 0.1 -->
    <g style="fill:#262626;" transform="translate(42.488218 286.397643)scale(0.096 -0.096)">
     <use xlink:href="#ArialMT-48"/>
     <use x="55.615234" xlink:href="#ArialMT-46"/>
     <use x="83.398438" xlink:href="#ArialMT-49"/>
    </g>
   </g>
   <g id="text_72">
    <!-- 0.1 -->
    <g style="fill:#262626;" transform="translate(89.439353 286.397643)scale(0.096 -0.096)">
     <use xlink:href="#ArialMT-48"/>
     <use x="55.615234" xlink:href="#ArialMT-46"/>
     <use x="83.398438" xlink:href="#ArialMT-49"/>
    </g>
   </g>
   <g id="text_73">
    <!-- 0.1 -->
    <g style="fill:#262626;" transform="translate(136.390488 286.397643)scale(0.096 -0.096)">
     <use xlink:href="#ArialMT-48"/>
     <use x="55.615234" xlink:href="#ArialMT-46"/>
     <use x="83.398438" xlink:href="#ArialMT-49"/>
    </g>
   </g>
   <g id="text_74">
    <!-- 0.0 -->
    <g style="fill:#262626;" transform="translate(183.341623 286.397643)scale(0.096 -0.096)">
     <use xlink:href="#ArialMT-48"/>
     <use x="55.615234" xlink:href="#ArialMT-46"/>
     <use x="83.398438" xlink:href="#ArialMT-48"/>
    </g>
   </g>
   <g id="text_75">
    <!-- 0.1 -->
    <g style="fill:#262626;" transform="translate(230.292758 286.397643)scale(0.096 -0.096)">
     <use xlink:href="#ArialMT-48"/>
     <use x="55.615234" xlink:href="#ArialMT-46"/>
     <use x="83.398438" xlink:href="#ArialMT-49"/>
    </g>
   </g>
   <g id="text_76">
    <!-- 1.0 -->
    <g style="fill:#262626;" transform="translate(277.243893 286.397643)scale(0.096 -0.096)">
     <use xlink:href="#ArialMT-49"/>
     <use x="55.615234" xlink:href="#ArialMT-46"/>
     <use x="83.398438" xlink:href="#ArialMT-48"/>
    </g>
   </g>
   <g id="text_77">
    <!-- 0.0 -->
    <g style="fill:#262626;" transform="translate(324.195028 286.397643)scale(0.096 -0.096)">
     <use xlink:href="#ArialMT-48"/>
     <use x="55.615234" xlink:href="#ArialMT-46"/>
     <use x="83.398438" xlink:href="#ArialMT-48"/>
    </g>
   </g>
   <g id="text_78">
    <!-- 0.1 -->
    <g style="fill:#262626;" transform="translate(371.146163 286.397643)scale(0.096 -0.096)">
     <use xlink:href="#ArialMT-48"/>
     <use x="55.615234" xlink:href="#ArialMT-46"/>
     <use x="83.398438" xlink:href="#ArialMT-49"/>
    </g>
   </g>
   <g id="text_79">
    <!-- 0.1 -->
    <g style="fill:#262626;" transform="translate(418.097298 286.397643)scale(0.096 -0.096)">
     <use xlink:href="#ArialMT-48"/>
     <use x="55.615234" xlink:href="#ArialMT-46"/>
     <use x="83.398438" xlink:href="#ArialMT-49"/>
    </g>
   </g>
   <g id="text_80">
    <!-- 0.0 -->
    <g style="fill:#262626;" transform="translate(465.048432 286.397643)scale(0.096 -0.096)">
     <use xlink:href="#ArialMT-48"/>
     <use x="55.615234" xlink:href="#ArialMT-46"/>
     <use x="83.398438" xlink:href="#ArialMT-48"/>
    </g>
   </g>
   <g id="text_81">
    <!-- 0.3 -->
    <g style="fill:#262626;" transform="translate(42.488218 333.348778)scale(0.096 -0.096)">
     <use xlink:href="#ArialMT-48"/>
     <use x="55.615234" xlink:href="#ArialMT-46"/>
     <use x="83.398438" xlink:href="#ArialMT-51"/>
    </g>
   </g>
   <g id="text_82">
    <!-- 0.6 -->
    <g style="fill:#262626;" transform="translate(89.439353 333.348778)scale(0.096 -0.096)">
     <use xlink:href="#ArialMT-48"/>
     <use x="55.615234" xlink:href="#ArialMT-46"/>
     <use x="83.398438" xlink:href="#ArialMT-54"/>
    </g>
   </g>
   <g id="text_83">
    <!-- 0.2 -->
    <g style="fill:#262626;" transform="translate(136.390488 333.348778)scale(0.096 -0.096)">
     <use xlink:href="#ArialMT-48"/>
     <use x="55.615234" xlink:href="#ArialMT-46"/>
     <use x="83.398438" xlink:href="#ArialMT-50"/>
    </g>
   </g>
   <g id="text_84">
    <!-- 0.2 -->
    <g style="fill:#262626;" transform="translate(183.341623 333.348778)scale(0.096 -0.096)">
     <use xlink:href="#ArialMT-48"/>
     <use x="55.615234" xlink:href="#ArialMT-46"/>
     <use x="83.398438" xlink:href="#ArialMT-50"/>
    </g>
   </g>
   <g id="text_85">
    <!-- 0.4 -->
    <g style="fill:#262626;" transform="translate(230.292758 333.348778)scale(0.096 -0.096)">
     <use xlink:href="#ArialMT-48"/>
     <use x="55.615234" xlink:href="#ArialMT-46"/>
     <use x="83.398438" xlink:href="#ArialMT-52"/>
    </g>
   </g>
   <g id="text_86">
    <!-- 0.0 -->
    <g style="fill:#262626;" transform="translate(277.243893 333.348778)scale(0.096 -0.096)">
     <use xlink:href="#ArialMT-48"/>
     <use x="55.615234" xlink:href="#ArialMT-46"/>
     <use x="83.398438" xlink:href="#ArialMT-48"/>
    </g>
   </g>
   <g id="text_87">
    <!-- 1.0 -->
    <g style="fill:#262626;" transform="translate(324.195028 333.348778)scale(0.096 -0.096)">
     <use xlink:href="#ArialMT-49"/>
     <use x="55.615234" xlink:href="#ArialMT-46"/>
     <use x="83.398438" xlink:href="#ArialMT-48"/>
    </g>
   </g>
   <g id="text_88">
    <!-- 0.3 -->
    <g style="fill:#262626;" transform="translate(371.146163 333.348778)scale(0.096 -0.096)">
     <use xlink:href="#ArialMT-48"/>
     <use x="55.615234" xlink:href="#ArialMT-46"/>
     <use x="83.398438" xlink:href="#ArialMT-51"/>
    </g>
   </g>
   <g id="text_89">
    <!-- 0.4 -->
    <g style="fill:#262626;" transform="translate(418.097298 333.348778)scale(0.096 -0.096)">
     <use xlink:href="#ArialMT-48"/>
     <use x="55.615234" xlink:href="#ArialMT-46"/>
     <use x="83.398438" xlink:href="#ArialMT-52"/>
    </g>
   </g>
   <g id="text_90">
    <!-- 0.0 -->
    <g style="fill:#262626;" transform="translate(465.048432 333.348778)scale(0.096 -0.096)">
     <use xlink:href="#ArialMT-48"/>
     <use x="55.615234" xlink:href="#ArialMT-46"/>
     <use x="83.398438" xlink:href="#ArialMT-48"/>
    </g>
   </g>
   <g id="text_91">
    <!-- 0.4 -->
    <g style="fill:#262626;" transform="translate(42.488218 380.299913)scale(0.096 -0.096)">
     <use xlink:href="#ArialMT-48"/>
     <use x="55.615234" xlink:href="#ArialMT-46"/>
     <use x="83.398438" xlink:href="#ArialMT-52"/>
    </g>
   </g>
   <g id="text_92">
    <!-- 0.6 -->
    <g style="fill:#262626;" transform="translate(89.439353 380.299913)scale(0.096 -0.096)">
     <use xlink:href="#ArialMT-48"/>
     <use x="55.615234" xlink:href="#ArialMT-46"/>
     <use x="83.398438" xlink:href="#ArialMT-54"/>
    </g>
   </g>
   <g id="text_93">
    <!-- 0.4 -->
    <g style="fill:#262626;" transform="translate(136.390488 380.299913)scale(0.096 -0.096)">
     <use xlink:href="#ArialMT-48"/>
     <use x="55.615234" xlink:href="#ArialMT-46"/>
     <use x="83.398438" xlink:href="#ArialMT-52"/>
    </g>
   </g>
   <g id="text_94">
    <!-- 0.1 -->
    <g style="fill:#262626;" transform="translate(183.341623 380.299913)scale(0.096 -0.096)">
     <use xlink:href="#ArialMT-48"/>
     <use x="55.615234" xlink:href="#ArialMT-46"/>
     <use x="83.398438" xlink:href="#ArialMT-49"/>
    </g>
   </g>
   <g id="text_95">
    <!-- 0.4 -->
    <g style="fill:#262626;" transform="translate(230.292758 380.299913)scale(0.096 -0.096)">
     <use xlink:href="#ArialMT-48"/>
     <use x="55.615234" xlink:href="#ArialMT-46"/>
     <use x="83.398438" xlink:href="#ArialMT-52"/>
    </g>
   </g>
   <g id="text_96">
    <!-- 0.1 -->
    <g style="fill:#262626;" transform="translate(277.243893 380.299913)scale(0.096 -0.096)">
     <use xlink:href="#ArialMT-48"/>
     <use x="55.615234" xlink:href="#ArialMT-46"/>
     <use x="83.398438" xlink:href="#ArialMT-49"/>
    </g>
   </g>
   <g id="text_97">
    <!-- 0.3 -->
    <g style="fill:#262626;" transform="translate(324.195028 380.299913)scale(0.096 -0.096)">
     <use xlink:href="#ArialMT-48"/>
     <use x="55.615234" xlink:href="#ArialMT-46"/>
     <use x="83.398438" xlink:href="#ArialMT-51"/>
    </g>
   </g>
   <g id="text_98">
    <!-- 1.0 -->
    <g style="fill:#262626;" transform="translate(371.146163 380.299913)scale(0.096 -0.096)">
     <use xlink:href="#ArialMT-49"/>
     <use x="55.615234" xlink:href="#ArialMT-46"/>
     <use x="83.398438" xlink:href="#ArialMT-48"/>
    </g>
   </g>
   <g id="text_99">
    <!-- 0.3 -->
    <g style="fill:#262626;" transform="translate(418.097298 380.299913)scale(0.096 -0.096)">
     <use xlink:href="#ArialMT-48"/>
     <use x="55.615234" xlink:href="#ArialMT-46"/>
     <use x="83.398438" xlink:href="#ArialMT-51"/>
    </g>
   </g>
   <g id="text_100">
    <!-- 0.1 -->
    <g style="fill:#262626;" transform="translate(465.048432 380.299913)scale(0.096 -0.096)">
     <use xlink:href="#ArialMT-48"/>
     <use x="55.615234" xlink:href="#ArialMT-46"/>
     <use x="83.398438" xlink:href="#ArialMT-49"/>
    </g>
   </g>
   <g id="text_101">
    <!-- 0.5 -->
    <g style="fill:#262626;" transform="translate(42.488218 427.251048)scale(0.096 -0.096)">
     <use xlink:href="#ArialMT-48"/>
     <use x="55.615234" xlink:href="#ArialMT-46"/>
     <use x="83.398438" xlink:href="#ArialMT-53"/>
    </g>
   </g>
   <g id="text_102">
    <!-- 0.7 -->
    <g style="fill:#262626;" transform="translate(89.439353 427.251048)scale(0.096 -0.096)">
     <use xlink:href="#ArialMT-48"/>
     <use x="55.615234" xlink:href="#ArialMT-46"/>
     <use x="83.398438" xlink:href="#ArialMT-55"/>
    </g>
   </g>
   <g id="text_103">
    <!-- 0.4 -->
    <g style="fill:#262626;" transform="translate(136.390488 427.251048)scale(0.096 -0.096)">
     <use xlink:href="#ArialMT-48"/>
     <use x="55.615234" xlink:href="#ArialMT-46"/>
     <use x="83.398438" xlink:href="#ArialMT-52"/>
    </g>
   </g>
   <g id="text_104">
    <!-- 0.1 -->
    <g style="fill:#262626;" transform="translate(183.341623 427.251048)scale(0.096 -0.096)">
     <use xlink:href="#ArialMT-48"/>
     <use x="55.615234" xlink:href="#ArialMT-46"/>
     <use x="83.398438" xlink:href="#ArialMT-49"/>
    </g>
   </g>
   <g id="text_105">
    <!-- 0.4 -->
    <g style="fill:#262626;" transform="translate(230.292758 427.251048)scale(0.096 -0.096)">
     <use xlink:href="#ArialMT-48"/>
     <use x="55.615234" xlink:href="#ArialMT-46"/>
     <use x="83.398438" xlink:href="#ArialMT-52"/>
    </g>
   </g>
   <g id="text_106">
    <!-- 0.1 -->
    <g style="fill:#262626;" transform="translate(277.243893 427.251048)scale(0.096 -0.096)">
     <use xlink:href="#ArialMT-48"/>
     <use x="55.615234" xlink:href="#ArialMT-46"/>
     <use x="83.398438" xlink:href="#ArialMT-49"/>
    </g>
   </g>
   <g id="text_107">
    <!-- 0.4 -->
    <g style="fill:#262626;" transform="translate(324.195028 427.251048)scale(0.096 -0.096)">
     <use xlink:href="#ArialMT-48"/>
     <use x="55.615234" xlink:href="#ArialMT-46"/>
     <use x="83.398438" xlink:href="#ArialMT-52"/>
    </g>
   </g>
   <g id="text_108">
    <!-- 0.3 -->
    <g style="fill:#262626;" transform="translate(371.146163 427.251048)scale(0.096 -0.096)">
     <use xlink:href="#ArialMT-48"/>
     <use x="55.615234" xlink:href="#ArialMT-46"/>
     <use x="83.398438" xlink:href="#ArialMT-51"/>
    </g>
   </g>
   <g id="text_109">
    <!-- 1.0 -->
    <g style="fill:#262626;" transform="translate(418.097298 427.251048)scale(0.096 -0.096)">
     <use xlink:href="#ArialMT-49"/>
     <use x="55.615234" xlink:href="#ArialMT-46"/>
     <use x="83.398438" xlink:href="#ArialMT-48"/>
    </g>
   </g>
   <g id="text_110">
    <!-- 0.1 -->
    <g style="fill:#262626;" transform="translate(465.048432 427.251048)scale(0.096 -0.096)">
     <use xlink:href="#ArialMT-48"/>
     <use x="55.615234" xlink:href="#ArialMT-46"/>
     <use x="83.398438" xlink:href="#ArialMT-49"/>
    </g>
   </g>
   <g id="text_111">
    <!-- 0.1 -->
    <g style="fill:#262626;" transform="translate(42.488218 474.202183)scale(0.096 -0.096)">
     <use xlink:href="#ArialMT-48"/>
     <use x="55.615234" xlink:href="#ArialMT-46"/>
     <use x="83.398438" xlink:href="#ArialMT-49"/>
    </g>
   </g>
   <g id="text_112">
    <!-- 0.1 -->
    <g style="fill:#262626;" transform="translate(89.439353 474.202183)scale(0.096 -0.096)">
     <use xlink:href="#ArialMT-48"/>
     <use x="55.615234" xlink:href="#ArialMT-46"/>
     <use x="83.398438" xlink:href="#ArialMT-49"/>
    </g>
   </g>
   <g id="text_113">
    <!-- 0.1 -->
    <g style="fill:#262626;" transform="translate(136.390488 474.202183)scale(0.096 -0.096)">
     <use xlink:href="#ArialMT-48"/>
     <use x="55.615234" xlink:href="#ArialMT-46"/>
     <use x="83.398438" xlink:href="#ArialMT-49"/>
    </g>
   </g>
   <g id="text_114">
    <!-- 0.0 -->
    <g style="fill:#262626;" transform="translate(183.341623 474.202183)scale(0.096 -0.096)">
     <use xlink:href="#ArialMT-48"/>
     <use x="55.615234" xlink:href="#ArialMT-46"/>
     <use x="83.398438" xlink:href="#ArialMT-48"/>
    </g>
   </g>
   <g id="text_115">
    <!-- 0.1 -->
    <g style="fill:#262626;" transform="translate(230.292758 474.202183)scale(0.096 -0.096)">
     <use xlink:href="#ArialMT-48"/>
     <use x="55.615234" xlink:href="#ArialMT-46"/>
     <use x="83.398438" xlink:href="#ArialMT-49"/>
    </g>
   </g>
   <g id="text_116">
    <!-- 0.0 -->
    <g style="fill:#262626;" transform="translate(277.243893 474.202183)scale(0.096 -0.096)">
     <use xlink:href="#ArialMT-48"/>
     <use x="55.615234" xlink:href="#ArialMT-46"/>
     <use x="83.398438" xlink:href="#ArialMT-48"/>
    </g>
   </g>
   <g id="text_117">
    <!-- 0.0 -->
    <g style="fill:#262626;" transform="translate(324.195028 474.202183)scale(0.096 -0.096)">
     <use xlink:href="#ArialMT-48"/>
     <use x="55.615234" xlink:href="#ArialMT-46"/>
     <use x="83.398438" xlink:href="#ArialMT-48"/>
    </g>
   </g>
   <g id="text_118">
    <!-- 0.1 -->
    <g style="fill:#262626;" transform="translate(371.146163 474.202183)scale(0.096 -0.096)">
     <use xlink:href="#ArialMT-48"/>
     <use x="55.615234" xlink:href="#ArialMT-46"/>
     <use x="83.398438" xlink:href="#ArialMT-49"/>
    </g>
   </g>
   <g id="text_119">
    <!-- 0.1 -->
    <g style="fill:#262626;" transform="translate(418.097298 474.202183)scale(0.096 -0.096)">
     <use xlink:href="#ArialMT-48"/>
     <use x="55.615234" xlink:href="#ArialMT-46"/>
     <use x="83.398438" xlink:href="#ArialMT-49"/>
    </g>
   </g>
   <g id="text_120">
    <!-- 1.0 -->
    <g style="fill:#262626;" transform="translate(465.048432 474.202183)scale(0.096 -0.096)">
     <use xlink:href="#ArialMT-49"/>
     <use x="55.615234" xlink:href="#ArialMT-46"/>
     <use x="83.398438" xlink:href="#ArialMT-48"/>
    </g>
   </g>
  </g>
 </g>
 <defs>
  <clipPath id="p46aef0075a">
   <rect height="469.51135" width="18.29265" x="7.2" y="25.68465"/>
  </clipPath>
  <clipPath id="pb02781e942">
   <rect height="18.29265" width="469.51135" x="25.68465" y="7.2"/>
  </clipPath>
  <clipPath id="p72a008edc9">
   <rect height="469.51135" width="469.51135" x="25.68465" y="25.68465"/>
  </clipPath>
 </defs>
</svg>
