<?xml version="1.0" encoding="utf-8" standalone="no"?>
<!DOCTYPE svg PUBLIC "-//W3C//DTD SVG 1.1//EN"
  "http://www.w3.org/Graphics/SVG/1.1/DTD/svg11.dtd">
<!-- Created with matplotlib (https://matplotlib.org/) -->
<svg height="630.727615pt" version="1.1" viewBox="0 0 630.727615 630.727615" width="630.727615pt" xmlns="http://www.w3.org/2000/svg" xmlns:xlink="http://www.w3.org/1999/xlink">
 <defs>
  <style type="text/css">
*{stroke-linecap:butt;stroke-linejoin:round;}
  </style>
 </defs>
 <g id="figure_1">
  <g id="patch_1">
   <path d="M 0 630.727615 
L 630.727615 630.727615 
L 630.727615 0 
L 0 0 
z
" style="fill:#ffffff;"/>
  </g>
  <g id="axes_1">
   <g id="patch_2">
    <path d="M 7.2 547.99324 
L 27.472547 547.99324 
L 27.472547 27.664546 
L 7.2 27.664546 
z
" style="fill:#ffffff;"/>
   </g>
   <g id="matplotlib.axis_1"/>
   <g id="matplotlib.axis_2"/>
   <g id="QuadMesh_1">
    <path clip-path="url(#p5c210d7c6c)" d="M 7.2 27.664546 
L 27.472547 27.664546 
L 27.472547 101.997217 
L 7.2 101.997217 
L 7.2 27.664546 
" style="fill:#3783bb;"/>
    <path clip-path="url(#p5c210d7c6c)" d="M 7.2 101.997217 
L 27.472547 101.997217 
L 27.472547 176.329887 
L 7.2 176.329887 
L 7.2 101.997217 
" style="fill:#3783bb;"/>
    <path clip-path="url(#p5c210d7c6c)" d="M 7.2 176.329887 
L 27.472547 176.329887 
L 27.472547 250.662558 
L 7.2 250.662558 
L 7.2 176.329887 
" style="fill:#c94741;"/>
    <path clip-path="url(#p5c210d7c6c)" d="M 7.2 250.662558 
L 27.472547 250.662558 
L 27.472547 324.995228 
L 7.2 324.995228 
L 7.2 250.662558 
" style="fill:#3783bb;"/>
    <path clip-path="url(#p5c210d7c6c)" d="M 7.2 324.995228 
L 27.472547 324.995228 
L 27.472547 399.327899 
L 7.2 399.327899 
L 7.2 324.995228 
" style="fill:#c94741;"/>
    <path clip-path="url(#p5c210d7c6c)" d="M 7.2 399.327899 
L 27.472547 399.327899 
L 27.472547 473.660569 
L 7.2 473.660569 
L 7.2 399.327899 
" style="fill:#3783bb;"/>
    <path clip-path="url(#p5c210d7c6c)" d="M 7.2 473.660569 
L 27.472547 473.660569 
L 27.472547 547.99324 
L 7.2 547.99324 
L 7.2 473.660569 
" style="fill:#3783bb;"/>
   </g>
  </g>
  <g id="axes_2">
   <g id="patch_3">
    <path d="M 27.664547 27.472546 
L 547.99324 27.472546 
L 547.99324 7.2 
L 27.664547 7.2 
z
" style="fill:#ffffff;"/>
   </g>
   <g id="matplotlib.axis_3"/>
   <g id="matplotlib.axis_4"/>
   <g id="QuadMesh_2">
    <path clip-path="url(#pa3929fc445)" d="M 27.664547 7.2 
L 101.997217 7.2 
L 101.997217 27.472546 
L 27.664547 27.472546 
L 27.664547 7.2 
" style="fill:#3783bb;"/>
    <path clip-path="url(#pa3929fc445)" d="M 101.997217 7.2 
L 176.329887 7.2 
L 176.329887 27.472546 
L 101.997217 27.472546 
L 101.997217 7.2 
" style="fill:#3783bb;"/>
    <path clip-path="url(#pa3929fc445)" d="M 176.329887 7.2 
L 250.662558 7.2 
L 250.662558 27.472546 
L 176.329887 27.472546 
L 176.329887 7.2 
" style="fill:#c94741;"/>
    <path clip-path="url(#pa3929fc445)" d="M 250.662558 7.2 
L 324.995228 7.2 
L 324.995228 27.472546 
L 250.662558 27.472546 
L 250.662558 7.2 
" style="fill:#3783bb;"/>
    <path clip-path="url(#pa3929fc445)" d="M 324.995228 7.2 
L 399.327899 7.2 
L 399.327899 27.472546 
L 324.995228 27.472546 
L 324.995228 7.2 
" style="fill:#c94741;"/>
    <path clip-path="url(#pa3929fc445)" d="M 399.327899 7.2 
L 473.660569 7.2 
L 473.660569 27.472546 
L 399.327899 27.472546 
L 399.327899 7.2 
" style="fill:#3783bb;"/>
    <path clip-path="url(#pa3929fc445)" d="M 473.660569 7.2 
L 547.99324 7.2 
L 547.99324 27.472546 
L 473.660569 27.472546 
L 473.660569 7.2 
" style="fill:#3783bb;"/>
   </g>
  </g>
  <g id="axes_3">
   <g id="patch_4">
    <path d="M 27.664547 547.99324 
L 547.99324 547.99324 
L 547.99324 27.664546 
L 27.664547 27.664546 
z
" style="fill:#ffffff;"/>
   </g>
   <g id="matplotlib.axis_5">
    <g id="xtick_1">
     <g id="line2d_1">
      <defs>
       <path d="M 0 0 
L 0 6 
" id="m3b00b60b5f" style="stroke:#262626;stroke-width:1.25;"/>
      </defs>
      <g>
       <use style="fill:#262626;stroke:#262626;stroke-width:1.25;" x="64.830882" xlink:href="#m3b00b60b5f" y="547.99324"/>
      </g>
     </g>
     <g id="text_1">
      <!-- Acetate -->
      <defs>
       <path d="M -0.140625 0 
L 27.34375 71.578125 
L 37.546875 71.578125 
L 66.84375 0 
L 56.0625 0 
L 47.703125 21.6875 
L 17.78125 21.6875 
L 9.90625 0 
z
M 20.515625 29.390625 
L 44.78125 29.390625 
L 37.3125 49.21875 
Q 33.890625 58.25 32.234375 64.0625 
Q 30.859375 57.171875 28.375 50.390625 
z
" id="ArialMT-65"/>
       <path d="M 40.4375 19 
L 49.078125 17.875 
Q 47.65625 8.9375 41.8125 3.875 
Q 35.984375 -1.171875 27.484375 -1.171875 
Q 16.84375 -1.171875 10.375 5.78125 
Q 3.90625 12.75 3.90625 25.734375 
Q 3.90625 34.125 6.6875 40.421875 
Q 9.46875 46.734375 15.15625 49.875 
Q 20.84375 53.03125 27.546875 53.03125 
Q 35.984375 53.03125 41.359375 48.75 
Q 46.734375 44.484375 48.25 36.625 
L 39.703125 35.296875 
Q 38.484375 40.53125 35.375 43.15625 
Q 32.28125 45.796875 27.875 45.796875 
Q 21.234375 45.796875 17.078125 41.03125 
Q 12.9375 36.28125 12.9375 25.984375 
Q 12.9375 15.53125 16.9375 10.796875 
Q 20.953125 6.0625 27.390625 6.0625 
Q 32.5625 6.0625 36.03125 9.234375 
Q 39.5 12.40625 40.4375 19 
z
" id="ArialMT-99"/>
       <path d="M 42.09375 16.703125 
L 51.171875 15.578125 
Q 49.03125 7.625 43.21875 3.21875 
Q 37.40625 -1.171875 28.375 -1.171875 
Q 17 -1.171875 10.328125 5.828125 
Q 3.65625 12.84375 3.65625 25.484375 
Q 3.65625 38.578125 10.390625 45.796875 
Q 17.140625 53.03125 27.875 53.03125 
Q 38.28125 53.03125 44.875 45.953125 
Q 51.46875 38.875 51.46875 26.03125 
Q 51.46875 25.25 51.421875 23.6875 
L 12.75 23.6875 
Q 13.234375 15.140625 17.578125 10.59375 
Q 21.921875 6.0625 28.421875 6.0625 
Q 33.25 6.0625 36.671875 8.59375 
Q 40.09375 11.140625 42.09375 16.703125 
z
M 13.234375 30.90625 
L 42.1875 30.90625 
Q 41.609375 37.453125 38.875 40.71875 
Q 34.671875 45.796875 27.984375 45.796875 
Q 21.921875 45.796875 17.796875 41.75 
Q 13.671875 37.703125 13.234375 30.90625 
z
" id="ArialMT-101"/>
       <path d="M 25.78125 7.859375 
L 27.046875 0.09375 
Q 23.34375 -0.6875 20.40625 -0.6875 
Q 15.625 -0.6875 12.984375 0.828125 
Q 10.359375 2.34375 9.28125 4.8125 
Q 8.203125 7.28125 8.203125 15.1875 
L 8.203125 45.015625 
L 1.765625 45.015625 
L 1.765625 51.859375 
L 8.203125 51.859375 
L 8.203125 64.703125 
L 16.9375 69.96875 
L 16.9375 51.859375 
L 25.78125 51.859375 
L 25.78125 45.015625 
L 16.9375 45.015625 
L 16.9375 14.703125 
Q 16.9375 10.9375 17.40625 9.859375 
Q 17.875 8.796875 18.921875 8.15625 
Q 19.96875 7.515625 21.921875 7.515625 
Q 23.390625 7.515625 25.78125 7.859375 
z
" id="ArialMT-116"/>
       <path d="M 40.4375 6.390625 
Q 35.546875 2.25 31.03125 0.53125 
Q 26.515625 -1.171875 21.34375 -1.171875 
Q 12.796875 -1.171875 8.203125 3 
Q 3.609375 7.171875 3.609375 13.671875 
Q 3.609375 17.484375 5.34375 20.625 
Q 7.078125 23.78125 9.890625 25.6875 
Q 12.703125 27.59375 16.21875 28.5625 
Q 18.796875 29.25 24.03125 29.890625 
Q 34.671875 31.15625 39.703125 32.90625 
Q 39.75 34.71875 39.75 35.203125 
Q 39.75 40.578125 37.25 42.78125 
Q 33.890625 45.75 27.25 45.75 
Q 21.046875 45.75 18.09375 43.578125 
Q 15.140625 41.40625 13.71875 35.890625 
L 5.125 37.0625 
Q 6.296875 42.578125 8.984375 45.96875 
Q 11.671875 49.359375 16.75 51.1875 
Q 21.828125 53.03125 28.515625 53.03125 
Q 35.15625 53.03125 39.296875 51.46875 
Q 43.453125 49.90625 45.40625 47.53125 
Q 47.359375 45.171875 48.140625 41.546875 
Q 48.578125 39.3125 48.578125 33.453125 
L 48.578125 21.734375 
Q 48.578125 9.46875 49.140625 6.21875 
Q 49.703125 2.984375 51.375 0 
L 42.1875 0 
Q 40.828125 2.734375 40.4375 6.390625 
z
M 39.703125 26.03125 
Q 34.90625 24.078125 25.34375 22.703125 
Q 19.921875 21.921875 17.671875 20.9375 
Q 15.4375 19.96875 14.203125 18.09375 
Q 12.984375 16.21875 12.984375 13.921875 
Q 12.984375 10.40625 15.640625 8.0625 
Q 18.3125 5.71875 23.4375 5.71875 
Q 28.515625 5.71875 32.46875 7.9375 
Q 36.421875 10.15625 38.28125 14.015625 
Q 39.703125 17 39.703125 22.796875 
z
" id="ArialMT-97"/>
      </defs>
      <g style="fill:#262626;" transform="translate(67.105819 587.33349)rotate(-90)scale(0.088 -0.088)">
       <use xlink:href="#ArialMT-65"/>
       <use x="66.699219" xlink:href="#ArialMT-99"/>
       <use x="116.699219" xlink:href="#ArialMT-101"/>
       <use x="172.314453" xlink:href="#ArialMT-116"/>
       <use x="200.097656" xlink:href="#ArialMT-97"/>
       <use x="255.712891" xlink:href="#ArialMT-116"/>
       <use x="283.496094" xlink:href="#ArialMT-101"/>
      </g>
     </g>
    </g>
    <g id="xtick_2">
     <g id="line2d_2">
      <g>
       <use style="fill:#262626;stroke:#262626;stroke-width:1.25;" x="139.163552" xlink:href="#m3b00b60b5f" y="547.99324"/>
      </g>
     </g>
     <g id="text_2">
      <!-- Ammonia -->
      <defs>
       <path d="M 6.59375 0 
L 6.59375 51.859375 
L 14.453125 51.859375 
L 14.453125 44.578125 
Q 16.890625 48.390625 20.9375 50.703125 
Q 25 53.03125 30.171875 53.03125 
Q 35.9375 53.03125 39.625 50.640625 
Q 43.3125 48.25 44.828125 43.953125 
Q 50.984375 53.03125 60.84375 53.03125 
Q 68.5625 53.03125 72.703125 48.75 
Q 76.859375 44.484375 76.859375 35.59375 
L 76.859375 0 
L 68.109375 0 
L 68.109375 32.671875 
Q 68.109375 37.9375 67.25 40.25 
Q 66.40625 42.578125 64.15625 43.984375 
Q 61.921875 45.40625 58.890625 45.40625 
Q 53.421875 45.40625 49.796875 41.765625 
Q 46.1875 38.140625 46.1875 30.125 
L 46.1875 0 
L 37.40625 0 
L 37.40625 33.6875 
Q 37.40625 39.546875 35.25 42.46875 
Q 33.109375 45.40625 28.21875 45.40625 
Q 24.515625 45.40625 21.359375 43.453125 
Q 18.21875 41.5 16.796875 37.734375 
Q 15.375 33.984375 15.375 26.90625 
L 15.375 0 
z
" id="ArialMT-109"/>
       <path d="M 3.328125 25.921875 
Q 3.328125 40.328125 11.328125 47.265625 
Q 18.015625 53.03125 27.640625 53.03125 
Q 38.328125 53.03125 45.109375 46.015625 
Q 51.90625 39.015625 51.90625 26.65625 
Q 51.90625 16.65625 48.90625 10.90625 
Q 45.90625 5.171875 40.15625 2 
Q 34.421875 -1.171875 27.640625 -1.171875 
Q 16.75 -1.171875 10.03125 5.8125 
Q 3.328125 12.796875 3.328125 25.921875 
z
M 12.359375 25.921875 
Q 12.359375 15.96875 16.703125 11.015625 
Q 21.046875 6.0625 27.640625 6.0625 
Q 34.1875 6.0625 38.53125 11.03125 
Q 42.875 16.015625 42.875 26.21875 
Q 42.875 35.84375 38.5 40.796875 
Q 34.125 45.75 27.640625 45.75 
Q 21.046875 45.75 16.703125 40.8125 
Q 12.359375 35.890625 12.359375 25.921875 
z
" id="ArialMT-111"/>
       <path d="M 6.59375 0 
L 6.59375 51.859375 
L 14.5 51.859375 
L 14.5 44.484375 
Q 20.21875 53.03125 31 53.03125 
Q 35.6875 53.03125 39.625 51.34375 
Q 43.5625 49.65625 45.515625 46.921875 
Q 47.46875 44.1875 48.25 40.4375 
Q 48.734375 37.984375 48.734375 31.890625 
L 48.734375 0 
L 39.9375 0 
L 39.9375 31.546875 
Q 39.9375 36.921875 38.90625 39.578125 
Q 37.890625 42.234375 35.28125 43.8125 
Q 32.671875 45.40625 29.15625 45.40625 
Q 23.53125 45.40625 19.453125 41.84375 
Q 15.375 38.28125 15.375 28.328125 
L 15.375 0 
z
" id="ArialMT-110"/>
       <path d="M 6.640625 61.46875 
L 6.640625 71.578125 
L 15.4375 71.578125 
L 15.4375 61.46875 
z
M 6.640625 0 
L 6.640625 51.859375 
L 15.4375 51.859375 
L 15.4375 0 
z
" id="ArialMT-105"/>
      </defs>
      <g style="fill:#262626;" transform="translate(141.43849 594.65949)rotate(-90)scale(0.088 -0.088)">
       <use xlink:href="#ArialMT-65"/>
       <use x="66.699219" xlink:href="#ArialMT-109"/>
       <use x="150" xlink:href="#ArialMT-109"/>
       <use x="233.300781" xlink:href="#ArialMT-111"/>
       <use x="288.916016" xlink:href="#ArialMT-110"/>
       <use x="344.53125" xlink:href="#ArialMT-105"/>
       <use x="366.748047" xlink:href="#ArialMT-97"/>
      </g>
     </g>
    </g>
    <g id="xtick_3">
     <g id="line2d_3">
      <g>
       <use style="fill:#262626;stroke:#262626;stroke-width:1.25;" x="213.496223" xlink:href="#m3b00b60b5f" y="547.99324"/>
      </g>
     </g>
     <g id="text_3">
      <!-- CO$_2$ -->
      <defs>
       <path d="M 58.796875 25.09375 
L 68.265625 22.703125 
Q 65.28125 11.03125 57.546875 4.90625 
Q 49.8125 -1.21875 38.625 -1.21875 
Q 27.046875 -1.21875 19.796875 3.484375 
Q 12.546875 8.203125 8.765625 17.140625 
Q 4.984375 26.078125 4.984375 36.328125 
Q 4.984375 47.515625 9.25 55.828125 
Q 13.53125 64.15625 21.40625 68.46875 
Q 29.296875 72.796875 38.765625 72.796875 
Q 49.515625 72.796875 56.828125 67.328125 
Q 64.15625 61.859375 67.046875 51.953125 
L 57.71875 49.75 
Q 55.21875 57.5625 50.484375 61.125 
Q 45.75 64.703125 38.578125 64.703125 
Q 30.328125 64.703125 24.78125 60.734375 
Q 19.234375 56.78125 16.984375 50.109375 
Q 14.75 43.453125 14.75 36.375 
Q 14.75 27.25 17.40625 20.4375 
Q 20.0625 13.625 25.671875 10.25 
Q 31.296875 6.890625 37.84375 6.890625 
Q 45.796875 6.890625 51.3125 11.46875 
Q 56.84375 16.0625 58.796875 25.09375 
z
" id="ArialMT-67"/>
       <path d="M 4.828125 34.859375 
Q 4.828125 52.6875 14.390625 62.765625 
Q 23.96875 72.859375 39.109375 72.859375 
Q 49.03125 72.859375 56.984375 68.109375 
Q 64.9375 63.375 69.109375 54.90625 
Q 73.296875 46.4375 73.296875 35.6875 
Q 73.296875 24.8125 68.890625 16.21875 
Q 64.5 7.625 56.4375 3.203125 
Q 48.390625 -1.21875 39.0625 -1.21875 
Q 28.953125 -1.21875 20.984375 3.65625 
Q 13.03125 8.546875 8.921875 16.984375 
Q 4.828125 25.4375 4.828125 34.859375 
z
M 14.59375 34.71875 
Q 14.59375 21.78125 21.546875 14.328125 
Q 28.515625 6.890625 39.015625 6.890625 
Q 49.703125 6.890625 56.609375 14.40625 
Q 63.53125 21.921875 63.53125 35.75 
Q 63.53125 44.484375 60.578125 51 
Q 57.625 57.515625 51.921875 61.109375 
Q 46.234375 64.703125 39.15625 64.703125 
Q 29.109375 64.703125 21.84375 57.78125 
Q 14.59375 50.875 14.59375 34.71875 
z
" id="ArialMT-79"/>
       <path d="M 50.34375 8.453125 
L 50.34375 0 
L 3.03125 0 
Q 2.9375 3.171875 4.046875 6.109375 
Q 5.859375 10.9375 9.828125 15.625 
Q 13.8125 20.3125 21.34375 26.46875 
Q 33.015625 36.03125 37.109375 41.625 
Q 41.21875 47.21875 41.21875 52.203125 
Q 41.21875 57.421875 37.46875 61 
Q 33.734375 64.59375 27.734375 64.59375 
Q 21.390625 64.59375 17.578125 60.78125 
Q 13.765625 56.984375 13.71875 50.25 
L 4.6875 51.171875 
Q 5.609375 61.28125 11.65625 66.578125 
Q 17.71875 71.875 27.9375 71.875 
Q 38.234375 71.875 44.234375 66.15625 
Q 50.25 60.453125 50.25 52 
Q 50.25 47.703125 48.484375 43.546875 
Q 46.734375 39.40625 42.65625 34.8125 
Q 38.578125 30.21875 29.109375 22.21875 
Q 21.1875 15.578125 18.9375 13.203125 
Q 16.703125 10.84375 15.234375 8.453125 
z
" id="ArialMT-50"/>
      </defs>
      <g style="fill:#262626;" transform="translate(215.388223 574.74124)rotate(-90)scale(0.088 -0.088)">
       <use transform="translate(0 0.140625)" xlink:href="#ArialMT-67"/>
       <use transform="translate(72.216797 0.140625)" xlink:href="#ArialMT-79"/>
       <use transform="translate(151.742344 -29.728125)scale(0.7)" xlink:href="#ArialMT-50"/>
      </g>
     </g>
    </g>
    <g id="xtick_4">
     <g id="line2d_4">
      <g>
       <use style="fill:#262626;stroke:#262626;stroke-width:1.25;" x="287.828893" xlink:href="#m3b00b60b5f" y="547.99324"/>
      </g>
     </g>
     <g id="text_4">
      <!-- CO$_2$ -->
      <g style="fill:#262626;" transform="translate(289.720893 574.74124)rotate(-90)scale(0.088 -0.088)">
       <use transform="translate(0 0.140625)" xlink:href="#ArialMT-67"/>
       <use transform="translate(72.216797 0.140625)" xlink:href="#ArialMT-79"/>
       <use transform="translate(151.742344 -29.728125)scale(0.7)" xlink:href="#ArialMT-50"/>
      </g>
     </g>
    </g>
    <g id="xtick_5">
     <g id="line2d_5">
      <g>
       <use style="fill:#262626;stroke:#262626;stroke-width:1.25;" x="362.161564" xlink:href="#m3b00b60b5f" y="547.99324"/>
      </g>
     </g>
     <g id="text_5">
      <!-- Hydrogen sulfide -->
      <defs>
       <path d="M 8.015625 0 
L 8.015625 71.578125 
L 17.484375 71.578125 
L 17.484375 42.1875 
L 54.6875 42.1875 
L 54.6875 71.578125 
L 64.15625 71.578125 
L 64.15625 0 
L 54.6875 0 
L 54.6875 33.734375 
L 17.484375 33.734375 
L 17.484375 0 
z
" id="ArialMT-72"/>
       <path d="M 6.203125 -19.96875 
L 5.21875 -11.71875 
Q 8.109375 -12.5 10.25 -12.5 
Q 13.1875 -12.5 14.9375 -11.515625 
Q 16.703125 -10.546875 17.828125 -8.796875 
Q 18.65625 -7.46875 20.515625 -2.25 
Q 20.75 -1.515625 21.296875 -0.09375 
L 1.609375 51.859375 
L 11.078125 51.859375 
L 21.875 21.828125 
Q 23.96875 16.109375 25.640625 9.8125 
Q 27.15625 15.875 29.25 21.625 
L 40.328125 51.859375 
L 49.125 51.859375 
L 29.390625 -0.875 
Q 26.21875 -9.421875 24.46875 -12.640625 
Q 22.125 -17 19.09375 -19.015625 
Q 16.0625 -21.046875 11.859375 -21.046875 
Q 9.328125 -21.046875 6.203125 -19.96875 
z
" id="ArialMT-121"/>
       <path d="M 40.234375 0 
L 40.234375 6.546875 
Q 35.296875 -1.171875 25.734375 -1.171875 
Q 19.53125 -1.171875 14.328125 2.25 
Q 9.125 5.671875 6.265625 11.796875 
Q 3.421875 17.921875 3.421875 25.875 
Q 3.421875 33.640625 6 39.96875 
Q 8.59375 46.296875 13.765625 49.65625 
Q 18.953125 53.03125 25.34375 53.03125 
Q 30.03125 53.03125 33.6875 51.046875 
Q 37.359375 49.078125 39.65625 45.90625 
L 39.65625 71.578125 
L 48.390625 71.578125 
L 48.390625 0 
z
M 12.453125 25.875 
Q 12.453125 15.921875 16.640625 10.984375 
Q 20.84375 6.0625 26.5625 6.0625 
Q 32.328125 6.0625 36.34375 10.765625 
Q 40.375 15.484375 40.375 25.140625 
Q 40.375 35.796875 36.265625 40.765625 
Q 32.171875 45.75 26.171875 45.75 
Q 20.3125 45.75 16.375 40.96875 
Q 12.453125 36.1875 12.453125 25.875 
z
" id="ArialMT-100"/>
       <path d="M 6.5 0 
L 6.5 51.859375 
L 14.40625 51.859375 
L 14.40625 44 
Q 17.4375 49.515625 20 51.265625 
Q 22.5625 53.03125 25.640625 53.03125 
Q 30.078125 53.03125 34.671875 50.203125 
L 31.640625 42.046875 
Q 28.421875 43.953125 25.203125 43.953125 
Q 22.3125 43.953125 20.015625 42.21875 
Q 17.71875 40.484375 16.75 37.40625 
Q 15.28125 32.71875 15.28125 27.15625 
L 15.28125 0 
z
" id="ArialMT-114"/>
       <path d="M 4.984375 -4.296875 
L 13.53125 -5.5625 
Q 14.0625 -9.515625 16.5 -11.328125 
Q 19.78125 -13.765625 25.4375 -13.765625 
Q 31.546875 -13.765625 34.859375 -11.328125 
Q 38.1875 -8.890625 39.359375 -4.5 
Q 40.046875 -1.8125 39.984375 6.78125 
Q 34.234375 0 25.640625 0 
Q 14.9375 0 9.078125 7.71875 
Q 3.21875 15.4375 3.21875 26.21875 
Q 3.21875 33.640625 5.90625 39.90625 
Q 8.59375 46.1875 13.6875 49.609375 
Q 18.796875 53.03125 25.6875 53.03125 
Q 34.859375 53.03125 40.828125 45.609375 
L 40.828125 51.859375 
L 48.921875 51.859375 
L 48.921875 7.03125 
Q 48.921875 -5.078125 46.453125 -10.125 
Q 44 -15.1875 38.640625 -18.109375 
Q 33.296875 -21.046875 25.484375 -21.046875 
Q 16.21875 -21.046875 10.5 -16.875 
Q 4.78125 -12.703125 4.984375 -4.296875 
z
M 12.25 26.859375 
Q 12.25 16.65625 16.296875 11.96875 
Q 20.359375 7.28125 26.46875 7.28125 
Q 32.515625 7.28125 36.609375 11.9375 
Q 40.71875 16.609375 40.71875 26.5625 
Q 40.71875 36.078125 36.5 40.90625 
Q 32.28125 45.75 26.3125 45.75 
Q 20.453125 45.75 16.34375 40.984375 
Q 12.25 36.234375 12.25 26.859375 
z
" id="ArialMT-103"/>
       <path id="ArialMT-32"/>
       <path d="M 3.078125 15.484375 
L 11.765625 16.84375 
Q 12.5 11.625 15.84375 8.84375 
Q 19.1875 6.0625 25.203125 6.0625 
Q 31.25 6.0625 34.171875 8.515625 
Q 37.109375 10.984375 37.109375 14.3125 
Q 37.109375 17.28125 34.515625 19 
Q 32.71875 20.171875 25.53125 21.96875 
Q 15.875 24.421875 12.140625 26.203125 
Q 8.40625 27.984375 6.46875 31.125 
Q 4.546875 34.28125 4.546875 38.09375 
Q 4.546875 41.546875 6.125 44.5 
Q 7.71875 47.46875 10.453125 49.421875 
Q 12.5 50.921875 16.03125 51.96875 
Q 19.578125 53.03125 23.640625 53.03125 
Q 29.734375 53.03125 34.34375 51.265625 
Q 38.96875 49.515625 41.15625 46.5 
Q 43.359375 43.5 44.1875 38.484375 
L 35.59375 37.3125 
Q 35.015625 41.3125 32.203125 43.546875 
Q 29.390625 45.796875 24.265625 45.796875 
Q 18.21875 45.796875 15.625 43.796875 
Q 13.03125 41.796875 13.03125 39.109375 
Q 13.03125 37.40625 14.109375 36.03125 
Q 15.1875 34.625 17.484375 33.6875 
Q 18.796875 33.203125 25.25 31.453125 
Q 34.578125 28.953125 38.25 27.359375 
Q 41.9375 25.78125 44.03125 22.75 
Q 46.140625 19.734375 46.140625 15.234375 
Q 46.140625 10.84375 43.578125 6.953125 
Q 41.015625 3.078125 36.171875 0.953125 
Q 31.34375 -1.171875 25.25 -1.171875 
Q 15.140625 -1.171875 9.84375 3.03125 
Q 4.546875 7.234375 3.078125 15.484375 
z
" id="ArialMT-115"/>
       <path d="M 40.578125 0 
L 40.578125 7.625 
Q 34.515625 -1.171875 24.125 -1.171875 
Q 19.53125 -1.171875 15.546875 0.578125 
Q 11.578125 2.34375 9.640625 5 
Q 7.71875 7.671875 6.9375 11.53125 
Q 6.390625 14.109375 6.390625 19.734375 
L 6.390625 51.859375 
L 15.1875 51.859375 
L 15.1875 23.09375 
Q 15.1875 16.21875 15.71875 13.8125 
Q 16.546875 10.359375 19.234375 8.375 
Q 21.921875 6.390625 25.875 6.390625 
Q 29.828125 6.390625 33.296875 8.421875 
Q 36.765625 10.453125 38.203125 13.9375 
Q 39.65625 17.4375 39.65625 24.078125 
L 39.65625 51.859375 
L 48.4375 51.859375 
L 48.4375 0 
z
" id="ArialMT-117"/>
       <path d="M 6.390625 0 
L 6.390625 71.578125 
L 15.1875 71.578125 
L 15.1875 0 
z
" id="ArialMT-108"/>
       <path d="M 8.6875 0 
L 8.6875 45.015625 
L 0.921875 45.015625 
L 0.921875 51.859375 
L 8.6875 51.859375 
L 8.6875 57.375 
Q 8.6875 62.59375 9.625 65.140625 
Q 10.890625 68.5625 14.078125 70.671875 
Q 17.28125 72.796875 23.046875 72.796875 
Q 26.765625 72.796875 31.25 71.921875 
L 29.9375 64.265625 
Q 27.203125 64.75 24.75 64.75 
Q 20.75 64.75 19.09375 63.03125 
Q 17.4375 61.328125 17.4375 56.640625 
L 17.4375 51.859375 
L 27.546875 51.859375 
L 27.546875 45.015625 
L 17.4375 45.015625 
L 17.4375 0 
z
" id="ArialMT-102"/>
      </defs>
      <g style="fill:#262626;" transform="translate(364.438564 623.527615)rotate(-90)scale(0.088 -0.088)">
       <use xlink:href="#ArialMT-72"/>
       <use x="72.216797" xlink:href="#ArialMT-121"/>
       <use x="122.216797" xlink:href="#ArialMT-100"/>
       <use x="177.832031" xlink:href="#ArialMT-114"/>
       <use x="211.132812" xlink:href="#ArialMT-111"/>
       <use x="266.748047" xlink:href="#ArialMT-103"/>
       <use x="322.363281" xlink:href="#ArialMT-101"/>
       <use x="377.978516" xlink:href="#ArialMT-110"/>
       <use x="433.59375" xlink:href="#ArialMT-32"/>
       <use x="461.376953" xlink:href="#ArialMT-115"/>
       <use x="511.376953" xlink:href="#ArialMT-117"/>
       <use x="566.992188" xlink:href="#ArialMT-108"/>
       <use x="589.208984" xlink:href="#ArialMT-102"/>
       <use x="616.992188" xlink:href="#ArialMT-105"/>
       <use x="639.208984" xlink:href="#ArialMT-100"/>
       <use x="694.824219" xlink:href="#ArialMT-101"/>
      </g>
     </g>
    </g>
    <g id="xtick_6">
     <g id="line2d_6">
      <g>
       <use style="fill:#262626;stroke:#262626;stroke-width:1.25;" x="436.494234" xlink:href="#m3b00b60b5f" y="547.99324"/>
      </g>
     </g>
     <g id="text_6">
      <!-- Hydrogen -->
      <g style="fill:#262626;" transform="translate(438.717609 595.64674)rotate(-90)scale(0.088 -0.088)">
       <use xlink:href="#ArialMT-72"/>
       <use x="72.216797" xlink:href="#ArialMT-121"/>
       <use x="122.216797" xlink:href="#ArialMT-100"/>
       <use x="177.832031" xlink:href="#ArialMT-114"/>
       <use x="211.132812" xlink:href="#ArialMT-111"/>
       <use x="266.748047" xlink:href="#ArialMT-103"/>
       <use x="322.363281" xlink:href="#ArialMT-101"/>
       <use x="377.978516" xlink:href="#ArialMT-110"/>
      </g>
     </g>
    </g>
    <g id="xtick_7">
     <g id="line2d_7">
      <g>
       <use style="fill:#262626;stroke:#262626;stroke-width:1.25;" x="510.826905" xlink:href="#m3b00b60b5f" y="547.99324"/>
      </g>
     </g>
     <g id="text_7">
      <!-- Sulfate -->
      <defs>
       <path d="M 4.5 23 
L 13.421875 23.78125 
Q 14.0625 18.40625 16.375 14.96875 
Q 18.703125 11.53125 23.578125 9.40625 
Q 28.46875 7.28125 34.578125 7.28125 
Q 39.984375 7.28125 44.140625 8.890625 
Q 48.296875 10.5 50.3125 13.296875 
Q 52.34375 16.109375 52.34375 19.4375 
Q 52.34375 22.796875 50.390625 25.3125 
Q 48.4375 27.828125 43.953125 29.546875 
Q 41.0625 30.671875 31.203125 33.03125 
Q 21.34375 35.40625 17.390625 37.5 
Q 12.25 40.1875 9.734375 44.15625 
Q 7.234375 48.140625 7.234375 53.078125 
Q 7.234375 58.5 10.296875 63.203125 
Q 13.375 67.921875 19.28125 70.359375 
Q 25.203125 72.796875 32.421875 72.796875 
Q 40.375 72.796875 46.453125 70.234375 
Q 52.546875 67.671875 55.8125 62.6875 
Q 59.078125 57.71875 59.328125 51.421875 
L 50.25 50.734375 
Q 49.515625 57.515625 45.28125 60.984375 
Q 41.0625 64.453125 32.8125 64.453125 
Q 24.21875 64.453125 20.28125 61.296875 
Q 16.359375 58.15625 16.359375 53.71875 
Q 16.359375 49.859375 19.140625 47.359375 
Q 21.875 44.875 33.421875 42.265625 
Q 44.96875 39.65625 49.265625 37.703125 
Q 55.515625 34.8125 58.484375 30.390625 
Q 61.46875 25.984375 61.46875 20.21875 
Q 61.46875 14.5 58.203125 9.4375 
Q 54.9375 4.390625 48.796875 1.578125 
Q 42.671875 -1.21875 35.015625 -1.21875 
Q 25.296875 -1.21875 18.71875 1.609375 
Q 12.15625 4.4375 8.421875 10.125 
Q 4.6875 15.828125 4.5 23 
z
" id="ArialMT-83"/>
      </defs>
      <g style="fill:#262626;" transform="translate(513.101842 584.88874)rotate(-90)scale(0.088 -0.088)">
       <use xlink:href="#ArialMT-83"/>
       <use x="66.699219" xlink:href="#ArialMT-117"/>
       <use x="122.314453" xlink:href="#ArialMT-108"/>
       <use x="144.53125" xlink:href="#ArialMT-102"/>
       <use x="172.314453" xlink:href="#ArialMT-97"/>
       <use x="227.929688" xlink:href="#ArialMT-116"/>
       <use x="255.712891" xlink:href="#ArialMT-101"/>
      </g>
     </g>
    </g>
   </g>
   <g id="matplotlib.axis_6">
    <g id="ytick_1">
     <g id="line2d_8">
      <defs>
       <path d="M 0 0 
L 6 0 
" id="m25b8a453f8" style="stroke:#262626;stroke-width:1.25;"/>
      </defs>
      <g>
       <use style="fill:#262626;stroke:#262626;stroke-width:1.25;" x="547.99324" xlink:href="#m25b8a453f8" y="64.830882"/>
      </g>
     </g>
     <g id="text_8">
      <!-- Acetate -->
      <g style="fill:#262626;" transform="translate(557.49324 67.980319)scale(0.088 -0.088)">
       <use xlink:href="#ArialMT-65"/>
       <use x="66.699219" xlink:href="#ArialMT-99"/>
       <use x="116.699219" xlink:href="#ArialMT-101"/>
       <use x="172.314453" xlink:href="#ArialMT-116"/>
       <use x="200.097656" xlink:href="#ArialMT-97"/>
       <use x="255.712891" xlink:href="#ArialMT-116"/>
       <use x="283.496094" xlink:href="#ArialMT-101"/>
      </g>
     </g>
    </g>
    <g id="ytick_2">
     <g id="line2d_9">
      <g>
       <use style="fill:#262626;stroke:#262626;stroke-width:1.25;" x="547.99324" xlink:href="#m25b8a453f8" y="139.163552"/>
      </g>
     </g>
     <g id="text_9">
      <!-- Ammonia -->
      <g style="fill:#262626;" transform="translate(557.49324 142.31299)scale(0.088 -0.088)">
       <use xlink:href="#ArialMT-65"/>
       <use x="66.699219" xlink:href="#ArialMT-109"/>
       <use x="150" xlink:href="#ArialMT-109"/>
       <use x="233.300781" xlink:href="#ArialMT-111"/>
       <use x="288.916016" xlink:href="#ArialMT-110"/>
       <use x="344.53125" xlink:href="#ArialMT-105"/>
       <use x="366.748047" xlink:href="#ArialMT-97"/>
      </g>
     </g>
    </g>
    <g id="ytick_3">
     <g id="line2d_10">
      <g>
       <use style="fill:#262626;stroke:#262626;stroke-width:1.25;" x="547.99324" xlink:href="#m25b8a453f8" y="213.496223"/>
      </g>
     </g>
     <g id="text_10">
      <!-- CO$_2$ -->
      <g style="fill:#262626;" transform="translate(557.49324 216.708223)scale(0.088 -0.088)">
       <use transform="translate(0 0.140625)" xlink:href="#ArialMT-67"/>
       <use transform="translate(72.216797 0.140625)" xlink:href="#ArialMT-79"/>
       <use transform="translate(151.742344 -29.728125)scale(0.7)" xlink:href="#ArialMT-50"/>
      </g>
     </g>
    </g>
    <g id="ytick_4">
     <g id="line2d_11">
      <g>
       <use style="fill:#262626;stroke:#262626;stroke-width:1.25;" x="547.99324" xlink:href="#m25b8a453f8" y="287.828893"/>
      </g>
     </g>
     <g id="text_11">
      <!-- CO$_2$ -->
      <g style="fill:#262626;" transform="translate(557.49324 291.040893)scale(0.088 -0.088)">
       <use transform="translate(0 0.140625)" xlink:href="#ArialMT-67"/>
       <use transform="translate(72.216797 0.140625)" xlink:href="#ArialMT-79"/>
       <use transform="translate(151.742344 -29.728125)scale(0.7)" xlink:href="#ArialMT-50"/>
      </g>
     </g>
    </g>
    <g id="ytick_5">
     <g id="line2d_12">
      <g>
       <use style="fill:#262626;stroke:#262626;stroke-width:1.25;" x="547.99324" xlink:href="#m25b8a453f8" y="362.161564"/>
      </g>
     </g>
     <g id="text_12">
      <!-- Hydrogen sulfide -->
      <g style="fill:#262626;" transform="translate(557.49324 365.364626)scale(0.088 -0.088)">
       <use xlink:href="#ArialMT-72"/>
       <use x="72.216797" xlink:href="#ArialMT-121"/>
       <use x="122.216797" xlink:href="#ArialMT-100"/>
       <use x="177.832031" xlink:href="#ArialMT-114"/>
       <use x="211.132812" xlink:href="#ArialMT-111"/>
       <use x="266.748047" xlink:href="#ArialMT-103"/>
       <use x="322.363281" xlink:href="#ArialMT-101"/>
       <use x="377.978516" xlink:href="#ArialMT-110"/>
       <use x="433.59375" xlink:href="#ArialMT-32"/>
       <use x="461.376953" xlink:href="#ArialMT-115"/>
       <use x="511.376953" xlink:href="#ArialMT-117"/>
       <use x="566.992188" xlink:href="#ArialMT-108"/>
       <use x="589.208984" xlink:href="#ArialMT-102"/>
       <use x="616.992188" xlink:href="#ArialMT-105"/>
       <use x="639.208984" xlink:href="#ArialMT-100"/>
       <use x="694.824219" xlink:href="#ArialMT-101"/>
      </g>
     </g>
    </g>
    <g id="ytick_6">
     <g id="line2d_13">
      <g>
       <use style="fill:#262626;stroke:#262626;stroke-width:1.25;" x="547.99324" xlink:href="#m25b8a453f8" y="436.494234"/>
      </g>
     </g>
     <g id="text_13">
      <!-- Hydrogen -->
      <g style="fill:#262626;" transform="translate(557.49324 439.643672)scale(0.088 -0.088)">
       <use xlink:href="#ArialMT-72"/>
       <use x="72.216797" xlink:href="#ArialMT-121"/>
       <use x="122.216797" xlink:href="#ArialMT-100"/>
       <use x="177.832031" xlink:href="#ArialMT-114"/>
       <use x="211.132812" xlink:href="#ArialMT-111"/>
       <use x="266.748047" xlink:href="#ArialMT-103"/>
       <use x="322.363281" xlink:href="#ArialMT-101"/>
       <use x="377.978516" xlink:href="#ArialMT-110"/>
      </g>
     </g>
    </g>
    <g id="ytick_7">
     <g id="line2d_14">
      <g>
       <use style="fill:#262626;stroke:#262626;stroke-width:1.25;" x="547.99324" xlink:href="#m25b8a453f8" y="510.826905"/>
      </g>
     </g>
     <g id="text_14">
      <!-- Sulfate -->
      <g style="fill:#262626;" transform="translate(557.49324 513.976342)scale(0.088 -0.088)">
       <use xlink:href="#ArialMT-83"/>
       <use x="66.699219" xlink:href="#ArialMT-117"/>
       <use x="122.314453" xlink:href="#ArialMT-108"/>
       <use x="144.53125" xlink:href="#ArialMT-102"/>
       <use x="172.314453" xlink:href="#ArialMT-97"/>
       <use x="227.929688" xlink:href="#ArialMT-116"/>
       <use x="255.712891" xlink:href="#ArialMT-101"/>
      </g>
     </g>
    </g>
   </g>
   <g id="QuadMesh_3">
    <path clip-path="url(#p694f153791)" d="M 27.664547 27.664546 
L 101.997217 27.664546 
L 101.997217 101.997217 
L 27.664547 101.997217 
L 27.664547 27.664546 
" style="fill:#66c2a5;"/>
    <path clip-path="url(#p694f153791)" d="M 101.997217 27.664546 
L 176.329887 27.664546 
L 176.329887 101.997217 
L 101.997217 101.997217 
L 101.997217 27.664546 
" style="fill:#85ceb7;"/>
    <path clip-path="url(#p694f153791)" d="M 176.329887 27.664546 
L 250.662558 27.664546 
L 250.662558 101.997217 
L 176.329887 101.997217 
L 176.329887 27.664546 
" style="fill:#c2e7db;"/>
    <path clip-path="url(#p694f153791)" d="M 250.662558 27.664546 
L 324.995228 27.664546 
L 324.995228 101.997217 
L 250.662558 101.997217 
L 250.662558 27.664546 
" style="fill:#e0f3ed;"/>
    <path clip-path="url(#p694f153791)" d="M 324.995228 27.664546 
L 399.327899 27.664546 
L 399.327899 101.997217 
L 324.995228 101.997217 
L 324.995228 27.664546 
" style="fill:#85ceb7;"/>
    <path clip-path="url(#p694f153791)" d="M 399.327899 27.664546 
L 473.660569 27.664546 
L 473.660569 101.997217 
L 399.327899 101.997217 
L 399.327899 27.664546 
" style="fill:#a3dac9;"/>
    <path clip-path="url(#p694f153791)" d="M 473.660569 27.664546 
L 547.99324 27.664546 
L 547.99324 101.997217 
L 473.660569 101.997217 
L 473.660569 27.664546 
" style="fill:#85ceb7;"/>
    <path clip-path="url(#p694f153791)" d="M 27.664547 101.997217 
L 101.997217 101.997217 
L 101.997217 176.329887 
L 27.664547 176.329887 
L 27.664547 101.997217 
" style="fill:#85ceb7;"/>
    <path clip-path="url(#p694f153791)" d="M 101.997217 101.997217 
L 176.329887 101.997217 
L 176.329887 176.329887 
L 101.997217 176.329887 
L 101.997217 101.997217 
" style="fill:#66c2a5;"/>
    <path clip-path="url(#p694f153791)" d="M 176.329887 101.997217 
L 250.662558 101.997217 
L 250.662558 176.329887 
L 176.329887 176.329887 
L 176.329887 101.997217 
" style="fill:#c2e7db;"/>
    <path clip-path="url(#p694f153791)" d="M 250.662558 101.997217 
L 324.995228 101.997217 
L 324.995228 176.329887 
L 250.662558 176.329887 
L 250.662558 101.997217 
" style="fill:#c2e7db;"/>
    <path clip-path="url(#p694f153791)" d="M 324.995228 101.997217 
L 399.327899 101.997217 
L 399.327899 176.329887 
L 324.995228 176.329887 
L 324.995228 101.997217 
" style="fill:#66c2a5;"/>
    <path clip-path="url(#p694f153791)" d="M 399.327899 101.997217 
L 473.660569 101.997217 
L 473.660569 176.329887 
L 399.327899 176.329887 
L 399.327899 101.997217 
" style="fill:#85ceb7;"/>
    <path clip-path="url(#p694f153791)" d="M 473.660569 101.997217 
L 547.99324 101.997217 
L 547.99324 176.329887 
L 473.660569 176.329887 
L 473.660569 101.997217 
" style="fill:#66c2a5;"/>
    <path clip-path="url(#p694f153791)" d="M 27.664547 176.329887 
L 101.997217 176.329887 
L 101.997217 250.662558 
L 27.664547 250.662558 
L 27.664547 176.329887 
" style="fill:#c2e7db;"/>
    <path clip-path="url(#p694f153791)" d="M 101.997217 176.329887 
L 176.329887 176.329887 
L 176.329887 250.662558 
L 101.997217 250.662558 
L 101.997217 176.329887 
" style="fill:#c2e7db;"/>
    <path clip-path="url(#p694f153791)" d="M 176.329887 176.329887 
L 250.662558 176.329887 
L 250.662558 250.662558 
L 176.329887 250.662558 
L 176.329887 176.329887 
" style="fill:#66c2a5;"/>
    <path clip-path="url(#p694f153791)" d="M 250.662558 176.329887 
L 324.995228 176.329887 
L 324.995228 250.662558 
L 250.662558 250.662558 
L 250.662558 176.329887 
" style="fill:#ffffff;"/>
    <path clip-path="url(#p694f153791)" d="M 324.995228 176.329887 
L 399.327899 176.329887 
L 399.327899 250.662558 
L 324.995228 250.662558 
L 324.995228 176.329887 
" style="fill:#c2e7db;"/>
    <path clip-path="url(#p694f153791)" d="M 399.327899 176.329887 
L 473.660569 176.329887 
L 473.660569 250.662558 
L 399.327899 250.662558 
L 399.327899 176.329887 
" style="fill:#e0f3ed;"/>
    <path clip-path="url(#p694f153791)" d="M 473.660569 176.329887 
L 547.99324 176.329887 
L 547.99324 250.662558 
L 473.660569 250.662558 
L 473.660569 176.329887 
" style="fill:#c2e7db;"/>
    <path clip-path="url(#p694f153791)" d="M 27.664547 250.662558 
L 101.997217 250.662558 
L 101.997217 324.995228 
L 27.664547 324.995228 
L 27.664547 250.662558 
" style="fill:#e0f3ed;"/>
    <path clip-path="url(#p694f153791)" d="M 101.997217 250.662558 
L 176.329887 250.662558 
L 176.329887 324.995228 
L 101.997217 324.995228 
L 101.997217 250.662558 
" style="fill:#c2e7db;"/>
    <path clip-path="url(#p694f153791)" d="M 176.329887 250.662558 
L 250.662558 250.662558 
L 250.662558 324.995228 
L 176.329887 324.995228 
L 176.329887 250.662558 
" style="fill:#ffffff;"/>
    <path clip-path="url(#p694f153791)" d="M 250.662558 250.662558 
L 324.995228 250.662558 
L 324.995228 324.995228 
L 250.662558 324.995228 
L 250.662558 250.662558 
" style="fill:#66c2a5;"/>
    <path clip-path="url(#p694f153791)" d="M 324.995228 250.662558 
L 399.327899 250.662558 
L 399.327899 324.995228 
L 324.995228 324.995228 
L 324.995228 250.662558 
" style="fill:#c2e7db;"/>
    <path clip-path="url(#p694f153791)" d="M 399.327899 250.662558 
L 473.660569 250.662558 
L 473.660569 324.995228 
L 399.327899 324.995228 
L 399.327899 250.662558 
" style="fill:#c2e7db;"/>
    <path clip-path="url(#p694f153791)" d="M 473.660569 250.662558 
L 547.99324 250.662558 
L 547.99324 324.995228 
L 473.660569 324.995228 
L 473.660569 250.662558 
" style="fill:#c2e7db;"/>
    <path clip-path="url(#p694f153791)" d="M 27.664547 324.995228 
L 101.997217 324.995228 
L 101.997217 399.327899 
L 27.664547 399.327899 
L 27.664547 324.995228 
" style="fill:#85ceb7;"/>
    <path clip-path="url(#p694f153791)" d="M 101.997217 324.995228 
L 176.329887 324.995228 
L 176.329887 399.327899 
L 101.997217 399.327899 
L 101.997217 324.995228 
" style="fill:#66c2a5;"/>
    <path clip-path="url(#p694f153791)" d="M 176.329887 324.995228 
L 250.662558 324.995228 
L 250.662558 399.327899 
L 176.329887 399.327899 
L 176.329887 324.995228 
" style="fill:#c2e7db;"/>
    <path clip-path="url(#p694f153791)" d="M 250.662558 324.995228 
L 324.995228 324.995228 
L 324.995228 399.327899 
L 250.662558 399.327899 
L 250.662558 324.995228 
" style="fill:#c2e7db;"/>
    <path clip-path="url(#p694f153791)" d="M 324.995228 324.995228 
L 399.327899 324.995228 
L 399.327899 399.327899 
L 324.995228 399.327899 
L 324.995228 324.995228 
" style="fill:#66c2a5;"/>
    <path clip-path="url(#p694f153791)" d="M 399.327899 324.995228 
L 473.660569 324.995228 
L 473.660569 399.327899 
L 399.327899 399.327899 
L 399.327899 324.995228 
" style="fill:#85ceb7;"/>
    <path clip-path="url(#p694f153791)" d="M 473.660569 324.995228 
L 547.99324 324.995228 
L 547.99324 399.327899 
L 473.660569 399.327899 
L 473.660569 324.995228 
" style="fill:#66c2a5;"/>
    <path clip-path="url(#p694f153791)" d="M 27.664547 399.327899 
L 101.997217 399.327899 
L 101.997217 473.660569 
L 27.664547 473.660569 
L 27.664547 399.327899 
" style="fill:#a3dac9;"/>
    <path clip-path="url(#p694f153791)" d="M 101.997217 399.327899 
L 176.329887 399.327899 
L 176.329887 473.660569 
L 101.997217 473.660569 
L 101.997217 399.327899 
" style="fill:#85ceb7;"/>
    <path clip-path="url(#p694f153791)" d="M 176.329887 399.327899 
L 250.662558 399.327899 
L 250.662558 473.660569 
L 176.329887 473.660569 
L 176.329887 399.327899 
" style="fill:#e0f3ed;"/>
    <path clip-path="url(#p694f153791)" d="M 250.662558 399.327899 
L 324.995228 399.327899 
L 324.995228 473.660569 
L 250.662558 473.660569 
L 250.662558 399.327899 
" style="fill:#c2e7db;"/>
    <path clip-path="url(#p694f153791)" d="M 324.995228 399.327899 
L 399.327899 399.327899 
L 399.327899 473.660569 
L 324.995228 473.660569 
L 324.995228 399.327899 
" style="fill:#85ceb7;"/>
    <path clip-path="url(#p694f153791)" d="M 399.327899 399.327899 
L 473.660569 399.327899 
L 473.660569 473.660569 
L 399.327899 473.660569 
L 399.327899 399.327899 
" style="fill:#66c2a5;"/>
    <path clip-path="url(#p694f153791)" d="M 473.660569 399.327899 
L 547.99324 399.327899 
L 547.99324 473.660569 
L 473.660569 473.660569 
L 473.660569 399.327899 
" style="fill:#85ceb7;"/>
    <path clip-path="url(#p694f153791)" d="M 27.664547 473.660569 
L 101.997217 473.660569 
L 101.997217 547.99324 
L 27.664547 547.99324 
L 27.664547 473.660569 
" style="fill:#85ceb7;"/>
    <path clip-path="url(#p694f153791)" d="M 101.997217 473.660569 
L 176.329887 473.660569 
L 176.329887 547.99324 
L 101.997217 547.99324 
L 101.997217 473.660569 
" style="fill:#66c2a5;"/>
    <path clip-path="url(#p694f153791)" d="M 176.329887 473.660569 
L 250.662558 473.660569 
L 250.662558 547.99324 
L 176.329887 547.99324 
L 176.329887 473.660569 
" style="fill:#c2e7db;"/>
    <path clip-path="url(#p694f153791)" d="M 250.662558 473.660569 
L 324.995228 473.660569 
L 324.995228 547.99324 
L 250.662558 547.99324 
L 250.662558 473.660569 
" style="fill:#c2e7db;"/>
    <path clip-path="url(#p694f153791)" d="M 324.995228 473.660569 
L 399.327899 473.660569 
L 399.327899 547.99324 
L 324.995228 547.99324 
L 324.995228 473.660569 
" style="fill:#66c2a5;"/>
    <path clip-path="url(#p694f153791)" d="M 399.327899 473.660569 
L 473.660569 473.660569 
L 473.660569 547.99324 
L 399.327899 547.99324 
L 399.327899 473.660569 
" style="fill:#85ceb7;"/>
    <path clip-path="url(#p694f153791)" d="M 473.660569 473.660569 
L 547.99324 473.660569 
L 547.99324 547.99324 
L 473.660569 547.99324 
L 473.660569 473.660569 
" style="fill:#66c2a5;"/>
   </g>
   <g id="text_15">
    <!-- 1.0 -->
    <defs>
     <path d="M 37.25 0 
L 28.46875 0 
L 28.46875 56 
Q 25.296875 52.984375 20.140625 49.953125 
Q 14.984375 46.921875 10.890625 45.40625 
L 10.890625 53.90625 
Q 18.265625 57.375 23.78125 62.296875 
Q 29.296875 67.234375 31.59375 71.875 
L 37.25 71.875 
z
" id="ArialMT-49"/>
     <path d="M 9.078125 0 
L 9.078125 10.015625 
L 19.09375 10.015625 
L 19.09375 0 
z
" id="ArialMT-46"/>
     <path d="M 4.15625 35.296875 
Q 4.15625 48 6.765625 55.734375 
Q 9.375 63.484375 14.515625 67.671875 
Q 19.671875 71.875 27.484375 71.875 
Q 33.25 71.875 37.59375 69.546875 
Q 41.9375 67.234375 44.765625 62.859375 
Q 47.609375 58.5 49.21875 52.21875 
Q 50.828125 45.953125 50.828125 35.296875 
Q 50.828125 22.703125 48.234375 14.96875 
Q 45.65625 7.234375 40.5 3 
Q 35.359375 -1.21875 27.484375 -1.21875 
Q 17.140625 -1.21875 11.234375 6.203125 
Q 4.15625 15.140625 4.15625 35.296875 
z
M 13.1875 35.296875 
Q 13.1875 17.671875 17.3125 11.828125 
Q 21.4375 6 27.484375 6 
Q 33.546875 6 37.671875 11.859375 
Q 41.796875 17.71875 41.796875 35.296875 
Q 41.796875 52.984375 37.671875 58.78125 
Q 33.546875 64.59375 27.390625 64.59375 
Q 21.34375 64.59375 17.71875 59.46875 
Q 13.1875 52.9375 13.1875 35.296875 
z
" id="ArialMT-48"/>
    </defs>
    <g style="fill:#262626;" transform="translate(58.158882 67.312632)scale(0.096 -0.096)">
     <use xlink:href="#ArialMT-49"/>
     <use x="55.615234" xlink:href="#ArialMT-46"/>
     <use x="83.398438" xlink:href="#ArialMT-48"/>
    </g>
   </g>
   <g id="text_16">
    <!-- 0.8 -->
    <defs>
     <path d="M 17.671875 38.8125 
Q 12.203125 40.828125 9.5625 44.53125 
Q 6.9375 48.25 6.9375 53.421875 
Q 6.9375 61.234375 12.546875 66.546875 
Q 18.171875 71.875 27.484375 71.875 
Q 36.859375 71.875 42.578125 66.421875 
Q 48.296875 60.984375 48.296875 53.171875 
Q 48.296875 48.1875 45.671875 44.5 
Q 43.0625 40.828125 37.75 38.8125 
Q 44.34375 36.671875 47.78125 31.875 
Q 51.21875 27.09375 51.21875 20.453125 
Q 51.21875 11.28125 44.71875 5.03125 
Q 38.234375 -1.21875 27.640625 -1.21875 
Q 17.046875 -1.21875 10.546875 5.046875 
Q 4.046875 11.328125 4.046875 20.703125 
Q 4.046875 27.6875 7.59375 32.390625 
Q 11.140625 37.109375 17.671875 38.8125 
z
M 15.921875 53.71875 
Q 15.921875 48.640625 19.1875 45.40625 
Q 22.46875 42.1875 27.6875 42.1875 
Q 32.765625 42.1875 36.015625 45.375 
Q 39.265625 48.578125 39.265625 53.21875 
Q 39.265625 58.0625 35.90625 61.359375 
Q 32.5625 64.65625 27.59375 64.65625 
Q 22.5625 64.65625 19.234375 61.421875 
Q 15.921875 58.203125 15.921875 53.71875 
z
M 13.09375 20.65625 
Q 13.09375 16.890625 14.875 13.375 
Q 16.65625 9.859375 20.171875 7.921875 
Q 23.6875 6 27.734375 6 
Q 34.03125 6 38.125 10.046875 
Q 42.234375 14.109375 42.234375 20.359375 
Q 42.234375 26.703125 38.015625 30.859375 
Q 33.796875 35.015625 27.4375 35.015625 
Q 21.234375 35.015625 17.15625 30.90625 
Q 13.09375 26.8125 13.09375 20.65625 
z
" id="ArialMT-56"/>
    </defs>
    <g style="fill:#262626;" transform="translate(132.491552 67.312632)scale(0.096 -0.096)">
     <use xlink:href="#ArialMT-48"/>
     <use x="55.615234" xlink:href="#ArialMT-46"/>
     <use x="83.398438" xlink:href="#ArialMT-56"/>
    </g>
   </g>
   <g id="text_17">
    <!-- 0.4 -->
    <defs>
     <path d="M 32.328125 0 
L 32.328125 17.140625 
L 1.265625 17.140625 
L 1.265625 25.203125 
L 33.9375 71.578125 
L 41.109375 71.578125 
L 41.109375 25.203125 
L 50.78125 25.203125 
L 50.78125 17.140625 
L 41.109375 17.140625 
L 41.109375 0 
z
M 32.328125 25.203125 
L 32.328125 57.46875 
L 9.90625 25.203125 
z
" id="ArialMT-52"/>
    </defs>
    <g style="fill:#262626;" transform="translate(206.824223 67.312632)scale(0.096 -0.096)">
     <use xlink:href="#ArialMT-48"/>
     <use x="55.615234" xlink:href="#ArialMT-46"/>
     <use x="83.398438" xlink:href="#ArialMT-52"/>
    </g>
   </g>
   <g id="text_18">
    <!-- 0.2 -->
    <g style="fill:#262626;" transform="translate(281.156893 67.312632)scale(0.096 -0.096)">
     <use xlink:href="#ArialMT-48"/>
     <use x="55.615234" xlink:href="#ArialMT-46"/>
     <use x="83.398438" xlink:href="#ArialMT-50"/>
    </g>
   </g>
   <g id="text_19">
    <!-- 0.8 -->
    <g style="fill:#262626;" transform="translate(355.489564 67.312632)scale(0.096 -0.096)">
     <use xlink:href="#ArialMT-48"/>
     <use x="55.615234" xlink:href="#ArialMT-46"/>
     <use x="83.398438" xlink:href="#ArialMT-56"/>
    </g>
   </g>
   <g id="text_20">
    <!-- 0.6 -->
    <defs>
     <path d="M 49.75 54.046875 
L 41.015625 53.375 
Q 39.84375 58.546875 37.703125 60.890625 
Q 34.125 64.65625 28.90625 64.65625 
Q 24.703125 64.65625 21.53125 62.3125 
Q 17.390625 59.28125 14.984375 53.46875 
Q 12.59375 47.65625 12.5 36.921875 
Q 15.671875 41.75 20.265625 44.09375 
Q 24.859375 46.4375 29.890625 46.4375 
Q 38.671875 46.4375 44.84375 39.96875 
Q 51.03125 33.5 51.03125 23.25 
Q 51.03125 16.5 48.125 10.71875 
Q 45.21875 4.9375 40.140625 1.859375 
Q 35.0625 -1.21875 28.609375 -1.21875 
Q 17.625 -1.21875 10.6875 6.859375 
Q 3.765625 14.9375 3.765625 33.5 
Q 3.765625 54.25 11.421875 63.671875 
Q 18.109375 71.875 29.4375 71.875 
Q 37.890625 71.875 43.28125 67.140625 
Q 48.6875 62.40625 49.75 54.046875 
z
M 13.875 23.1875 
Q 13.875 18.65625 15.796875 14.5 
Q 17.71875 10.359375 21.1875 8.171875 
Q 24.65625 6 28.46875 6 
Q 34.03125 6 38.03125 10.484375 
Q 42.046875 14.984375 42.046875 22.703125 
Q 42.046875 30.125 38.078125 34.390625 
Q 34.125 38.671875 28.125 38.671875 
Q 22.171875 38.671875 18.015625 34.390625 
Q 13.875 30.125 13.875 23.1875 
z
" id="ArialMT-54"/>
    </defs>
    <g style="fill:#262626;" transform="translate(429.822234 67.312632)scale(0.096 -0.096)">
     <use xlink:href="#ArialMT-48"/>
     <use x="55.615234" xlink:href="#ArialMT-46"/>
     <use x="83.398438" xlink:href="#ArialMT-54"/>
    </g>
   </g>
   <g id="text_21">
    <!-- 0.8 -->
    <g style="fill:#262626;" transform="translate(504.154905 67.312632)scale(0.096 -0.096)">
     <use xlink:href="#ArialMT-48"/>
     <use x="55.615234" xlink:href="#ArialMT-46"/>
     <use x="83.398438" xlink:href="#ArialMT-56"/>
    </g>
   </g>
   <g id="text_22">
    <!-- 0.8 -->
    <g style="fill:#262626;" transform="translate(58.158882 141.645302)scale(0.096 -0.096)">
     <use xlink:href="#ArialMT-48"/>
     <use x="55.615234" xlink:href="#ArialMT-46"/>
     <use x="83.398438" xlink:href="#ArialMT-56"/>
    </g>
   </g>
   <g id="text_23">
    <!-- 1.0 -->
    <g style="fill:#262626;" transform="translate(132.491552 141.645302)scale(0.096 -0.096)">
     <use xlink:href="#ArialMT-49"/>
     <use x="55.615234" xlink:href="#ArialMT-46"/>
     <use x="83.398438" xlink:href="#ArialMT-48"/>
    </g>
   </g>
   <g id="text_24">
    <!-- 0.4 -->
    <g style="fill:#262626;" transform="translate(206.824223 141.645302)scale(0.096 -0.096)">
     <use xlink:href="#ArialMT-48"/>
     <use x="55.615234" xlink:href="#ArialMT-46"/>
     <use x="83.398438" xlink:href="#ArialMT-52"/>
    </g>
   </g>
   <g id="text_25">
    <!-- 0.4 -->
    <g style="fill:#262626;" transform="translate(281.156893 141.645302)scale(0.096 -0.096)">
     <use xlink:href="#ArialMT-48"/>
     <use x="55.615234" xlink:href="#ArialMT-46"/>
     <use x="83.398438" xlink:href="#ArialMT-52"/>
    </g>
   </g>
   <g id="text_26">
    <!-- 1.0 -->
    <g style="fill:#262626;" transform="translate(355.489564 141.645302)scale(0.096 -0.096)">
     <use xlink:href="#ArialMT-49"/>
     <use x="55.615234" xlink:href="#ArialMT-46"/>
     <use x="83.398438" xlink:href="#ArialMT-48"/>
    </g>
   </g>
   <g id="text_27">
    <!-- 0.8 -->
    <g style="fill:#262626;" transform="translate(429.822234 141.645302)scale(0.096 -0.096)">
     <use xlink:href="#ArialMT-48"/>
     <use x="55.615234" xlink:href="#ArialMT-46"/>
     <use x="83.398438" xlink:href="#ArialMT-56"/>
    </g>
   </g>
   <g id="text_28">
    <!-- 1.0 -->
    <g style="fill:#262626;" transform="translate(504.154905 141.645302)scale(0.096 -0.096)">
     <use xlink:href="#ArialMT-49"/>
     <use x="55.615234" xlink:href="#ArialMT-46"/>
     <use x="83.398438" xlink:href="#ArialMT-48"/>
    </g>
   </g>
   <g id="text_29">
    <!-- 0.4 -->
    <g style="fill:#262626;" transform="translate(58.158882 215.977973)scale(0.096 -0.096)">
     <use xlink:href="#ArialMT-48"/>
     <use x="55.615234" xlink:href="#ArialMT-46"/>
     <use x="83.398438" xlink:href="#ArialMT-52"/>
    </g>
   </g>
   <g id="text_30">
    <!-- 0.4 -->
    <g style="fill:#262626;" transform="translate(132.491552 215.977973)scale(0.096 -0.096)">
     <use xlink:href="#ArialMT-48"/>
     <use x="55.615234" xlink:href="#ArialMT-46"/>
     <use x="83.398438" xlink:href="#ArialMT-52"/>
    </g>
   </g>
   <g id="text_31">
    <!-- 1.0 -->
    <g style="fill:#262626;" transform="translate(206.824223 215.977973)scale(0.096 -0.096)">
     <use xlink:href="#ArialMT-49"/>
     <use x="55.615234" xlink:href="#ArialMT-46"/>
     <use x="83.398438" xlink:href="#ArialMT-48"/>
    </g>
   </g>
   <g id="text_32">
    <!-- 0.0 -->
    <g style="fill:#262626;" transform="translate(281.156893 215.977973)scale(0.096 -0.096)">
     <use xlink:href="#ArialMT-48"/>
     <use x="55.615234" xlink:href="#ArialMT-46"/>
     <use x="83.398438" xlink:href="#ArialMT-48"/>
    </g>
   </g>
   <g id="text_33">
    <!-- 0.4 -->
    <g style="fill:#262626;" transform="translate(355.489564 215.977973)scale(0.096 -0.096)">
     <use xlink:href="#ArialMT-48"/>
     <use x="55.615234" xlink:href="#ArialMT-46"/>
     <use x="83.398438" xlink:href="#ArialMT-52"/>
    </g>
   </g>
   <g id="text_34">
    <!-- 0.2 -->
    <g style="fill:#262626;" transform="translate(429.822234 215.977973)scale(0.096 -0.096)">
     <use xlink:href="#ArialMT-48"/>
     <use x="55.615234" xlink:href="#ArialMT-46"/>
     <use x="83.398438" xlink:href="#ArialMT-50"/>
    </g>
   </g>
   <g id="text_35">
    <!-- 0.4 -->
    <g style="fill:#262626;" transform="translate(504.154905 215.977973)scale(0.096 -0.096)">
     <use xlink:href="#ArialMT-48"/>
     <use x="55.615234" xlink:href="#ArialMT-46"/>
     <use x="83.398438" xlink:href="#ArialMT-52"/>
    </g>
   </g>
   <g id="text_36">
    <!-- 0.2 -->
    <g style="fill:#262626;" transform="translate(58.158882 290.310643)scale(0.096 -0.096)">
     <use xlink:href="#ArialMT-48"/>
     <use x="55.615234" xlink:href="#ArialMT-46"/>
     <use x="83.398438" xlink:href="#ArialMT-50"/>
    </g>
   </g>
   <g id="text_37">
    <!-- 0.4 -->
    <g style="fill:#262626;" transform="translate(132.491552 290.310643)scale(0.096 -0.096)">
     <use xlink:href="#ArialMT-48"/>
     <use x="55.615234" xlink:href="#ArialMT-46"/>
     <use x="83.398438" xlink:href="#ArialMT-52"/>
    </g>
   </g>
   <g id="text_38">
    <!-- 0.0 -->
    <g style="fill:#262626;" transform="translate(206.824223 290.310643)scale(0.096 -0.096)">
     <use xlink:href="#ArialMT-48"/>
     <use x="55.615234" xlink:href="#ArialMT-46"/>
     <use x="83.398438" xlink:href="#ArialMT-48"/>
    </g>
   </g>
   <g id="text_39">
    <!-- 1.0 -->
    <g style="fill:#262626;" transform="translate(281.156893 290.310643)scale(0.096 -0.096)">
     <use xlink:href="#ArialMT-49"/>
     <use x="55.615234" xlink:href="#ArialMT-46"/>
     <use x="83.398438" xlink:href="#ArialMT-48"/>
    </g>
   </g>
   <g id="text_40">
    <!-- 0.4 -->
    <g style="fill:#262626;" transform="translate(355.489564 290.310643)scale(0.096 -0.096)">
     <use xlink:href="#ArialMT-48"/>
     <use x="55.615234" xlink:href="#ArialMT-46"/>
     <use x="83.398438" xlink:href="#ArialMT-52"/>
    </g>
   </g>
   <g id="text_41">
    <!-- 0.4 -->
    <g style="fill:#262626;" transform="translate(429.822234 290.310643)scale(0.096 -0.096)">
     <use xlink:href="#ArialMT-48"/>
     <use x="55.615234" xlink:href="#ArialMT-46"/>
     <use x="83.398438" xlink:href="#ArialMT-52"/>
    </g>
   </g>
   <g id="text_42">
    <!-- 0.4 -->
    <g style="fill:#262626;" transform="translate(504.154905 290.310643)scale(0.096 -0.096)">
     <use xlink:href="#ArialMT-48"/>
     <use x="55.615234" xlink:href="#ArialMT-46"/>
     <use x="83.398438" xlink:href="#ArialMT-52"/>
    </g>
   </g>
   <g id="text_43">
    <!-- 0.8 -->
    <g style="fill:#262626;" transform="translate(58.158882 364.643314)scale(0.096 -0.096)">
     <use xlink:href="#ArialMT-48"/>
     <use x="55.615234" xlink:href="#ArialMT-46"/>
     <use x="83.398438" xlink:href="#ArialMT-56"/>
    </g>
   </g>
   <g id="text_44">
    <!-- 1.0 -->
    <g style="fill:#262626;" transform="translate(132.491552 364.643314)scale(0.096 -0.096)">
     <use xlink:href="#ArialMT-49"/>
     <use x="55.615234" xlink:href="#ArialMT-46"/>
     <use x="83.398438" xlink:href="#ArialMT-48"/>
    </g>
   </g>
   <g id="text_45">
    <!-- 0.4 -->
    <g style="fill:#262626;" transform="translate(206.824223 364.643314)scale(0.096 -0.096)">
     <use xlink:href="#ArialMT-48"/>
     <use x="55.615234" xlink:href="#ArialMT-46"/>
     <use x="83.398438" xlink:href="#ArialMT-52"/>
    </g>
   </g>
   <g id="text_46">
    <!-- 0.4 -->
    <g style="fill:#262626;" transform="translate(281.156893 364.643314)scale(0.096 -0.096)">
     <use xlink:href="#ArialMT-48"/>
     <use x="55.615234" xlink:href="#ArialMT-46"/>
     <use x="83.398438" xlink:href="#ArialMT-52"/>
    </g>
   </g>
   <g id="text_47">
    <!-- 1.0 -->
    <g style="fill:#262626;" transform="translate(355.489564 364.643314)scale(0.096 -0.096)">
     <use xlink:href="#ArialMT-49"/>
     <use x="55.615234" xlink:href="#ArialMT-46"/>
     <use x="83.398438" xlink:href="#ArialMT-48"/>
    </g>
   </g>
   <g id="text_48">
    <!-- 0.8 -->
    <g style="fill:#262626;" transform="translate(429.822234 364.643314)scale(0.096 -0.096)">
     <use xlink:href="#ArialMT-48"/>
     <use x="55.615234" xlink:href="#ArialMT-46"/>
     <use x="83.398438" xlink:href="#ArialMT-56"/>
    </g>
   </g>
   <g id="text_49">
    <!-- 1.0 -->
    <g style="fill:#262626;" transform="translate(504.154905 364.643314)scale(0.096 -0.096)">
     <use xlink:href="#ArialMT-49"/>
     <use x="55.615234" xlink:href="#ArialMT-46"/>
     <use x="83.398438" xlink:href="#ArialMT-48"/>
    </g>
   </g>
   <g id="text_50">
    <!-- 0.6 -->
    <g style="fill:#262626;" transform="translate(58.158882 438.975984)scale(0.096 -0.096)">
     <use xlink:href="#ArialMT-48"/>
     <use x="55.615234" xlink:href="#ArialMT-46"/>
     <use x="83.398438" xlink:href="#ArialMT-54"/>
    </g>
   </g>
   <g id="text_51">
    <!-- 0.8 -->
    <g style="fill:#262626;" transform="translate(132.491552 438.975984)scale(0.096 -0.096)">
     <use xlink:href="#ArialMT-48"/>
     <use x="55.615234" xlink:href="#ArialMT-46"/>
     <use x="83.398438" xlink:href="#ArialMT-56"/>
    </g>
   </g>
   <g id="text_52">
    <!-- 0.2 -->
    <g style="fill:#262626;" transform="translate(206.824223 438.975984)scale(0.096 -0.096)">
     <use xlink:href="#ArialMT-48"/>
     <use x="55.615234" xlink:href="#ArialMT-46"/>
     <use x="83.398438" xlink:href="#ArialMT-50"/>
    </g>
   </g>
   <g id="text_53">
    <!-- 0.4 -->
    <g style="fill:#262626;" transform="translate(281.156893 438.975984)scale(0.096 -0.096)">
     <use xlink:href="#ArialMT-48"/>
     <use x="55.615234" xlink:href="#ArialMT-46"/>
     <use x="83.398438" xlink:href="#ArialMT-52"/>
    </g>
   </g>
   <g id="text_54">
    <!-- 0.8 -->
    <g style="fill:#262626;" transform="translate(355.489564 438.975984)scale(0.096 -0.096)">
     <use xlink:href="#ArialMT-48"/>
     <use x="55.615234" xlink:href="#ArialMT-46"/>
     <use x="83.398438" xlink:href="#ArialMT-56"/>
    </g>
   </g>
   <g id="text_55">
    <!-- 1.0 -->
    <g style="fill:#262626;" transform="translate(429.822234 438.975984)scale(0.096 -0.096)">
     <use xlink:href="#ArialMT-49"/>
     <use x="55.615234" xlink:href="#ArialMT-46"/>
     <use x="83.398438" xlink:href="#ArialMT-48"/>
    </g>
   </g>
   <g id="text_56">
    <!-- 0.8 -->
    <g style="fill:#262626;" transform="translate(504.154905 438.975984)scale(0.096 -0.096)">
     <use xlink:href="#ArialMT-48"/>
     <use x="55.615234" xlink:href="#ArialMT-46"/>
     <use x="83.398438" xlink:href="#ArialMT-56"/>
    </g>
   </g>
   <g id="text_57">
    <!-- 0.8 -->
    <g style="fill:#262626;" transform="translate(58.158882 513.308655)scale(0.096 -0.096)">
     <use xlink:href="#ArialMT-48"/>
     <use x="55.615234" xlink:href="#ArialMT-46"/>
     <use x="83.398438" xlink:href="#ArialMT-56"/>
    </g>
   </g>
   <g id="text_58">
    <!-- 1.0 -->
    <g style="fill:#262626;" transform="translate(132.491552 513.308655)scale(0.096 -0.096)">
     <use xlink:href="#ArialMT-49"/>
     <use x="55.615234" xlink:href="#ArialMT-46"/>
     <use x="83.398438" xlink:href="#ArialMT-48"/>
    </g>
   </g>
   <g id="text_59">
    <!-- 0.4 -->
    <g style="fill:#262626;" transform="translate(206.824223 513.308655)scale(0.096 -0.096)">
     <use xlink:href="#ArialMT-48"/>
     <use x="55.615234" xlink:href="#ArialMT-46"/>
     <use x="83.398438" xlink:href="#ArialMT-52"/>
    </g>
   </g>
   <g id="text_60">
    <!-- 0.4 -->
    <g style="fill:#262626;" transform="translate(281.156893 513.308655)scale(0.096 -0.096)">
     <use xlink:href="#ArialMT-48"/>
     <use x="55.615234" xlink:href="#ArialMT-46"/>
     <use x="83.398438" xlink:href="#ArialMT-52"/>
    </g>
   </g>
   <g id="text_61">
    <!-- 1.0 -->
    <g style="fill:#262626;" transform="translate(355.489564 513.308655)scale(0.096 -0.096)">
     <use xlink:href="#ArialMT-49"/>
     <use x="55.615234" xlink:href="#ArialMT-46"/>
     <use x="83.398438" xlink:href="#ArialMT-48"/>
    </g>
   </g>
   <g id="text_62">
    <!-- 0.8 -->
    <g style="fill:#262626;" transform="translate(429.822234 513.308655)scale(0.096 -0.096)">
     <use xlink:href="#ArialMT-48"/>
     <use x="55.615234" xlink:href="#ArialMT-46"/>
     <use x="83.398438" xlink:href="#ArialMT-56"/>
    </g>
   </g>
   <g id="text_63">
    <!-- 1.0 -->
    <g style="fill:#262626;" transform="translate(504.154905 513.308655)scale(0.096 -0.096)">
     <use xlink:href="#ArialMT-49"/>
     <use x="55.615234" xlink:href="#ArialMT-46"/>
     <use x="83.398438" xlink:href="#ArialMT-48"/>
    </g>
   </g>
  </g>
 </g>
 <defs>
  <clipPath id="p5c210d7c6c">
   <rect height="520.328693" width="20.272547" x="7.2" y="27.664546"/>
  </clipPath>
  <clipPath id="pa3929fc445">
   <rect height="20.272546" width="520.328693" x="27.664547" y="7.2"/>
  </clipPath>
  <clipPath id="p694f153791">
   <rect height="520.328693" width="520.328693" x="27.664547" y="27.664546"/>
  </clipPath>
 </defs>
</svg>
