<?xml version="1.0" encoding="utf-8" standalone="no"?>
<!DOCTYPE svg PUBLIC "-//W3C//DTD SVG 1.1//EN"
  "http://www.w3.org/Graphics/SVG/1.1/DTD/svg11.dtd">
<!-- Created with matplotlib (https://matplotlib.org/) -->
<svg height="601.85949pt" version="1.1" viewBox="0 0 601.85949 601.85949" width="601.85949pt" xmlns="http://www.w3.org/2000/svg" xmlns:xlink="http://www.w3.org/1999/xlink">
 <defs>
  <style type="text/css">
*{stroke-linecap:butt;stroke-linejoin:round;}
  </style>
 </defs>
 <g id="figure_1">
  <g id="patch_1">
   <path d="M 0 601.85949 
L 601.85949 601.85949 
L 601.85949 0 
L 0 0 
z
" style="fill:#ffffff;"/>
  </g>
  <g id="axes_1">
   <g id="patch_2">
    <path d="M 7.2 547.99324 
L 27.472547 547.99324 
L 27.472547 27.664547 
L 7.2 27.664547 
z
" style="fill:#ffffff;"/>
   </g>
   <g id="matplotlib.axis_1"/>
   <g id="matplotlib.axis_2"/>
   <g id="QuadMesh_1">
    <path clip-path="url(#p9d8bb5f743)" d="M 7.2 27.664547 
L 27.472547 27.664547 
L 27.472547 157.74672 
L 7.2 157.74672 
L 7.2 27.664547 
" style="fill:#3783bb;"/>
    <path clip-path="url(#p9d8bb5f743)" d="M 7.2 157.74672 
L 27.472547 157.74672 
L 27.472547 287.828893 
L 7.2 287.828893 
L 7.2 157.74672 
" style="fill:#3783bb;"/>
    <path clip-path="url(#p9d8bb5f743)" d="M 7.2 287.828893 
L 27.472547 287.828893 
L 27.472547 417.911067 
L 7.2 417.911067 
L 7.2 287.828893 
" style="fill:#3783bb;"/>
    <path clip-path="url(#p9d8bb5f743)" d="M 7.2 417.911067 
L 27.472547 417.911067 
L 27.472547 547.99324 
L 7.2 547.99324 
L 7.2 417.911067 
" style="fill:#c94741;"/>
   </g>
  </g>
  <g id="axes_2">
   <g id="patch_3">
    <path d="M 27.664547 27.472547 
L 547.99324 27.472547 
L 547.99324 7.2 
L 27.664547 7.2 
z
" style="fill:#ffffff;"/>
   </g>
   <g id="matplotlib.axis_3"/>
   <g id="matplotlib.axis_4"/>
   <g id="QuadMesh_2">
    <path clip-path="url(#p895d21fdb3)" d="M 27.664547 7.2 
L 157.74672 7.2 
L 157.74672 27.472547 
L 27.664547 27.472547 
L 27.664547 7.2 
" style="fill:#3783bb;"/>
    <path clip-path="url(#p895d21fdb3)" d="M 157.74672 7.2 
L 287.828893 7.2 
L 287.828893 27.472547 
L 157.74672 27.472547 
L 157.74672 7.2 
" style="fill:#3783bb;"/>
    <path clip-path="url(#p895d21fdb3)" d="M 287.828893 7.2 
L 417.911067 7.2 
L 417.911067 27.472547 
L 287.828893 27.472547 
L 287.828893 7.2 
" style="fill:#3783bb;"/>
    <path clip-path="url(#p895d21fdb3)" d="M 417.911067 7.2 
L 547.99324 7.2 
L 547.99324 27.472547 
L 417.911067 27.472547 
L 417.911067 7.2 
" style="fill:#c94741;"/>
   </g>
  </g>
  <g id="axes_3">
   <g id="patch_4">
    <path d="M 27.664547 547.99324 
L 547.99324 547.99324 
L 547.99324 27.664547 
L 27.664547 27.664547 
z
" style="fill:#ffffff;"/>
   </g>
   <g id="matplotlib.axis_5">
    <g id="xtick_1">
     <g id="line2d_1">
      <defs>
       <path d="M 0 0 
L 0 6 
" id="m30891988d5" style="stroke:#262626;stroke-width:1.25;"/>
      </defs>
      <g>
       <use style="fill:#262626;stroke:#262626;stroke-width:1.25;" x="92.705633" xlink:href="#m30891988d5" y="547.99324"/>
      </g>
     </g>
     <g id="text_1">
      <!-- Ammonia -->
      <defs>
       <path d="M -0.140625 0 
L 27.34375 71.578125 
L 37.546875 71.578125 
L 66.84375 0 
L 56.0625 0 
L 47.703125 21.6875 
L 17.78125 21.6875 
L 9.90625 0 
z
M 20.515625 29.390625 
L 44.78125 29.390625 
L 37.3125 49.21875 
Q 33.890625 58.25 32.234375 64.0625 
Q 30.859375 57.171875 28.375 50.390625 
z
" id="ArialMT-65"/>
       <path d="M 6.59375 0 
L 6.59375 51.859375 
L 14.453125 51.859375 
L 14.453125 44.578125 
Q 16.890625 48.390625 20.9375 50.703125 
Q 25 53.03125 30.171875 53.03125 
Q 35.9375 53.03125 39.625 50.640625 
Q 43.3125 48.25 44.828125 43.953125 
Q 50.984375 53.03125 60.84375 53.03125 
Q 68.5625 53.03125 72.703125 48.75 
Q 76.859375 44.484375 76.859375 35.59375 
L 76.859375 0 
L 68.109375 0 
L 68.109375 32.671875 
Q 68.109375 37.9375 67.25 40.25 
Q 66.40625 42.578125 64.15625 43.984375 
Q 61.921875 45.40625 58.890625 45.40625 
Q 53.421875 45.40625 49.796875 41.765625 
Q 46.1875 38.140625 46.1875 30.125 
L 46.1875 0 
L 37.40625 0 
L 37.40625 33.6875 
Q 37.40625 39.546875 35.25 42.46875 
Q 33.109375 45.40625 28.21875 45.40625 
Q 24.515625 45.40625 21.359375 43.453125 
Q 18.21875 41.5 16.796875 37.734375 
Q 15.375 33.984375 15.375 26.90625 
L 15.375 0 
z
" id="ArialMT-109"/>
       <path d="M 3.328125 25.921875 
Q 3.328125 40.328125 11.328125 47.265625 
Q 18.015625 53.03125 27.640625 53.03125 
Q 38.328125 53.03125 45.109375 46.015625 
Q 51.90625 39.015625 51.90625 26.65625 
Q 51.90625 16.65625 48.90625 10.90625 
Q 45.90625 5.171875 40.15625 2 
Q 34.421875 -1.171875 27.640625 -1.171875 
Q 16.75 -1.171875 10.03125 5.8125 
Q 3.328125 12.796875 3.328125 25.921875 
z
M 12.359375 25.921875 
Q 12.359375 15.96875 16.703125 11.015625 
Q 21.046875 6.0625 27.640625 6.0625 
Q 34.1875 6.0625 38.53125 11.03125 
Q 42.875 16.015625 42.875 26.21875 
Q 42.875 35.84375 38.5 40.796875 
Q 34.125 45.75 27.640625 45.75 
Q 21.046875 45.75 16.703125 40.8125 
Q 12.359375 35.890625 12.359375 25.921875 
z
" id="ArialMT-111"/>
       <path d="M 6.59375 0 
L 6.59375 51.859375 
L 14.5 51.859375 
L 14.5 44.484375 
Q 20.21875 53.03125 31 53.03125 
Q 35.6875 53.03125 39.625 51.34375 
Q 43.5625 49.65625 45.515625 46.921875 
Q 47.46875 44.1875 48.25 40.4375 
Q 48.734375 37.984375 48.734375 31.890625 
L 48.734375 0 
L 39.9375 0 
L 39.9375 31.546875 
Q 39.9375 36.921875 38.90625 39.578125 
Q 37.890625 42.234375 35.28125 43.8125 
Q 32.671875 45.40625 29.15625 45.40625 
Q 23.53125 45.40625 19.453125 41.84375 
Q 15.375 38.28125 15.375 28.328125 
L 15.375 0 
z
" id="ArialMT-110"/>
       <path d="M 6.640625 61.46875 
L 6.640625 71.578125 
L 15.4375 71.578125 
L 15.4375 61.46875 
z
M 6.640625 0 
L 6.640625 51.859375 
L 15.4375 51.859375 
L 15.4375 0 
z
" id="ArialMT-105"/>
       <path d="M 40.4375 6.390625 
Q 35.546875 2.25 31.03125 0.53125 
Q 26.515625 -1.171875 21.34375 -1.171875 
Q 12.796875 -1.171875 8.203125 3 
Q 3.609375 7.171875 3.609375 13.671875 
Q 3.609375 17.484375 5.34375 20.625 
Q 7.078125 23.78125 9.890625 25.6875 
Q 12.703125 27.59375 16.21875 28.5625 
Q 18.796875 29.25 24.03125 29.890625 
Q 34.671875 31.15625 39.703125 32.90625 
Q 39.75 34.71875 39.75 35.203125 
Q 39.75 40.578125 37.25 42.78125 
Q 33.890625 45.75 27.25 45.75 
Q 21.046875 45.75 18.09375 43.578125 
Q 15.140625 41.40625 13.71875 35.890625 
L 5.125 37.0625 
Q 6.296875 42.578125 8.984375 45.96875 
Q 11.671875 49.359375 16.75 51.1875 
Q 21.828125 53.03125 28.515625 53.03125 
Q 35.15625 53.03125 39.296875 51.46875 
Q 43.453125 49.90625 45.40625 47.53125 
Q 47.359375 45.171875 48.140625 41.546875 
Q 48.578125 39.3125 48.578125 33.453125 
L 48.578125 21.734375 
Q 48.578125 9.46875 49.140625 6.21875 
Q 49.703125 2.984375 51.375 0 
L 42.1875 0 
Q 40.828125 2.734375 40.4375 6.390625 
z
M 39.703125 26.03125 
Q 34.90625 24.078125 25.34375 22.703125 
Q 19.921875 21.921875 17.671875 20.9375 
Q 15.4375 19.96875 14.203125 18.09375 
Q 12.984375 16.21875 12.984375 13.921875 
Q 12.984375 10.40625 15.640625 8.0625 
Q 18.3125 5.71875 23.4375 5.71875 
Q 28.515625 5.71875 32.46875 7.9375 
Q 36.421875 10.15625 38.28125 14.015625 
Q 39.703125 17 39.703125 22.796875 
z
" id="ArialMT-97"/>
      </defs>
      <g style="fill:#262626;" transform="translate(94.980571 594.65949)rotate(-90)scale(0.088 -0.088)">
       <use xlink:href="#ArialMT-65"/>
       <use x="66.699219" xlink:href="#ArialMT-109"/>
       <use x="150" xlink:href="#ArialMT-109"/>
       <use x="233.300781" xlink:href="#ArialMT-111"/>
       <use x="288.916016" xlink:href="#ArialMT-110"/>
       <use x="344.53125" xlink:href="#ArialMT-105"/>
       <use x="366.748047" xlink:href="#ArialMT-97"/>
      </g>
     </g>
    </g>
    <g id="xtick_2">
     <g id="line2d_2">
      <g>
       <use style="fill:#262626;stroke:#262626;stroke-width:1.25;" x="222.787807" xlink:href="#m30891988d5" y="547.99324"/>
      </g>
     </g>
     <g id="text_2">
      <!-- CO$_2$ -->
      <defs>
       <path d="M 58.796875 25.09375 
L 68.265625 22.703125 
Q 65.28125 11.03125 57.546875 4.90625 
Q 49.8125 -1.21875 38.625 -1.21875 
Q 27.046875 -1.21875 19.796875 3.484375 
Q 12.546875 8.203125 8.765625 17.140625 
Q 4.984375 26.078125 4.984375 36.328125 
Q 4.984375 47.515625 9.25 55.828125 
Q 13.53125 64.15625 21.40625 68.46875 
Q 29.296875 72.796875 38.765625 72.796875 
Q 49.515625 72.796875 56.828125 67.328125 
Q 64.15625 61.859375 67.046875 51.953125 
L 57.71875 49.75 
Q 55.21875 57.5625 50.484375 61.125 
Q 45.75 64.703125 38.578125 64.703125 
Q 30.328125 64.703125 24.78125 60.734375 
Q 19.234375 56.78125 16.984375 50.109375 
Q 14.75 43.453125 14.75 36.375 
Q 14.75 27.25 17.40625 20.4375 
Q 20.0625 13.625 25.671875 10.25 
Q 31.296875 6.890625 37.84375 6.890625 
Q 45.796875 6.890625 51.3125 11.46875 
Q 56.84375 16.0625 58.796875 25.09375 
z
" id="ArialMT-67"/>
       <path d="M 4.828125 34.859375 
Q 4.828125 52.6875 14.390625 62.765625 
Q 23.96875 72.859375 39.109375 72.859375 
Q 49.03125 72.859375 56.984375 68.109375 
Q 64.9375 63.375 69.109375 54.90625 
Q 73.296875 46.4375 73.296875 35.6875 
Q 73.296875 24.8125 68.890625 16.21875 
Q 64.5 7.625 56.4375 3.203125 
Q 48.390625 -1.21875 39.0625 -1.21875 
Q 28.953125 -1.21875 20.984375 3.65625 
Q 13.03125 8.546875 8.921875 16.984375 
Q 4.828125 25.4375 4.828125 34.859375 
z
M 14.59375 34.71875 
Q 14.59375 21.78125 21.546875 14.328125 
Q 28.515625 6.890625 39.015625 6.890625 
Q 49.703125 6.890625 56.609375 14.40625 
Q 63.53125 21.921875 63.53125 35.75 
Q 63.53125 44.484375 60.578125 51 
Q 57.625 57.515625 51.921875 61.109375 
Q 46.234375 64.703125 39.15625 64.703125 
Q 29.109375 64.703125 21.84375 57.78125 
Q 14.59375 50.875 14.59375 34.71875 
z
" id="ArialMT-79"/>
       <path d="M 50.34375 8.453125 
L 50.34375 0 
L 3.03125 0 
Q 2.9375 3.171875 4.046875 6.109375 
Q 5.859375 10.9375 9.828125 15.625 
Q 13.8125 20.3125 21.34375 26.46875 
Q 33.015625 36.03125 37.109375 41.625 
Q 41.21875 47.21875 41.21875 52.203125 
Q 41.21875 57.421875 37.46875 61 
Q 33.734375 64.59375 27.734375 64.59375 
Q 21.390625 64.59375 17.578125 60.78125 
Q 13.765625 56.984375 13.71875 50.25 
L 4.6875 51.171875 
Q 5.609375 61.28125 11.65625 66.578125 
Q 17.71875 71.875 27.9375 71.875 
Q 38.234375 71.875 44.234375 66.15625 
Q 50.25 60.453125 50.25 52 
Q 50.25 47.703125 48.484375 43.546875 
Q 46.734375 39.40625 42.65625 34.8125 
Q 38.578125 30.21875 29.109375 22.21875 
Q 21.1875 15.578125 18.9375 13.203125 
Q 16.703125 10.84375 15.234375 8.453125 
z
" id="ArialMT-50"/>
      </defs>
      <g style="fill:#262626;" transform="translate(224.679807 574.74124)rotate(-90)scale(0.088 -0.088)">
       <use transform="translate(0 0.140625)" xlink:href="#ArialMT-67"/>
       <use transform="translate(72.216797 0.140625)" xlink:href="#ArialMT-79"/>
       <use transform="translate(151.742344 -29.728125)scale(0.7)" xlink:href="#ArialMT-50"/>
      </g>
     </g>
    </g>
    <g id="xtick_3">
     <g id="line2d_3">
      <g>
       <use style="fill:#262626;stroke:#262626;stroke-width:1.25;" x="352.86998" xlink:href="#m30891988d5" y="547.99324"/>
      </g>
     </g>
     <g id="text_3">
      <!-- Light -->
      <defs>
       <path d="M 7.328125 0 
L 7.328125 71.578125 
L 16.796875 71.578125 
L 16.796875 8.453125 
L 52.046875 8.453125 
L 52.046875 0 
z
" id="ArialMT-76"/>
       <path d="M 4.984375 -4.296875 
L 13.53125 -5.5625 
Q 14.0625 -9.515625 16.5 -11.328125 
Q 19.78125 -13.765625 25.4375 -13.765625 
Q 31.546875 -13.765625 34.859375 -11.328125 
Q 38.1875 -8.890625 39.359375 -4.5 
Q 40.046875 -1.8125 39.984375 6.78125 
Q 34.234375 0 25.640625 0 
Q 14.9375 0 9.078125 7.71875 
Q 3.21875 15.4375 3.21875 26.21875 
Q 3.21875 33.640625 5.90625 39.90625 
Q 8.59375 46.1875 13.6875 49.609375 
Q 18.796875 53.03125 25.6875 53.03125 
Q 34.859375 53.03125 40.828125 45.609375 
L 40.828125 51.859375 
L 48.921875 51.859375 
L 48.921875 7.03125 
Q 48.921875 -5.078125 46.453125 -10.125 
Q 44 -15.1875 38.640625 -18.109375 
Q 33.296875 -21.046875 25.484375 -21.046875 
Q 16.21875 -21.046875 10.5 -16.875 
Q 4.78125 -12.703125 4.984375 -4.296875 
z
M 12.25 26.859375 
Q 12.25 16.65625 16.296875 11.96875 
Q 20.359375 7.28125 26.46875 7.28125 
Q 32.515625 7.28125 36.609375 11.9375 
Q 40.71875 16.609375 40.71875 26.5625 
Q 40.71875 36.078125 36.5 40.90625 
Q 32.28125 45.75 26.3125 45.75 
Q 20.453125 45.75 16.34375 40.984375 
Q 12.25 36.234375 12.25 26.859375 
z
" id="ArialMT-103"/>
       <path d="M 6.59375 0 
L 6.59375 71.578125 
L 15.375 71.578125 
L 15.375 45.90625 
Q 21.53125 53.03125 30.90625 53.03125 
Q 36.671875 53.03125 40.921875 50.75 
Q 45.171875 48.484375 47 44.484375 
Q 48.828125 40.484375 48.828125 32.859375 
L 48.828125 0 
L 40.046875 0 
L 40.046875 32.859375 
Q 40.046875 39.453125 37.1875 42.453125 
Q 34.328125 45.453125 29.109375 45.453125 
Q 25.203125 45.453125 21.75 43.421875 
Q 18.3125 41.40625 16.84375 37.9375 
Q 15.375 34.46875 15.375 28.375 
L 15.375 0 
z
" id="ArialMT-104"/>
       <path d="M 25.78125 7.859375 
L 27.046875 0.09375 
Q 23.34375 -0.6875 20.40625 -0.6875 
Q 15.625 -0.6875 12.984375 0.828125 
Q 10.359375 2.34375 9.28125 4.8125 
Q 8.203125 7.28125 8.203125 15.1875 
L 8.203125 45.015625 
L 1.765625 45.015625 
L 1.765625 51.859375 
L 8.203125 51.859375 
L 8.203125 64.703125 
L 16.9375 69.96875 
L 16.9375 51.859375 
L 25.78125 51.859375 
L 25.78125 45.015625 
L 16.9375 45.015625 
L 16.9375 14.703125 
Q 16.9375 10.9375 17.40625 9.859375 
Q 17.875 8.796875 18.921875 8.15625 
Q 19.96875 7.515625 21.921875 7.515625 
Q 23.390625 7.515625 25.78125 7.859375 
z
" id="ArialMT-116"/>
      </defs>
      <g style="fill:#262626;" transform="translate(355.093355 576.574115)rotate(-90)scale(0.088 -0.088)">
       <use xlink:href="#ArialMT-76"/>
       <use x="55.615234" xlink:href="#ArialMT-105"/>
       <use x="77.832031" xlink:href="#ArialMT-103"/>
       <use x="133.447266" xlink:href="#ArialMT-104"/>
       <use x="189.0625" xlink:href="#ArialMT-116"/>
      </g>
     </g>
    </g>
    <g id="xtick_4">
     <g id="line2d_4">
      <g>
       <use style="fill:#262626;stroke:#262626;stroke-width:1.25;" x="482.952153" xlink:href="#m30891988d5" y="547.99324"/>
      </g>
     </g>
     <g id="text_4">
      <!-- Oxygen -->
      <defs>
       <path d="M 0.734375 0 
L 19.671875 26.953125 
L 2.15625 51.859375 
L 13.140625 51.859375 
L 21.09375 39.703125 
Q 23.34375 36.234375 24.703125 33.890625 
Q 26.859375 37.109375 28.65625 39.59375 
L 37.40625 51.859375 
L 47.90625 51.859375 
L 29.984375 27.4375 
L 49.265625 0 
L 38.484375 0 
L 27.828125 16.109375 
L 25 20.453125 
L 11.375 0 
z
" id="ArialMT-120"/>
       <path d="M 6.203125 -19.96875 
L 5.21875 -11.71875 
Q 8.109375 -12.5 10.25 -12.5 
Q 13.1875 -12.5 14.9375 -11.515625 
Q 16.703125 -10.546875 17.828125 -8.796875 
Q 18.65625 -7.46875 20.515625 -2.25 
Q 20.75 -1.515625 21.296875 -0.09375 
L 1.609375 51.859375 
L 11.078125 51.859375 
L 21.875 21.828125 
Q 23.96875 16.109375 25.640625 9.8125 
Q 27.15625 15.875 29.25 21.625 
L 40.328125 51.859375 
L 49.125 51.859375 
L 29.390625 -0.875 
Q 26.21875 -9.421875 24.46875 -12.640625 
Q 22.125 -17 19.09375 -19.015625 
Q 16.0625 -21.046875 11.859375 -21.046875 
Q 9.328125 -21.046875 6.203125 -19.96875 
z
" id="ArialMT-121"/>
       <path d="M 42.09375 16.703125 
L 51.171875 15.578125 
Q 49.03125 7.625 43.21875 3.21875 
Q 37.40625 -1.171875 28.375 -1.171875 
Q 17 -1.171875 10.328125 5.828125 
Q 3.65625 12.84375 3.65625 25.484375 
Q 3.65625 38.578125 10.390625 45.796875 
Q 17.140625 53.03125 27.875 53.03125 
Q 38.28125 53.03125 44.875 45.953125 
Q 51.46875 38.875 51.46875 26.03125 
Q 51.46875 25.25 51.421875 23.6875 
L 12.75 23.6875 
Q 13.234375 15.140625 17.578125 10.59375 
Q 21.921875 6.0625 28.421875 6.0625 
Q 33.25 6.0625 36.671875 8.59375 
Q 40.09375 11.140625 42.09375 16.703125 
z
M 13.234375 30.90625 
L 42.1875 30.90625 
Q 41.609375 37.453125 38.875 40.71875 
Q 34.671875 45.796875 27.984375 45.796875 
Q 21.921875 45.796875 17.796875 41.75 
Q 13.671875 37.703125 13.234375 30.90625 
z
" id="ArialMT-101"/>
      </defs>
      <g style="fill:#262626;" transform="translate(485.231903 587.818865)rotate(-90)scale(0.088 -0.088)">
       <use xlink:href="#ArialMT-79"/>
       <use x="77.783203" xlink:href="#ArialMT-120"/>
       <use x="127.783203" xlink:href="#ArialMT-121"/>
       <use x="177.783203" xlink:href="#ArialMT-103"/>
       <use x="233.398438" xlink:href="#ArialMT-101"/>
       <use x="289.013672" xlink:href="#ArialMT-110"/>
      </g>
     </g>
    </g>
   </g>
   <g id="matplotlib.axis_6">
    <g id="ytick_1">
     <g id="line2d_5">
      <defs>
       <path d="M 0 0 
L 6 0 
" id="mb9b55394d2" style="stroke:#262626;stroke-width:1.25;"/>
      </defs>
      <g>
       <use style="fill:#262626;stroke:#262626;stroke-width:1.25;" x="547.99324" xlink:href="#mb9b55394d2" y="92.705633"/>
      </g>
     </g>
     <g id="text_5">
      <!-- Ammonia -->
      <g style="fill:#262626;" transform="translate(557.49324 95.855071)scale(0.088 -0.088)">
       <use xlink:href="#ArialMT-65"/>
       <use x="66.699219" xlink:href="#ArialMT-109"/>
       <use x="150" xlink:href="#ArialMT-109"/>
       <use x="233.300781" xlink:href="#ArialMT-111"/>
       <use x="288.916016" xlink:href="#ArialMT-110"/>
       <use x="344.53125" xlink:href="#ArialMT-105"/>
       <use x="366.748047" xlink:href="#ArialMT-97"/>
      </g>
     </g>
    </g>
    <g id="ytick_2">
     <g id="line2d_6">
      <g>
       <use style="fill:#262626;stroke:#262626;stroke-width:1.25;" x="547.99324" xlink:href="#mb9b55394d2" y="222.787807"/>
      </g>
     </g>
     <g id="text_6">
      <!-- CO$_2$ -->
      <g style="fill:#262626;" transform="translate(557.49324 225.999807)scale(0.088 -0.088)">
       <use transform="translate(0 0.140625)" xlink:href="#ArialMT-67"/>
       <use transform="translate(72.216797 0.140625)" xlink:href="#ArialMT-79"/>
       <use transform="translate(151.742344 -29.728125)scale(0.7)" xlink:href="#ArialMT-50"/>
      </g>
     </g>
    </g>
    <g id="ytick_3">
     <g id="line2d_7">
      <g>
       <use style="fill:#262626;stroke:#262626;stroke-width:1.25;" x="547.99324" xlink:href="#mb9b55394d2" y="352.86998"/>
      </g>
     </g>
     <g id="text_7">
      <!-- Light -->
      <g style="fill:#262626;" transform="translate(557.49324 356.019417)scale(0.088 -0.088)">
       <use xlink:href="#ArialMT-76"/>
       <use x="55.615234" xlink:href="#ArialMT-105"/>
       <use x="77.832031" xlink:href="#ArialMT-103"/>
       <use x="133.447266" xlink:href="#ArialMT-104"/>
       <use x="189.0625" xlink:href="#ArialMT-116"/>
      </g>
     </g>
    </g>
    <g id="ytick_4">
     <g id="line2d_8">
      <g>
       <use style="fill:#262626;stroke:#262626;stroke-width:1.25;" x="547.99324" xlink:href="#mb9b55394d2" y="482.952153"/>
      </g>
     </g>
     <g id="text_8">
      <!-- Oxygen -->
      <g style="fill:#262626;" transform="translate(557.49324 486.157966)scale(0.088 -0.088)">
       <use xlink:href="#ArialMT-79"/>
       <use x="77.783203" xlink:href="#ArialMT-120"/>
       <use x="127.783203" xlink:href="#ArialMT-121"/>
       <use x="177.783203" xlink:href="#ArialMT-103"/>
       <use x="233.398438" xlink:href="#ArialMT-101"/>
       <use x="289.013672" xlink:href="#ArialMT-110"/>
      </g>
     </g>
    </g>
   </g>
   <g id="QuadMesh_3">
    <path clip-path="url(#p33649c8fef)" d="M 27.664547 27.664547 
L 157.74672 27.664547 
L 157.74672 157.74672 
L 27.664547 157.74672 
L 27.664547 27.664547 
" style="fill:#b3e1d2;"/>
    <path clip-path="url(#p33649c8fef)" d="M 157.74672 27.664547 
L 287.828893 27.664547 
L 287.828893 157.74672 
L 157.74672 157.74672 
L 157.74672 27.664547 
" style="fill:#b3e1d2;"/>
    <path clip-path="url(#p33649c8fef)" d="M 287.828893 27.664547 
L 417.911067 27.664547 
L 417.911067 157.74672 
L 287.828893 157.74672 
L 287.828893 27.664547 
" style="fill:#b3e1d2;"/>
    <path clip-path="url(#p33649c8fef)" d="M 417.911067 27.664547 
L 547.99324 27.664547 
L 547.99324 157.74672 
L 417.911067 157.74672 
L 417.911067 27.664547 
" style="fill:#b3e1d2;"/>
    <path clip-path="url(#p33649c8fef)" d="M 27.664547 157.74672 
L 157.74672 157.74672 
L 157.74672 287.828893 
L 27.664547 287.828893 
L 27.664547 157.74672 
" style="fill:#b3e1d2;"/>
    <path clip-path="url(#p33649c8fef)" d="M 157.74672 157.74672 
L 287.828893 157.74672 
L 287.828893 287.828893 
L 157.74672 287.828893 
L 157.74672 157.74672 
" style="fill:#b3e1d2;"/>
    <path clip-path="url(#p33649c8fef)" d="M 287.828893 157.74672 
L 417.911067 157.74672 
L 417.911067 287.828893 
L 287.828893 287.828893 
L 287.828893 157.74672 
" style="fill:#b3e1d2;"/>
    <path clip-path="url(#p33649c8fef)" d="M 417.911067 157.74672 
L 547.99324 157.74672 
L 547.99324 287.828893 
L 417.911067 287.828893 
L 417.911067 157.74672 
" style="fill:#b3e1d2;"/>
    <path clip-path="url(#p33649c8fef)" d="M 27.664547 287.828893 
L 157.74672 287.828893 
L 157.74672 417.911067 
L 27.664547 417.911067 
L 27.664547 287.828893 
" style="fill:#b3e1d2;"/>
    <path clip-path="url(#p33649c8fef)" d="M 157.74672 287.828893 
L 287.828893 287.828893 
L 287.828893 417.911067 
L 157.74672 417.911067 
L 157.74672 287.828893 
" style="fill:#b3e1d2;"/>
    <path clip-path="url(#p33649c8fef)" d="M 287.828893 287.828893 
L 417.911067 287.828893 
L 417.911067 417.911067 
L 287.828893 417.911067 
L 287.828893 287.828893 
" style="fill:#b3e1d2;"/>
    <path clip-path="url(#p33649c8fef)" d="M 417.911067 287.828893 
L 547.99324 287.828893 
L 547.99324 417.911067 
L 417.911067 417.911067 
L 417.911067 287.828893 
" style="fill:#b3e1d2;"/>
    <path clip-path="url(#p33649c8fef)" d="M 27.664547 417.911067 
L 157.74672 417.911067 
L 157.74672 547.99324 
L 27.664547 547.99324 
L 27.664547 417.911067 
" style="fill:#b3e1d2;"/>
    <path clip-path="url(#p33649c8fef)" d="M 157.74672 417.911067 
L 287.828893 417.911067 
L 287.828893 547.99324 
L 157.74672 547.99324 
L 157.74672 417.911067 
" style="fill:#b3e1d2;"/>
    <path clip-path="url(#p33649c8fef)" d="M 287.828893 417.911067 
L 417.911067 417.911067 
L 417.911067 547.99324 
L 287.828893 547.99324 
L 287.828893 417.911067 
" style="fill:#b3e1d2;"/>
    <path clip-path="url(#p33649c8fef)" d="M 417.911067 417.911067 
L 547.99324 417.911067 
L 547.99324 547.99324 
L 417.911067 547.99324 
L 417.911067 417.911067 
" style="fill:#b3e1d2;"/>
   </g>
   <g id="text_9">
    <!-- 1.0 -->
    <defs>
     <path d="M 37.25 0 
L 28.46875 0 
L 28.46875 56 
Q 25.296875 52.984375 20.140625 49.953125 
Q 14.984375 46.921875 10.890625 45.40625 
L 10.890625 53.90625 
Q 18.265625 57.375 23.78125 62.296875 
Q 29.296875 67.234375 31.59375 71.875 
L 37.25 71.875 
z
" id="ArialMT-49"/>
     <path d="M 9.078125 0 
L 9.078125 10.015625 
L 19.09375 10.015625 
L 19.09375 0 
z
" id="ArialMT-46"/>
     <path d="M 4.15625 35.296875 
Q 4.15625 48 6.765625 55.734375 
Q 9.375 63.484375 14.515625 67.671875 
Q 19.671875 71.875 27.484375 71.875 
Q 33.25 71.875 37.59375 69.546875 
Q 41.9375 67.234375 44.765625 62.859375 
Q 47.609375 58.5 49.21875 52.21875 
Q 50.828125 45.953125 50.828125 35.296875 
Q 50.828125 22.703125 48.234375 14.96875 
Q 45.65625 7.234375 40.5 3 
Q 35.359375 -1.21875 27.484375 -1.21875 
Q 17.140625 -1.21875 11.234375 6.203125 
Q 4.15625 15.140625 4.15625 35.296875 
z
M 13.1875 35.296875 
Q 13.1875 17.671875 17.3125 11.828125 
Q 21.4375 6 27.484375 6 
Q 33.546875 6 37.671875 11.859375 
Q 41.796875 17.71875 41.796875 35.296875 
Q 41.796875 52.984375 37.671875 58.78125 
Q 33.546875 64.59375 27.390625 64.59375 
Q 21.34375 64.59375 17.71875 59.46875 
Q 13.1875 52.9375 13.1875 35.296875 
z
" id="ArialMT-48"/>
    </defs>
    <g style="fill:#262626;" transform="translate(86.033633 95.187383)scale(0.096 -0.096)">
     <use xlink:href="#ArialMT-49"/>
     <use x="55.615234" xlink:href="#ArialMT-46"/>
     <use x="83.398438" xlink:href="#ArialMT-48"/>
    </g>
   </g>
   <g id="text_10">
    <!-- 1.0 -->
    <g style="fill:#262626;" transform="translate(216.115807 95.187383)scale(0.096 -0.096)">
     <use xlink:href="#ArialMT-49"/>
     <use x="55.615234" xlink:href="#ArialMT-46"/>
     <use x="83.398438" xlink:href="#ArialMT-48"/>
    </g>
   </g>
   <g id="text_11">
    <!-- 1.0 -->
    <g style="fill:#262626;" transform="translate(346.19798 95.187383)scale(0.096 -0.096)">
     <use xlink:href="#ArialMT-49"/>
     <use x="55.615234" xlink:href="#ArialMT-46"/>
     <use x="83.398438" xlink:href="#ArialMT-48"/>
    </g>
   </g>
   <g id="text_12">
    <!-- 1.0 -->
    <g style="fill:#262626;" transform="translate(476.280153 95.187383)scale(0.096 -0.096)">
     <use xlink:href="#ArialMT-49"/>
     <use x="55.615234" xlink:href="#ArialMT-46"/>
     <use x="83.398438" xlink:href="#ArialMT-48"/>
    </g>
   </g>
   <g id="text_13">
    <!-- 1.0 -->
    <g style="fill:#262626;" transform="translate(86.033633 225.269557)scale(0.096 -0.096)">
     <use xlink:href="#ArialMT-49"/>
     <use x="55.615234" xlink:href="#ArialMT-46"/>
     <use x="83.398438" xlink:href="#ArialMT-48"/>
    </g>
   </g>
   <g id="text_14">
    <!-- 1.0 -->
    <g style="fill:#262626;" transform="translate(216.115807 225.269557)scale(0.096 -0.096)">
     <use xlink:href="#ArialMT-49"/>
     <use x="55.615234" xlink:href="#ArialMT-46"/>
     <use x="83.398438" xlink:href="#ArialMT-48"/>
    </g>
   </g>
   <g id="text_15">
    <!-- 1.0 -->
    <g style="fill:#262626;" transform="translate(346.19798 225.269557)scale(0.096 -0.096)">
     <use xlink:href="#ArialMT-49"/>
     <use x="55.615234" xlink:href="#ArialMT-46"/>
     <use x="83.398438" xlink:href="#ArialMT-48"/>
    </g>
   </g>
   <g id="text_16">
    <!-- 1.0 -->
    <g style="fill:#262626;" transform="translate(476.280153 225.269557)scale(0.096 -0.096)">
     <use xlink:href="#ArialMT-49"/>
     <use x="55.615234" xlink:href="#ArialMT-46"/>
     <use x="83.398438" xlink:href="#ArialMT-48"/>
    </g>
   </g>
   <g id="text_17">
    <!-- 1.0 -->
    <g style="fill:#262626;" transform="translate(86.033633 355.35173)scale(0.096 -0.096)">
     <use xlink:href="#ArialMT-49"/>
     <use x="55.615234" xlink:href="#ArialMT-46"/>
     <use x="83.398438" xlink:href="#ArialMT-48"/>
    </g>
   </g>
   <g id="text_18">
    <!-- 1.0 -->
    <g style="fill:#262626;" transform="translate(216.115807 355.35173)scale(0.096 -0.096)">
     <use xlink:href="#ArialMT-49"/>
     <use x="55.615234" xlink:href="#ArialMT-46"/>
     <use x="83.398438" xlink:href="#ArialMT-48"/>
    </g>
   </g>
   <g id="text_19">
    <!-- 1.0 -->
    <g style="fill:#262626;" transform="translate(346.19798 355.35173)scale(0.096 -0.096)">
     <use xlink:href="#ArialMT-49"/>
     <use x="55.615234" xlink:href="#ArialMT-46"/>
     <use x="83.398438" xlink:href="#ArialMT-48"/>
    </g>
   </g>
   <g id="text_20">
    <!-- 1.0 -->
    <g style="fill:#262626;" transform="translate(476.280153 355.35173)scale(0.096 -0.096)">
     <use xlink:href="#ArialMT-49"/>
     <use x="55.615234" xlink:href="#ArialMT-46"/>
     <use x="83.398438" xlink:href="#ArialMT-48"/>
    </g>
   </g>
   <g id="text_21">
    <!-- 1.0 -->
    <g style="fill:#262626;" transform="translate(86.033633 485.433903)scale(0.096 -0.096)">
     <use xlink:href="#ArialMT-49"/>
     <use x="55.615234" xlink:href="#ArialMT-46"/>
     <use x="83.398438" xlink:href="#ArialMT-48"/>
    </g>
   </g>
   <g id="text_22">
    <!-- 1.0 -->
    <g style="fill:#262626;" transform="translate(216.115807 485.433903)scale(0.096 -0.096)">
     <use xlink:href="#ArialMT-49"/>
     <use x="55.615234" xlink:href="#ArialMT-46"/>
     <use x="83.398438" xlink:href="#ArialMT-48"/>
    </g>
   </g>
   <g id="text_23">
    <!-- 1.0 -->
    <g style="fill:#262626;" transform="translate(346.19798 485.433903)scale(0.096 -0.096)">
     <use xlink:href="#ArialMT-49"/>
     <use x="55.615234" xlink:href="#ArialMT-46"/>
     <use x="83.398438" xlink:href="#ArialMT-48"/>
    </g>
   </g>
   <g id="text_24">
    <!-- 1.0 -->
    <g style="fill:#262626;" transform="translate(476.280153 485.433903)scale(0.096 -0.096)">
     <use xlink:href="#ArialMT-49"/>
     <use x="55.615234" xlink:href="#ArialMT-46"/>
     <use x="83.398438" xlink:href="#ArialMT-48"/>
    </g>
   </g>
  </g>
 </g>
 <defs>
  <clipPath id="p9d8bb5f743">
   <rect height="520.328693" width="20.272547" x="7.2" y="27.664547"/>
  </clipPath>
  <clipPath id="p895d21fdb3">
   <rect height="20.272546" width="520.328693" x="27.664547" y="7.2"/>
  </clipPath>
  <clipPath id="p33649c8fef">
   <rect height="520.328693" width="520.328693" x="27.664547" y="27.664547"/>
  </clipPath>
 </defs>
</svg>
