mps,mcs,mp_size,subset_size,network_size,dt
1,nan,68,6608,33296,830.8428282737732
2,nan,68,6608,33296,1663.607258796692
3,nan,64,6608,33296,2497.460974931717
4,nan,65,6608,33296,3322.782951593399
5,nan,63,6608,33296,4146.553795576096
6,nan,69,6608,33296,4948.85945391655
7,nan,65,6608,33296,5741.359057188034
8,nan,73,6608,33296,6528.230776786804
9,nan,62,6608,33296,7309.678534984589
10,nan,73,6608,33296,8087.662086486816
11,nan,61,6608,33296,8858.648512125015
12,nan,68,6608,33296,9641.193160295486
13,nan,67,6608,33296,10422.364654064178
14,nan,68,6608,33296,11207.106513500214
15,nan,68,6608,33296,11985.184791564941
16,nan,66,6608,33296,12764.48687338829
17,nan,74,6608,33296,13540.1773583889
18,nan,70,6608,33296,14320.449859142303
19,nan,70,6608,33296,15094.12364268303
20,nan,69,6608,33296,15888.269098997116
21,nan,66,6608,33296,16693.83989262581
22,nan,69,6608,33296,17504.563848495483
23,nan,63,6608,33296,18315.100920677185
24,nan,71,6608,33296,19124.853341579437
25,nan,68,6608,33296,19935.40625143051
26,nan,67,6608,33296,20744.245252370834
27,nan,70,6608,33296,21526.47706222534
28,nan,72,6608,33296,22304.54912686348
29,nan,69,6608,33296,23082.39533138275
30,nan,64,6608,33296,23859.522926330566
31,nan,67,6608,33296,24636.118500947952
32,nan,68,6608,33296,25417.329570531845
33,nan,64,6608,33296,26190.8204600811
34,nan,67,6608,33296,26964.887672662735
35,nan,64,6608,33296,27739.413282632828
36,nan,68,6608,33296,28519.18115067482
37,nan,71,6608,33296,29313.730113744736
38,nan,68,6608,33296,30097.68134689331
39,nan,67,6608,33296,30880.240786790848
40,nan,66,6608,33296,31663.012674808502
41,nan,77,6608,33296,32437.572998523712
42,nan,76,6608,33296,33209.55712747574
43,nan,65,6608,33296,33983.10575389862
44,nan,66,6608,33296,34758.69927883148
45,nan,70,6608,33296,35540.835163354874
46,nan,71,6608,33296,36316.8277451992
47,nan,69,6608,33296,37096.15690469742
48,nan,65,6608,33296,37874.96564793587
49,nan,65,6608,33296,38648.17350912094
50,nan,67,6608,33296,39428.12279129028
51,nan,65,6608,33296,40202.161200761795
52,nan,62,6608,33296,40975.830817461014
53,nan,72,6608,33296,41766.495008945465
54,nan,65,6608,33296,42543.125962495804
55,nan,64,6608,33296,43314.225415706635
56,nan,68,6608,33296,44090.97251391411
57,nan,77,6608,33296,44870.47343277931
58,nan,71,6608,33296,45644.78370785713
59,nan,68,6608,33296,46424.590762376785
60,nan,68,6608,33296,47201.59022688866
61,nan,70,6608,33296,47983.11087322235
62,nan,71,6608,33296,48756.11088132858
63,nan,70,6608,33296,49531.56003713608
64,nan,71,6608,33296,50311.32523441315
65,nan,67,6608,33296,51081.264554739
66,nan,71,6608,33296,51852.58366775513
67,nan,63,6608,33296,52625.277624607086
68,nan,64,6608,33296,53404.1801109314
69,nan,66,6608,33296,54177.884545087814
70,nan,71,6608,33296,54951.64714193344
71,nan,69,6608,33296,55727.75244450569
72,nan,68,6608,33296,56500.11988782883
73,nan,64,6608,33296,57277.960173368454
74,nan,71,6608,33296,58052.85432600975
75,nan,74,6608,33296,58826.54201698303
76,nan,65,6608,33296,59599.46706819534
77,nan,62,6608,33296,60375.31257557869
78,nan,66,6608,33296,61146.37751173973
79,nan,69,6608,33296,61924.665143728256
80,nan,64,6608,33296,62698.231635570526
81,nan,68,6608,33296,63467.64146876335
82,nan,68,6608,33296,64238.969751119614
83,nan,66,6608,33296,65008.234956264496
84,nan,64,6608,33296,65778.55566167831
85,nan,68,6608,33296,66546.47836637497
86,nan,69,6608,33296,67321.04166960716
87,nan,64,6608,33296,68094.80683898926
88,nan,66,6608,33296,68867.25446796417
89,nan,67,6608,33296,69640.50716257095
90,nan,68,6608,33296,70412.7326490879
91,nan,71,6608,33296,71186.7999587059
92,nan,70,6608,33296,71966.7055220604
93,nan,69,6608,33296,72734.53429365158
94,nan,65,6608,33296,73506.95001792908
95,nan,70,6608,33296,74288.71710920334
96,nan,68,6608,33296,75070.95406985283
97,nan,70,6608,33296,75846.83961319923
98,nan,65,6608,33296,76616.03371787071
99,nan,64,6608,33296,77384.93854856491
100,nan,68,6608,33296,78135.56506323814
