mps,mcs,mp_size,subset_size,network_size,dt
1,0,4,19,102,0.00940251350402832
2,0,4,19,102,0.053406715393066406
3,0,3,19,102,0.16008281707763672
4,0,4,19,102,0.18018412590026855
5,0,4,19,102,0.22632455825805664
6,2,3,19,102,0.2838578224182129
7,2,4,19,102,0.3091742992401123
8,2,3,19,102,0.33896970748901367
9,2,3,19,102,0.388779878616333
10,2,4,19,102,0.43079257011413574
11,3,3,19,102,0.4736785888671875
12,3,4,5,102,0.5226519107818604
13,5,4,19,102,0.5745153427124023
14,5,4,19,102,0.6024394035339355
15,5,4,19,102,0.6464262008666992
16,6,4,19,102,0.6863181591033936
17,6,4,19,102,0.8317575454711914
18,6,4,19,102,0.8626742362976074
19,7,4,19,102,0.9419052600860596
20,7,4,19,102,0.9829020500183105
21,7,4,19,102,1.0257830619812012
22,7,4,5,102,1.0477240085601807
23,7,4,19,102,1.0926048755645752
24,7,4,19,102,1.169398307800293
25,7,4,6,102,1.2004799842834473
26,7,4,19,102,1.2601563930511475
27,7,4,19,102,1.290076732635498
28,7,4,19,102,1.3624460697174072
29,7,4,6,102,1.3957390785217285
30,9,4,19,102,1.482193946838379
31,9,4,19,102,1.5809214115142822
32,10,4,19,102,1.653808355331421
33,10,4,19,102,1.7689790725708008
34,10,4,19,102,1.8509581089019775
