4HGLSD,-1000.0,0.0
A5PISO,8.399999842367833e-07,0.20243778919734723
AAtr,0.0,0.0
ACACT1r,0.0,0.0
ACACt2,0.0,0.0
ACALDt,-1000.0,0.0
ACCOAC,0.00023665040000000003,57.03212355794358
ACKr,-1000.0,0.48831679617035206
ACOATA,0.0,8.060687170050187
ACONT,0.0,599.9998592342198
ACP1_FMN,0.0,1000.0
ACPS,0.0,532.8317466039484
ACS,0.0,999.9968058323008
ACt2r,-997.4777797332908,0.0
ADCL,4.9999999999999996e-06,1.2049868404605113
ADD,0.0,2.2637313950182065
ADEt2,0.0,0.0
ADK1,0.00018733929994141363,999.9969931667997
ADMDC,7.000000000000001e-07,0.1686981576644709
ADNUC,0.0,0.0
ADNt2,0.0,0.0
ADPT,0.0,2.2669417429583643
ADSK,0.0,0.5511528472990364
ADSL1r,2.6288199819646252e-05,8.590146497184037
ADSL2r,5.412919927039184e-05,13.553705118224457
ADSS,2.6288199959266995e-05,8.59014649718357
ADtr,0.0,0.0
AGMHE,1.68e-06,0.40487557839473254
AGMT,4.2000000000000004e-06,1.0121889459868314
AHCYSNS,6.408599574569962e-06,2.0982435852938828
AHSERL2,0.0,999.9999935914002
AICART,5.412920017988654e-05,13.553705118224457
AIRC2,5.412919997295484e-05,13.553705118224457
AIRC3,-13.553705118224505,-5.4129200407260214e-05
AKGt2r,-497.11895721626706,0.0
AKO,0.0,436.56315850650464
ALAALAr,2.7600000000000003e-06,0.6651527359341571
ALAD_L,0.0,1000.0
ALAR,-999.99999448,999.99994844
ALAt2r,0.0,1000.0
ALAt4,0.0,1000.0
ALCD2y,-1000.0,0.0
AMAA,0.0,0.0
AMAOTr,6e-10,0.00014459842088854202
AMID2,0.0,0.0
AMID4,0.0,0.0
AMID5,0.0,0.0
AMMQT6,6.000000000013156e-10,0.00014459842085526195
ANPRT,5.4e-06,290.20116704950664
ANS,0.0,268.5443635383494
ANS2,0.0,290.20116704950664
AOXSr,6.000391294946894e-10,0.00014459842088854202
APRAUR,1.0000000000000751e-09,0.00024099736809209417
ARGDC,4.2000000000000004e-06,1.012188945986831
ARGN,2.0999999946980097e-05,1000.0
ARGSL,0.0,319.6990479623712
ARGSS,0.0,319.69904796236784
ARGt2r,5.329999999048596e-05,1000.0
ASAD,-929.1977260296763,-5.075349997696321e-05
ASNN,0.0,799.2476199059196
ASNS2,2.29e-05,799.2476427994421
ASNabc,0.0,0.0
ASNt2r,0.0,0.0
ASP1DC,5.900005817238707e-09,0.0014218844717495105
ASPCT,3.151e-05,7.593827068582155
ASPK,5.075349997696321e-05,929.1977260331914
ASPO2,2.729999471485752e-07,0.06579228148913611
ASPT,0.0,999.9997912402
ASPTA,-1000.0,-0.00020875980055734544
ASPt2r,-994.3819798019756,0.0
ATPS4r,-393.42025775086745,1000.0
BACCL,0.0,0.0
BC10_new,0.0,1000.0
BIOMASS_HP_published,0.0001,24.099736809210192
BPNT,0.0,532.8317466039471
BTS2,6e-10,0.00014459842085526108
C140SN,1.58836e-05,3.82790579582771
C160SN,1.68e-06,0.4048755783947327
C180SN,8.4e-07,0.2024377891973659
C181SN,1.5043600000000001e-05,3.6254680066303537
C190cSN,1.5043600000000001e-05,3.625468006630355
CAT,0.0,1.227492033996191
CBPS,3.1509999999999995e-05,319.69907946977673
CCP,0.0,2.4519219380379127
CDAPPA_HP,0.0,799.2476198994426
CDPMEK,4.800313035957515e-09,0.0011567873668420915
CHCOAL,6e-10,0.00014459842085526005
CHORM,3.07e-05,449.81183125673414
CHORS,4.11006000391295e-05,449.81184165895485
CLPNS_HP,2.790700023069803e-06,0.6725513551346012
CO2t,-1000.0,0.0
CPPPGO,0.0,0.0001445984208552618
CS,0.0,599.99985923422
CTPS1,1.5139999999999994e-05,1000.0
CYOO_HP,0.0,500.0
CYSS,8.706500000000005e-06,2.098243585293895
CYSabc,0.0,0.0
CYTDt2,0.0,0.0
CYTK1,1.5894300318853198e-05,799.2476358002214
DAAD,0.0,1000.0
DADK,0.0,0.0
DADNt2,0.0,0.0
DAGK_HP,0.0,0.0
DALAt2r,0.0,1000.0
DAPDC,3.26e-05,610.1390156421912
DAPE,3.536e-05,610.1390184057916
DASYN_HP,1.5043600000000001e-05,799.2476349430428
DB4PS,2.0000000000001503e-09,0.0004819947361841859
DBTS,6.000391294946894e-10,0.00014459842088854202
DCTPD,0.0,0.5950419125024476
DCTPD2,0.0,999.99998486
DCYTt2,0.0,0.0
DDPA,4.1100600000000004e-05,449.8118416589552
DDPGA,0.0,0.0
DGK1,0.0,0.0
DHDPRy,3.536e-05,610.1390184057905
DHDPS,3.536e-05,610.13901840579
DHFR,4.9999999999999996e-06,1.204986840460514
DHFS,4.9999999999999996e-06,1.204986840460513
DHNAOT2,6.000391294946894e-10,0.00014459842085526195
DHNPA,4.9999999999999996e-06,1.2049868404605113
DHORD3,3.1509999985246395e-05,7.593827068582073
DHORTS,-7.593827068582186,-3.1509999985246395e-05
DHPPDA,1.0000000000000751e-09,0.0002409973680920932
DHPS,0.0,1.204986840460515
DHPTDCs,6.408599790330982e-06,2.0982435852938845
DHQS,4.11006000391295e-05,449.8118416589541
DHQTi,4.1100600014942756e-05,449.81184165733725
DKMPPD,7.000000000000001e-07,0.16869815766447188
DMATT,6.000391294946894e-10,0.00014459842085526127
DMPPS,6.000000000013156e-10,0.00014459842085526078
DM_amob_c,6e-10,0.0001445984208552618
DM_hmfurn_c,6.408600570125744e-06,2.0982435852938863
DNMPPA,4.9999999999999996e-06,1.2049868404605149
DNTPPA,4.9999999999999996e-06,1.20498684046051
DPCOAK,5.900000000006161e-09,532.8317466098475
DPR,5.900000000006161e-09,0.0014218844717388097
DSERt2,0.0,0.0
DTMPK,2.47e-06,0.5952634991874675
DURIK1,0.0,0.0
DURIPP,0.0,0.0
DURIt2,0.0,0.0
DUTPDP,0.0,799.2476198994417
DXPRIi,4.800313035957515e-09,0.0011567873668420858
DXPS,4.8003130359642915e-09,0.0011567873668420895
EDA,0.0,1000.0
EDD,0.0,1000.0
EHGLAT,0.0,0.0
ENO,-799.2475340982432,666.6664740195338
ETOHt2r,-1000.0,0.0
EX_aa_e,0.0,0.0
EX_ac_e,0.0,997.4777797368907
EX_acac_e,0.0,0.0
EX_acald_e,0.0,1000.0
EX_ad_e,0.0,0.0
EX_ade_e,0.0,0.0
EX_adn_e,0.0,0.0
EX_akg_e,0.0,497.1189572162674
EX_ala__D_e,-1000.0,0.0
EX_ala__L_e,-1000.0,0.0
EX_arg__L_e,-1000.0,-5.32999999469801e-05
EX_asn__L_e,0.0,0.0
EX_asp__L_e,0.0,994.3819798019761
EX_cit_e,0.0,0.0
EX_co2_e,0.0,1000.0
EX_cys__L_e,0.0,0.0
EX_cytd_e,0.0,0.0
EX_dad_2_e,0.0,0.0
EX_dcyt_e,0.0,0.0
EX_duri_e,0.0,0.0
EX_etoh_e,0.0,1000.0
EX_fe2_e,-0.00014459842088854202,0.0
EX_fe3_e,0.0,0.0
EX_for_e,0.0,0.5537878521388578
EX_fum_e,0.0,639.6468246861436
EX_gal_e,0.0,0.0
EX_glc__D_e,-1000.0,0.0
EX_gln__L_e,0.0,0.0
EX_glu__L_e,0.0,747.0566640611269
EX_gly_e,0.0,0.0
EX_gsn_e,0.0,0.0
EX_gua_e,0.0,0.0
EX_h2_e,0.0,0.0
EX_h2co3_e,0.0,1000.0
EX_h2o_e,-1000.0,1000.0
EX_h_e,-1000.0,0.0
EX_his__L_e,-2.1689763128289314,-8.999999977277184e-06
EX_hxan_e,0.0,0.551952146951005
EX_ile__L_e,-6.6515273593420385,-2.7599999953054066e-05
EX_lac__L_e,0.0,1000.0
EX_leu__L_e,-10.314687354342027,-4.279999996015249e-05
EX_lys__L_e,0.0,610.1389830421886
EX_mal__L_e,0.0,639.6468246861435
EX_met__L_e,-7.1443187776168315,-2.9644800065398158e-05
EX_na1_e,0.0,0.0
EX_nh4_e,0.0,1000.0
EX_ni2_e,0.0,0.0
EX_nmn_e,0.0,0.0
EX_no2_e,0.0,0.0
EX_no3_e,0.0,0.0
EX_no_e,0.0,0.0
EX_o2_e,-498.90115042758066,-3.2000000373955118e-06
EX_orn_e,0.0,999.9999467
EX_orot_e,0.0,0.0
EX_phe__L_e,0.0,449.8118005567373
EX_pheme_e,0.0,0.0
EX_pi_e,-22.3313704213615,-9.2662300767588e-05
EX_pime_e,-0.00014459842088854202,-6.000391294946894e-10
EX_pro__L_e,0.0,999.9999467
EX_pyr_e,0.0,1000.0
EX_ser__D_e,0.0,0.0
EX_ser__L_e,0.0,999.2447915813614
EX_so4_e,-0.5511528472992495,0.0
EX_succ_e,0.0,664.9809979576692
EX_thm_e,-0.00014459842088854202,-6.000391294946894e-10
EX_thr__L_e,0.0,888.3465091886793
EX_thymd_e,0.0,0.0
EX_trp__L_e,0.0,290.2011616505517
EX_tyr__L_e,0.0,428.3921910079572
EX_ura_e,0.0,0.0
EX_urea_e,0.0,1000.0
EX_uri_e,0.0,0.0
EX_val__L_e,-9.689516081774286,-4.020589994979673e-05
EX_xan_e,0.0,0.0
FADOX,0.0,1000.0
FBA,-719.6989219417106,0.0
FBA2,0.0,0.0
FBP,0.0,719.6989219417082
FCLPA,0.0,0.0
FCLT,6e-10,0.00014459842085526108
FE2abc,6e-10,0.0001445984208552612
FEDCabc,0.0,0.0
FMNAT,1e-09,0.00024099736809210268
FMNRx2,-999.99999753,-0.0002798326000113532
FOLD3,0.0,1.2031728826351613
FORAMD,0.0,0.0
FORt,-0.5537878521387897,0.0
FRD5,-481.48040134350094,499.99999878085055
FRDO,3.53603e-05,610.1390184024908
FTHFD,0.0,1000.0
FTHFLi,0.0,1000.0
FUM,-499.99991491780065,1000.0
FUMt3,0.0,1000.0
G1PACT,8.040000000000001e-06,1.9376188394605114
G1SAT,4.8e-09,0.0011567873668420958
G3PD1ir,-999.9999805303,1000.0
G3PD2,-1000.0,999.9999805303
G5SADs,2.0999999946980097e-05,999.9999677000001
G6PDH1,0.0,1000.0
G6PDH2r,0.0,1000.0
GALKr,0.0,0.0
GALT,0.0,0.0
GALUi,5.340000029718794e-06,1.2869259456118698
GALt2,0.0,0.0
GAPD,-532.8316452600947,962.130368971837
GARFT,0.0,13.553705118224624
GART,0.0,13.45117962324269
GCALDD,4.9999999999999996e-06,1.2049868404604922
GF6PTA,8.880000000000001e-06,2.1400566286578444
GFUCS,2.52e-06,0.6073133675920981
GHMT2r,0.0001123292000661997,27.533258167746183
GK1,2.7841000019179774e-05,6.709607725052251
GLCt2,0.0,1000.0
GLNS,0.00020218940005523858,1000.0
GLNabc,0.0,0.0
GLUDC,0.0,0.0
GLUDy,-1000.0,1000.0
GLUN,0.0,999.9997978105996
GLUPRT,5.4129200628650374e-05,13.553705118224489
GLUR,-0.6651527359341571,-2.760000029411458e-06
GLUTRR,0.0,0.001156787366842092
GLUTRS,0.0,0.0011567873668420923
GLUt2r,-747.0566640611264,0.0
GLYCTO1,4.9999999999999996e-06,1.2049868404605115
GLYK,2.7907000000000002e-06,0.6725513551346313
GLYt2r,0.0,0.0
GMAND,2.52e-06,0.6073133675920992
GMHEPAT,3.36e-06,0.8097511567894641
GMHEPK,3.36e-06,0.8097511567894643
GMHEPPA,3.36e-06,0.8097511567894656
GMPR,0.0,532.831746599628
GMPS2,2.7841e-05,532.8317744406298
GND,0.0,1000.0
GNNUC,0.0,0.0
GRTT,6.000391294946894e-10,0.0001445984208552613
GSNt2,0.0,0.0
GTMLT,0.0,0.0
GTPCI,5.000000000000013e-06,1.2049868404605066
GTPCII,1.0000000000000751e-09,0.00024099736809209238
GUAPRT,0.0,0.0
GUAt,0.0,0.0
H2CO3D,-999.9996777104002,1000.0
H2CO3D2,-1000.0,999.9996777104001
H2CO3TP,-1000.0,0.0
H2Ot,-1000.0,1000.0
HBZOPT,0.0,0.0
HCO3E,-999.9996777104022,1000.0
HEMEti,0.0,0.0
HETZK,0.0,0.0
HEX1,0.0,1000.0
HISabc,9e-06,2.16897631282892
HMBS,6e-10,0.00014459842085526238
HPPK,0.0,1.2031728826351622
HPROa,0.0,1000.0
HPROx,0.0,1000.0
HSDy,-888.3465245821805,-1.5393500007121474e-05
HSERTA,-999.9999846065,-6.4085998019436374e-06
HSK,2.41e-05,1000.0
HXPRT,0.0,2.263731395018213
HYDA1,0.0,0.0
HYXNt,-0.5519521469516948,0.0
ICDHyr,0.0,599.9998592342199
ICHORS,6.000391294946894e-10,0.00014459842085540585
IGPS,5.4e-06,290.2011670495066
ILETA,0.0,0.0
ILEabc,2.7600000000000003e-05,6.651527359342062
IMPC,-13.553705118224457,-5.412920017988654e-05
IMPD,2.7841e-05,532.8317744406285
IPDPS,4.200273906462826e-09,0.0010121889459868336
KARA1,0.0,0.0
KARA2,0.0,0.0
KAS14,0.0,8.060687170050176
KAS15,0.0,8.060687170050148
KAS_HP,8.4e-07,0.20243778919736585
KAS_HP2,1.68e-06,0.40487557839473254
KDOCT2,8.4e-07,0.20243778919736716
KDOPP,8.4e-07,0.20243778919736646
KDOPS,8.4e-07,0.2024377891973667
LDH_D1,-1000.0,0.0
LEUTA,0.0,0.0
LEUabc,4.2800000000000004e-05,10.314687354341991
LPADSS_HP,8.4e-07,0.2024377891973655
LPSSYN_HP,8.4e-07,0.20243778919736566
LYSt2r,-610.1389830457908,0.0
L_LACt2r,-1000.0,0.0
LacR,-1000.0,0.0
MALS,4.9999999999999996e-06,1.204986840460507
MALt2r,-639.6468246885439,0.0
MAN1PT2,2.52e-06,0.6073133675921554
MAN6PI,-0.6073133675921004,-2.51999995271035e-06
MCOATA,0.00023665040000000006,57.03212355794358
MDH4,0.00020875979988942183,1000.0
MDRPD,6.999999868639861e-07,0.16869815766449392
ME1,-1000.0,199.99979335094008
MECDPDH,4.800531089831084e-09,0.0011567873668420956
MECDPS,4.800000000010525e-09,0.001156787366842083
MEPCT,4.800313035957515e-09,0.0011567873668420921
METAT,1.57448000391295e-05,3.794455361136542
METB1,-1000.0,-6.408598324014747e-06
METabc,2.9644800039129498e-05,7.144318777616764
MOAT_HP,8.4e-07,0.20243778919736607
MOHMT,5.900005817238707e-09,0.0014218844717495095
MTAN,7.000000000000001e-07,0.16869815766447077
MTHFC,0.00010485329994480708,25.73755815669938
MTHFD,0.00010485329926268605,25.73755815669938
MTHFR2,5e-06,1.204986840460509
MTRI,6.999999868639861e-07,0.16869815766449392
MTRK,7.000000000000001e-07,0.16869815766447196
NADK,5.300000793795334e-08,0.012772860508839155
NADPHQR,0.0,1000.0
NADS1,2.729999550865614e-07,0.06579228148913113
NARK,0.0,0.0
NAt3_1,-1000.0,1000.0
NDH_1,0.0,1000.0
NDPK1,5.1589199952512864e-05,15.164836967874862
NDPK2,4.296e-05,10.944434852221207
NDPK3,1.0884300318853198e-05,799.2476332537417
NDPK4,2.4700000267330324e-06,0.5952634991874675
NDPK5,2.54e-06,0.6121333149538941
NDPK6,-0.5950419125024382,799.2476198994409
NDPK7,2.54e-06,1.20694736098676
NDPK8,2.4700000267330324e-06,0.5952634991874675
NH4t,-1000.0,0.0
NIabc,0.0,0.0
NMNAT,0.0,0.0
NMNTP,0.0,0.0
NNATr,2.72999934534425e-07,0.0657922814891364
NNDPR,2.7299994714846676e-07,0.06579228148912532
NO,0.0,0.0
NO3t2,0.0,1000.0
NO3t3,0.0,1000.0
NOt,0.0,0.0
NPHS,6.000391294946894e-10,0.00014459842085526097
NTRARz,0.0,0.0
O2t,3.2015000215324108e-06,498.90115042758066
OCBT,0.0,319.69904796236904
OCOAT1,0.0,0.0
OCTDPS,6.000391294946894e-10,0.00014459842085526206
OMBZLM,0.0,0.0
OMPDC,3.1509999999999995e-05,7.59382706858216
OOR3r,3.53603e-05,610.1390184060916
OPHBDC,0.0,0.0
ORNTA,2.0999999946980097e-05,999.9999677
ORNt2r,-999.9999467,0.0
OROATP,0.0,0.0
ORPT,-7.593827068582186,-3.1509999985246395e-05
OXGDC2,6.000391294946894e-10,0.00014459842085526157
P5CD,0.0,748.1256803938334
P5CR,2.0999999946980097e-05,1000.0
PABB,4.9999999999999996e-06,1.2049868404605146
PANTS,5.900005817238707e-09,0.0014218844717495001
PAPPT3,2.7600000000000003e-06,0.6651527359342008
PAPSR,0.0,0.5511528472988978
PASYN_HP,1.5043600000000001e-05,3.6254680066303293
PDH2,0.00028230260000000005,1000.0
PEPT_HP,0.0,0.0
PGAMT,-2.1400566286578635,-8.880000000000001e-06
PGCD,0.00015476249990005318,999.4467885126534
PGI,-899.2493133495424,290.20125893684065
PGK,-962.1303689715695,532.8316452600952
PGL,0.0,1000.0
PGM,-666.6664740195338,799.2475340982428
PGMT,-1.2869259456118698,-5.340000029718794e-06
PGPP_HP,7.2168e-06,1.7392298060470868
PGSA_HP,7.216799986053957e-06,1.7392298060470803
PHCD,0.0,1000.0
PHCHGS,-1000.0,0.0
PHETA1,-449.81181815835726,-1.759999997830164e-05
PHEt2r,-449.8118005583548,0.0
PIMEtr,6.000391294946894e-10,0.00014459842088854202
PIt2r,9.266229940886279e-05,22.33137042136036
PMANM,-0.6073133675921052,-2.51999995271035e-06
PMDPHT,1.0000000000000751e-09,0.000240997368092092
PMPK,0.0,0.0
PNTK,5.900000000006161e-09,0.001421884471738808
PPA,0.0002792694001493168,999.9970850969029
PPBNGS,0.0,0.0005783936834210474
PPCDC,5.89999999998922e-09,0.0014218844717388188
PPM,0.0,0.0
PPM2,0.0,0.0
PPNCL2,5.900000000006161e-09,0.0014218844717388112
PPND,1.3100000000000002e-05,428.3922041064146
PPNDH,1.76e-05,449.8118181567359
PPPGO,6e-10,0.00014459842085526108
PPS,0.0,799.2476199059212
PPTGS,2.7600000000000003e-06,0.6651527359342048
PRAGSr,5.4129200293573376e-05,13.553705118224457
PRAIS,5.412920007079307e-05,13.553705118224537
PRAIi,5.4e-06,290.2011670495066
PRASCSi,5.412920017988654e-05,13.553705118224457
PRFGS,5.412920017988654e-05,13.553705118224567
PROD2,0.0,999.999979
PROabc,0.0,1000.0
PROt2r,-1000.0,1000.0
PROt4,-1000.0,1000.0
PRPPS,0.00010071870019601192,290.20126236925216
PSCVT,4.1100600014942756e-05,449.8118416573351
PSD_HP,7.489400000000001e-06,1.804925688589004
PSERT,0.00015476250000935626,999.4467885140932
PSP_D,0.0,0.0
PSP_L,0.00015476249987055353,999.4467885140944
PSSA_HP,7.826800000000001e-06,1.886238200583307
PTAr,-0.48831679617114787,1000.0
PTPATi,5.900005817238707e-09,532.8317466055297
PUNP1,0.0,0.0
PUNP2,0.0,0.0
PUNP3,0.0,0.0
PUNP4,0.0,0.0
PUNP5,0.0,0.0
PUNP6,0.0,0.0
PUNP7,0.0,0.0
PUTA3,0.0,748.125680393832
PYRDC,0.0,1000.0
PYRt2,-1000.0,0.0
QULNS,2.729999550865614e-07,0.06579228148913623
RBFK,1e-09,1000.0
RBFSa,1.999978849198669e-09,0.00048199473618418677
RBFSb,1.0000000000000751e-09,0.0002409973680920932
RFAC_HP,8.4e-07,0.20243778919736644
RFA_HP,8.4e-07,0.20243778919736682
RHCCE,6.408599932439529e-06,2.0982435852938845
RNDR1,2.47e-06,0.5952634991874935
RNDR2,2.54e-06,0.6121333149539423
RNDR3,2.54e-06,1.2069473609867527
RNDR4,0.0,0.595263499187495
RPE,-290.20124417684076,666.6665841393333
RPI,-437.03100271402695,-8.168533321204426e-05
S7PI,3.36e-06,0.8097511567894641
SADT2,0.0,0.551152847299248
SDPDS,3.536e-05,610.1390184021911
SDPTA,-610.1390184021911,-3.535999996984174e-05
SERAT,8.706500011612661e-06,2.098243585293858
SERD_L,0.0,999.4310119341145
SERt2r,-999.2447915813619,0.0
SHCHCS2,6.000391294946894e-10,0.00014459842085526168
SHK3Dr,4.1100600014942756e-05,449.81184165733475
SHKK,4.11006000391295e-05,449.8118416589569
SHSL1,6.408599915630475e-06,1000.0
SHSL2r,-1000.0,-6.408599915630475e-06
SHSL4r,-999.9999759,0.0
SK_ahcys_c,6.33770003912949e-06,2.0712544184413417
SPMS,7.000000000000001e-07,0.1686981576644718
SPODM,0.0,1.25
SPRMS,0.0,0.0
SUCBZL,6.000391294946894e-10,0.00014459842085526165
SUCBZS,6.000391294946894e-10,0.0001445984208552616
SUCCt2r,-664.9809979576686,1000.0
SUCFUMt,-639.6468246885436,1000.0
SULR,0.0,0.5511528472984537
SULabc,0.0,0.5511528472990026
TALA,-5.396742429388041,386.19302547865027
THDPS,3.536e-05,610.1390184021924
THMDt2,0.0,0.0
THMabc,6e-10,0.0001445984208552615
THRD_L,0.0,999.9999759
THRS,2.41e-05,1000.0
THRt2r,-888.3465091914784,0.0
THZSN,0.0,0.0
TKT1,-4.586991272598766,386.1930288386502
TKT2,-299.8745971984579,333.33326983936695
TMDK1,0.0,0.0
TMDSf,2.47e-06,0.5952634991874952
TMPPP,0.0,0.0
TPI,-719.698941684411,-1.9742699919333973e-05
TRDR,1.0019999999999999e-05,2.9544565288939144
TRPS1,0.0,290.2011670495066
TRPS2,0.0,290.2011670495066
TRPS3,0.0,290.2011670495067
TRPt2r,-290.20116164950656,0.0
TYRTA,-428.3922041064146,-1.3100000046506466e-05
TYRt2r,-428.3921910064148,0.0
U23GAAT_HP,8.4e-07,0.2024377891973659
U2GAAT,8.4e-07,0.20243778919736588
U2GAAT2,8.4e-07,0.20243778919736613
UAAGDS,2.7600000000000003e-06,0.6651527359342052
UAGAAT_HP,8.4e-07,0.20243778919734723
UAGCVT,2.7600000000000003e-06,0.6651527359342007
UAGDP,8.040000000000001e-06,1.9376188394605047
UAGDP2,8.4e-07,0.20243778919736552
UAGPT3,2.7600000000000003e-06,0.6651527359342032
UAMAGS,2.7600000000000003e-06,0.6651527359342049
UAMAS,2.7600000000000003e-06,0.6651527359342049
UAPGR,2.7600000000000003e-06,0.6651527359342025
UDCPDP,2.7600000000000003e-06,0.6651527359342014
UDCPDPS,0.0,0.0
UDPG4E,2.52e-06,0.6073133675920417
UGMDDS,2.7600000000000003e-06,0.6651527359342032
UHGADA_HP,8.4e-07,0.20243778919736494
UMPK,3.5109999998894637e-05,8.46141759371374
UNK2,7.000000000000001e-07,0.16869815766447174
UPP3S,6e-10,0.00014459842085526114
UPPDC1,6e-10,0.0001445984208552616
UPPDC2,0.0,0.0
UPPRT,0.0,0.0
URAt2,0.0,0.0
UREA,0.0,1000.0
UREAt,-1000.0,0.0
URIDK2r,-0.5952634991874952,799.2476174294411
URIt2,0.0,0.0
USHD_HP,8.4e-07,0.2024377891973668
VALTA,5.900005817238707e-09,0.001421884471710655
VALabc,4.020590000000001e-05,9.68951608177423
XANt2,0.0,0.0
XPPT,0.0,0.0
