mps,mcs,mp_size,subset_size,network_size,dt
1,0,5,32,555,0.019108057022094727
2,0,5,32,555,0.049071550369262695
3,0,6,32,555,0.08796882629394531
4,0,5,32,555,0.12317705154418945
5,0,5,32,555,0.1588118076324463
6,0,5,5,555,0.18317937850952148
7,0,5,32,555,0.22166728973388672
8,0,5,32,555,0.3235769271850586
9,0,5,5,555,0.3429439067840576
10,0,5,32,555,0.3832361698150635
11,0,5,5,555,0.4107351303100586
12,0,5,5,555,0.4416513442993164
13,0,5,5,555,0.465587854385376
14,0,5,5,555,0.48952364921569824
15,0,5,32,555,0.530717134475708
16,0,5,5,555,0.5576455593109131
17,1,6,32,555,0.6105082035064697
18,1,6,6,555,0.648406982421875
19,1,6,6,555,0.685309886932373
20,1,6,6,555,0.7202343940734863
21,1,5,6,555,0.7531459331512451
22,1,5,6,555,0.7900478839874268
23,1,6,32,555,0.8832836151123047
24,1,6,32,555,0.916628360748291
25,1,5,32,555,1.0784175395965576
26,2,5,32,555,1.134551763534546
27,2,5,32,555,1.17045259475708
28,3,5,32,555,1.2202794551849365
29,4,6,32,555,1.3252005577087402
30,4,6,6,555,1.3541221618652344
31,4,6,6,555,1.3830451965332031
32,4,5,32,555,1.4166128635406494
33,4,5,32,555,1.4493005275726318
34,4,5,7,555,1.4782905578613281
35,4,5,7,555,1.5022268295288086
36,4,5,7,555,1.5256812572479248
37,4,5,7,555,1.5516116619110107
38,4,5,7,555,1.5815329551696777
39,4,5,32,555,1.61246657371521
40,4,5,7,555,1.6393797397613525
41,4,5,7,555,1.658463954925537
42,4,5,7,555,1.6872506141662598
43,4,6,32,555,1.7223293781280518
44,4,6,6,555,1.7492578029632568
45,4,6,6,555,1.77718186378479
46,4,5,32,555,1.8146305084228516
47,4,6,32,555,1.8665413856506348
48,4,6,6,555,1.8894286155700684
49,4,6,6,555,1.9144070148468018
50,4,6,6,555,1.9433319568634033
51,4,6,32,555,1.9792358875274658
52,4,6,32,555,2.0141427516937256
53,4,6,7,555,2.04457950592041
54,4,6,7,555,2.1645238399505615
55,4,6,7,555,2.2103753089904785
56,4,6,7,555,2.2602603435516357
57,4,6,32,555,2.3141274452209473
58,4,5,32,555,2.3512895107269287
59,4,5,32,555,2.388108730316162
60,4,5,6,555,2.4099678993225098
61,4,5,32,555,2.457839250564575
62,4,5,5,555,2.47878360748291
63,4,5,32,555,2.5191195011138916
64,4,5,7,555,2.543055772781372
65,4,5,7,555,2.574969530105591
66,4,5,7,555,2.611870765686035
67,4,5,32,555,2.664729356765747
68,4,5,5,555,2.6876680850982666
69,4,5,5,555,2.71559476852417
70,4,5,32,555,2.7604734897613525
71,4,6,6,555,2.785407066345215
72,4,6,6,555,2.8149993419647217
73,4,7,32,555,2.86319899559021
74,4,6,32,555,2.9100732803344727
75,4,6,6,555,2.9368159770965576
76,4,5,32,555,2.983691453933716
77,4,5,6,555,3.010819435119629
78,4,5,6,555,3.0456056594848633
79,4,5,6,555,3.1263883113861084
80,5,6,32,555,3.1852309703826904
81,5,6,6,555,3.217146158218384
82,5,5,32,555,3.2615859508514404
83,5,5,5,555,3.290893793106079
84,5,6,32,555,3.33141827583313
85,5,6,7,555,3.358347177505493
86,5,6,7,555,3.4102087020874023
87,5,6,7,555,3.494502544403076
88,5,7,32,555,3.5574591159820557
89,5,6,32,555,3.5993998050689697
90,5,6,6,555,3.625300168991089
91,5,5,6,555,3.6651930809020996
92,5,6,6,555,3.690128803253174
93,5,6,6,555,3.724377393722534
94,5,6,6,555,3.7593114376068115
95,5,5,6,555,3.789482355117798
96,5,6,6,555,3.81416654586792
97,6,5,32,555,3.896998167037964
98,6,6,32,555,3.9484364986419678
99,6,6,32,555,3.998302936553955
100,6,6,6,555,4.037845134735107
101,6,6,6,555,4.079732656478882
102,6,6,6,555,4.124613523483276
103,6,5,32,555,4.1794655323028564
104,6,5,5,555,4.266805171966553
105,8,6,32,555,4.358559608459473
106,8,6,7,555,4.389035701751709
107,8,6,7,555,4.468332290649414
108,8,6,7,555,4.516833305358887
109,8,7,32,555,4.580604553222656
110,8,7,7,555,4.606501817703247
111,8,6,32,555,4.655571460723877
112,8,6,6,555,4.680504322052002
113,8,6,6,555,4.705465793609619
114,8,6,6,555,4.728601932525635
115,8,6,6,555,4.756526470184326
116,8,6,6,555,4.779464960098267
117,8,6,32,555,4.825913667678833
118,8,6,6,555,4.851846933364868
119,8,6,32,555,4.9037065505981445
120,8,6,6,555,4.930253267288208
121,8,6,6,555,4.958832502365112
122,8,6,6,555,4.986185312271118
123,8,6,6,555,5.013111591339111
124,8,6,6,555,5.040107011795044
125,8,6,6,555,5.067994594573975
126,8,6,6,555,5.094892978668213
127,8,6,6,555,5.125929832458496
128,8,6,6,555,5.155853509902954
129,8,6,6,555,5.183779239654541
130,8,6,6,555,5.214695692062378
131,8,6,6,555,5.242620944976807
132,8,6,6,555,5.274536371231079
133,8,6,6,555,5.300468683242798
134,8,6,6,555,5.327410697937012
135,8,6,6,555,5.41715407371521
136,8,6,6,555,5.446479797363281
137,9,6,32,555,5.519507169723511
138,9,6,6,555,5.544396162033081
139,9,6,6,555,5.57232141494751
140,9,8,32,555,5.62019419670105
141,9,8,8,555,5.6504974365234375
142,9,8,8,555,5.688395261764526
143,9,8,8,555,5.71832013130188
144,11,5,32,555,5.810245513916016
145,11,5,6,555,5.850160837173462
146,11,6,32,555,5.902023792266846
147,11,6,6,555,5.931942701339722
148,11,6,32,555,5.980813026428223
149,11,6,7,555,6.0097362995147705
150,11,6,7,555,6.085533142089844
151,11,6,7,555,6.1329498291015625
152,11,6,32,555,6.196779012680054
153,11,6,6,555,6.226255178451538
154,11,6,6,555,6.254625558853149
155,11,6,6,555,6.283650159835815
156,11,6,6,555,6.3094775676727295
157,11,6,6,555,6.336673974990845
158,11,6,32,555,6.385544300079346
159,11,6,6,555,6.414466619491577
160,11,6,6,555,6.43891978263855
161,11,6,6,555,6.46185827255249
162,11,6,6,555,6.512416124343872
163,11,6,6,555,6.539144039154053
164,11,6,32,555,6.590749740600586
165,11,6,32,555,6.670158624649048
166,11,6,32,555,6.744960069656372
167,11,6,6,555,6.789839029312134
168,11,5,32,555,6.885383129119873
169,11,5,5,555,6.913309335708618
170,11,5,5,555,6.94350004196167
171,11,5,5,555,6.974146127700806
172,11,6,32,555,7.03940224647522
173,11,6,7,555,7.081315517425537
174,11,6,7,555,7.12220573425293
175,11,6,6,555,7.150065660476685
176,11,6,7,555,7.18005108833313
177,11,6,6,555,7.211966276168823
178,11,6,7,555,7.252167224884033
179,11,6,32,555,7.314997911453247
180,11,6,6,555,7.3644044399261475
181,11,6,32,555,7.437210559844971
182,12,6,32,555,7.539465665817261
183,12,6,6,555,7.569386959075928
184,12,6,6,555,7.591327905654907
185,12,6,6,555,7.615262985229492
186,12,7,32,555,7.681087017059326
187,12,7,7,555,7.7120041847229
188,12,5,5,555,7.753412485122681
189,12,5,5,555,7.778344631195068
190,12,6,32,555,7.834195613861084
191,12,6,7,555,7.865152359008789
192,12,6,7,555,7.897026777267456
193,12,6,7,555,7.933452844619751
194,12,6,7,555,7.977810621261597
195,12,6,7,555,8.007731914520264
196,12,6,7,555,8.032664060592651
197,12,6,7,555,8.062604188919067
198,12,6,7,555,8.093522787094116
199,12,6,7,555,8.143388271331787
200,12,6,7,555,8.16931962966919
201,12,6,7,555,8.197245597839355
202,12,6,32,555,8.252161741256714
203,12,5,32,555,8.34392261505127
204,12,5,7,555,8.406754493713379
205,12,5,7,555,8.437670707702637
206,12,8,8,555,8.50044298171997
207,12,5,7,555,8.570950984954834
208,12,8,8,555,8.629992723464966
209,12,6,32,555,8.721460819244385
210,12,6,6,555,8.752378225326538
211,12,6,6,555,8.79027795791626
212,12,6,6,555,8.850194215774536
213,12,6,32,555,9.047507047653198
214,12,6,8,555,9.19429326057434
215,12,6,8,555,9.415782690048218
216,12,6,8,555,9.60352635383606
217,12,6,8,555,9.784164428710938
218,12,6,8,555,9.999391555786133
219,12,6,32,555,10.576898574829102
220,12,7,32,555,10.746124982833862
221,12,6,7,555,10.836085319519043
222,12,7,7,555,10.876436948776245
223,12,6,7,555,10.940178394317627
224,12,6,7,555,11.028306484222412
225,12,6,7,555,11.138645887374878
226,12,6,7,555,11.203842163085938
227,12,7,7,555,11.22479248046875
228,12,6,7,555,11.262690782546997
229,12,6,7,555,11.30560827255249
230,12,6,7,555,11.378239870071411
231,12,7,7,555,11.401534795761108
232,12,6,7,555,11.442596197128296
233,12,6,7,555,11.486479759216309
234,12,6,7,555,11.547406673431396
235,12,6,7,555,11.59527850151062
236,12,6,7,555,11.623205423355103
237,12,6,7,555,11.660104990005493
238,12,6,32,555,11.75935411453247
239,12,6,32,555,11.848241329193115
240,12,6,6,555,11.877163648605347
241,12,6,6,555,11.898108005523682
242,12,6,6,555,11.923148155212402
243,12,6,6,555,11.946085929870605
244,12,6,6,555,11.969024181365967
245,12,6,6,555,12.002933502197266
246,12,6,32,555,12.082520484924316
247,12,6,7,555,12.114434719085693
248,12,6,7,555,12.132386922836304
249,12,6,7,555,12.162307024002075
250,12,6,7,555,12.189234972000122
251,12,6,7,555,12.21017861366272
252,12,6,7,555,12.236627101898193
253,12,6,7,555,12.253583192825317
254,12,6,7,555,12.284501075744629
255,12,6,7,555,12.313422441482544
256,13,6,32,555,12.422762870788574
257,13,6,6,555,12.454676389694214
258,13,6,7,555,12.489053964614868
259,13,6,7,555,12.51708698272705
260,13,6,7,555,12.556005477905273
261,13,6,6,555,12.577945232391357
262,13,6,7,555,12.627152681350708
263,13,6,7,555,12.661946058273315
264,13,6,32,555,12.7197904586792
265,13,6,7,555,12.747023820877075
266,13,6,7,555,12.779936075210571
267,13,6,7,555,12.804871082305908
268,13,6,7,555,12.853326797485352
269,13,6,7,555,12.878260135650635
270,13,6,7,555,12.90818738937378
271,13,6,7,555,12.937717199325562
272,13,6,7,555,12.96062707901001
273,13,6,7,555,12.991541624069214
274,13,6,7,555,13.02182412147522
275,13,6,7,555,13.044900894165039
276,13,7,32,555,13.114595651626587
277,13,7,8,555,13.205365896224976
278,13,6,8,555,13.260192394256592
279,13,7,8,555,13.341492176055908
280,13,6,8,555,13.375460863113403
281,13,7,8,555,13.480633020401001
282,13,6,8,555,13.53314733505249
283,13,7,8,555,13.624943971633911
284,13,6,8,555,13.678799390792847
285,13,7,8,555,13.7593514919281
286,13,6,8,555,13.797251224517822
287,13,6,8,555,13.946443319320679
288,13,6,32,555,14.021242141723633
289,13,6,7,555,14.103025436401367
290,13,6,7,555,14.13746428489685
291,13,6,7,555,14.17336893081665
292,13,6,7,555,14.209583044052124
293,13,6,7,555,14.240531921386719
294,13,6,32,555,14.335363864898682
295,13,5,32,555,14.438287019729614
296,13,6,6,555,14.482169389724731
297,13,6,6,555,14.508101463317871
298,13,6,32,555,14.582098245620728
299,13,6,8,555,14.623985528945923
300,13,6,8,555,14.674849033355713
301,13,6,8,555,14.82128095626831
302,13,6,8,555,14.912025213241577
303,13,6,8,555,14.966086626052856
304,13,6,8,555,15.134633779525757
305,13,6,8,555,15.191519498825073
306,13,6,8,555,15.346080303192139
307,13,6,8,555,15.403927326202393
308,13,6,8,555,15.56335973739624
309,13,6,32,555,15.718845129013062
310,13,6,7,555,15.747769117355347
311,13,7,8,555,15.792648077011108
312,13,7,8,555,15.814590215682983
313,13,6,7,555,15.840519428253174
314,13,7,8,555,15.870440483093262
315,13,7,8,555,15.897809505462646
316,13,6,7,555,15.952636241912842
317,13,7,8,555,15.996519804000854
318,13,7,8,555,16.022449254989624
319,13,7,8,555,16.071889400482178
320,13,7,8,555,16.09679126739502
321,13,6,7,555,16.123719215393066
322,13,7,8,555,16.173593759536743
323,13,7,8,555,16.29374408721924
324,13,6,7,555,16.351484537124634
325,13,7,8,555,16.39852786064148
326,13,7,8,555,16.451542615890503
327,13,5,32,555,16.589377880096436
328,13,6,6,555,16.669164419174194
329,13,6,6,555,16.7070631980896
330,13,5,6,555,16.752017736434937
331,13,6,6,555,16.81677007675171
332,13,6,6,555,16.865926265716553
333,13,7,32,555,17.05387830734253
334,13,7,7,555,17.345576286315918
335,13,7,7,555,17.499164819717407
336,13,7,7,555,17.884511947631836
337,13,7,7,555,18.181776523590088
338,13,7,7,555,18.30491018295288
339,13,6,32,555,18.401166677474976
340,13,6,6,555,18.62164878845215
341,13,6,6,555,18.75081515312195
342,13,6,6,555,18.890055418014526
343,13,6,6,555,19.025723218917847
344,13,6,6,555,19.181434631347656
345,13,6,32,555,19.328059196472168
346,13,6,7,555,19.3609721660614
347,13,7,32,555,19.462871551513672
348,13,7,8,555,19.498775243759155
349,13,7,8,555,19.54764437675476
350,13,7,8,555,19.59594988822937
351,13,7,8,555,19.639832735061646
352,13,7,8,555,19.6900372505188
353,13,7,8,555,19.7339186668396
354,13,7,8,555,19.815720081329346
355,13,7,8,555,19.873565435409546
356,13,7,8,555,19.923431873321533
357,13,6,32,555,20.019599437713623
358,13,7,32,555,20.1053683757782
359,13,7,8,555,20.146259546279907
360,13,7,8,555,20.21462345123291
361,13,7,8,555,20.28402018547058
362,14,5,32,555,20.501439094543457
363,14,5,8,555,20.530362129211426
364,14,5,8,555,20.571372985839844
365,14,5,8,555,20.61921787261963
366,14,5,8,555,20.696727514266968
367,14,5,8,555,20.74502396583557
368,16,7,32,555,20.97521424293518
369,16,7,8,555,21.018100023269653
370,16,6,8,555,21.037076950073242
371,16,6,8,555,21.128066778182983
372,16,7,8,555,21.15200161933899
373,16,6,8,555,21.17593765258789
374,16,7,8,555,21.25032329559326
375,16,6,8,555,21.26521325111389
376,16,6,8,555,21.34001326560974
377,16,6,8,555,21.370930194854736
378,17,6,32,555,21.55369520187378
379,17,6,7,555,21.590596675872803
380,17,6,7,555,21.617525100708008
381,17,6,7,555,21.636473894119263
382,17,6,7,555,21.69332218170166
383,17,6,7,555,21.721247673034668
384,17,6,7,555,21.752416372299194
385,17,6,7,555,21.780089855194092
386,17,6,7,555,21.806020498275757
387,17,6,7,555,21.864197254180908
388,17,6,7,555,21.89315366744995
389,17,6,7,555,21.914063215255737
390,17,6,7,555,21.969019651412964
391,17,6,7,555,21.996996879577637
392,17,6,7,555,22.027862310409546
393,17,6,7,555,22.052794218063354
394,17,6,7,555,22.073846101760864
395,18,7,32,555,22.24093222618103
396,18,6,9,555,22.320356607437134
397,18,6,9,555,22.533215284347534
398,18,6,9,555,22.69065761566162
399,18,6,9,555,22.931081533432007
400,18,6,9,555,23.131978511810303
401,18,6,9,555,23.282122135162354
402,18,7,7,555,23.451955556869507
403,18,7,32,555,23.599535703659058
404,18,7,7,555,23.666626930236816
405,18,7,7,555,23.760457515716553
406,18,7,7,555,23.822210550308228
407,18,7,32,555,23.93193769454956
408,18,7,9,555,23.968839168548584
409,18,7,9,555,24.00141930580139
410,18,7,9,555,24.046631813049316
411,18,7,32,555,24.175604820251465
412,18,6,9,555,24.223613262176514
413,18,6,9,555,24.242559909820557
414,18,6,9,555,24.260512351989746
415,18,6,8,555,24.298410892486572
416,18,6,8,555,24.326337099075317
417,18,6,8,555,24.355258464813232
418,18,7,9,555,24.379000663757324
419,18,7,9,555,24.41925621032715
420,18,6,8,555,24.51125741004944
421,18,6,7,555,24.539007425308228
422,18,7,9,555,24.57802677154541
423,18,6,9,555,24.597020626068115
424,18,6,9,555,24.62290596961975
425,18,6,9,555,24.641857385635376
426,18,6,8,555,24.675861835479736
427,18,6,8,555,24.702789783477783
428,18,6,8,555,24.729717254638672
429,18,7,9,555,24.753653526306152
430,18,7,9,555,24.786612033843994
431,18,6,8,555,24.85351324081421
432,18,6,7,555,24.87953472137451
433,18,6,32,555,24.98535990715027
434,18,6,7,555,25.016274213790894
435,18,5,32,555,25.166178226470947
436,18,5,7,555,25.195100784301758
437,18,5,7,555,25.217089653015137
438,18,5,7,555,25.238982915878296
439,18,5,7,555,25.26491355895996
440,18,5,7,555,25.28785228729248
441,18,5,32,555,25.38559079170227
442,18,5,8,555,25.412518739700317
443,18,5,8,555,25.43944764137268
444,18,5,8,555,25.47387456893921
445,18,5,8,555,25.505788803100586
446,18,5,8,555,25.547677040100098
447,18,5,32,555,25.636979818344116
448,18,5,8,555,25.66889524459839
449,18,7,8,555,25.69339609146118
450,18,6,8,555,25.723315477371216
451,18,6,8,555,25.750245571136475
452,18,7,8,555,25.799657344818115
453,18,6,8,555,25.832571029663086
454,18,6,9,555,25.868473529815674
455,18,6,9,555,25.931823253631592
456,18,6,32,555,26.04508924484253
457,18,6,7,555,26.07495880126953
458,18,6,7,555,26.09091544151306
459,18,6,6,555,26.122925996780396
460,18,6,6,555,26.16272497177124
461,18,6,32,555,26.263782024383545
462,18,6,8,555,26.306854963302612
463,18,6,8,555,26.32987880706787
464,18,6,6,555,26.349740743637085
465,18,6,8,555,26.386979341506958
466,18,6,8,555,26.407865047454834
467,18,7,32,555,26.49862241744995
468,18,7,9,555,26.539512634277344
469,18,6,9,555,26.564446210861206
470,18,6,8,555,26.62528371810913
471,18,6,9,555,26.690109968185425
472,18,6,8,555,26.72202491760254
473,18,6,32,555,26.8541100025177
474,18,6,9,555,26.891979932785034
475,18,6,9,555,26.935895919799805
476,18,6,9,555,26.98061990737915
477,18,6,9,555,27.02549958229065
478,18,6,9,555,27.0663902759552
479,18,6,32,555,27.193471431732178
480,18,6,8,555,27.234030961990356
481,18,6,8,555,27.259992361068726
482,18,6,8,555,27.35928201675415
483,18,6,8,555,27.3825581073761
484,18,6,7,555,27.42966914176941
485,18,6,8,555,27.49349856376648
486,18,6,8,555,27.519429206848145
487,18,6,7,555,27.555333137512207
488,18,6,8,555,27.677102088928223
489,18,6,8,555,27.701471090316772
490,18,6,7,555,27.738399744033813
491,18,6,8,555,27.798211574554443
492,18,6,8,555,27.817161083221436
493,18,6,7,555,27.862555027008057
494,18,6,8,555,27.923489093780518
495,18,6,8,555,27.945404767990112
496,18,6,7,555,27.983739137649536
497,18,6,32,555,28.107544422149658
498,18,6,9,555,28.14640760421753
499,18,7,9,555,28.163541555404663
500,18,6,9,555,28.183325052261353
501,18,6,9,555,28.20925521850586
502,18,6,8,555,28.23418951034546
503,18,6,8,555,28.259122133255005
504,18,6,9,555,28.29903745651245
505,18,6,8,555,28.333943605422974
506,18,6,9,555,28.357879400253296
507,18,7,9,555,28.382137537002563
508,18,6,9,555,28.401076555252075
509,18,6,9,555,28.426008701324463
510,18,6,8,555,28.4499454498291
511,18,6,8,555,28.473880290985107
512,18,6,8,555,28.529752492904663
513,18,6,32,555,28.653934717178345
514,18,6,9,555,28.69783616065979
515,18,6,9,555,28.905373573303223
516,18,6,9,555,28.972236156463623
517,18,6,9,555,29.118765592575073
518,18,6,9,555,29.203763723373413
519,18,6,9,555,29.378775358200073
520,18,6,9,555,29.5639591217041
521,18,6,9,555,29.636034965515137
522,18,6,9,555,29.78507709503174
523,18,6,32,555,30.11432671546936
524,18,6,8,555,30.151222944259644
525,18,6,8,555,30.172170639038086
526,18,6,8,555,30.19511103630066
527,18,6,8,555,30.219040632247925
528,18,6,8,555,30.23898696899414
529,18,6,7,555,30.25797200202942
530,18,6,8,555,30.288923501968384
531,18,6,8,555,30.310124397277832
532,18,6,8,555,30.33503222465515
533,18,6,7,555,30.355013847351074
534,18,6,8,555,30.378945350646973
535,18,6,8,555,30.401883363723755
536,18,6,8,555,30.42681336402893
537,18,6,8,555,30.45175266265869
538,18,6,8,555,30.470697164535522
539,18,6,7,555,30.489647150039673
540,18,6,8,555,30.522229194641113
541,18,6,8,555,30.542043209075928
542,18,6,8,555,30.567944765090942
543,18,6,32,555,30.698277473449707
544,19,7,32,555,30.94262385368347
545,19,7,8,555,31.020578622817993
546,19,7,32,555,31.1899311542511
547,19,6,8,555,31.227858304977417
548,19,7,8,555,31.2547869682312
549,19,6,8,555,31.291757583618164
550,19,7,32,555,31.4552218914032
551,19,7,8,555,31.48514175415039
552,19,7,8,555,31.511072397232056
553,19,7,8,555,31.571909427642822
554,19,7,8,555,31.595845699310303
555,19,7,8,555,31.66234016418457
556,19,7,8,555,31.73115873336792
557,19,7,8,555,31.76007890701294
558,19,7,32,555,31.903449773788452
559,19,6,8,555,31.946360111236572
560,19,6,8,555,32.015235900878906
561,19,7,9,555,32.03830337524414
562,19,7,32,555,32.18991279602051
563,19,6,8,555,32.227213859558105
564,19,6,8,555,32.25311851501465
565,19,7,8,555,32.272125005722046
566,19,7,8,555,32.29301047325134
567,19,7,9,555,32.32794499397278
568,19,7,9,555,32.35684156417847
569,19,6,9,555,32.38476634025574
570,19,6,7,555,32.42021441459656
571,19,6,8,555,32.463130235672
572,19,7,9,555,32.493016481399536
573,19,6,8,555,32.557251930236816
574,19,6,8,555,32.59503722190857
575,19,7,8,555,32.61897325515747
576,19,7,8,555,32.64091444015503
577,19,7,9,555,32.679810762405396
578,19,7,9,555,32.70685362815857
579,19,6,9,555,32.742926597595215
580,19,6,7,555,32.78681015968323
581,19,6,8,555,32.82075119018555
582,20,7,32,555,33.1209831237793
583,20,6,9,555,33.17783069610596
584,20,7,9,555,33.326228618621826
585,20,7,9,555,33.366093158721924
586,20,6,9,555,33.40897846221924
587,20,6,9,555,33.42593312263489
588,20,6,9,555,33.44588088989258
589,20,6,9,555,33.46183657646179
590,20,6,9,555,33.48677062988281
591,20,6,9,555,33.51616621017456
592,20,6,9,555,33.53624987602234
593,20,6,9,555,33.577003955841064
594,20,6,9,555,33.61590075492859
595,20,6,8,555,33.657787799835205
596,20,7,9,555,33.757035970687866
597,20,6,8,555,33.82578706741333
598,20,7,8,555,33.846742153167725
599,20,6,9,555,33.91226553916931
600,20,6,8,555,34.02197217941284
601,20,7,9,555,34.04191851615906
602,20,7,9,555,34.110756635665894
603,20,6,9,555,34.17057490348816
604,20,7,9,555,34.295241355895996
605,20,7,9,555,34.324723958969116
606,20,6,9,555,34.35666537284851
607,20,6,9,555,34.37074255943298
608,20,6,9,555,34.38769173622131
609,20,6,9,555,34.40265440940857
610,20,6,9,555,34.427557945251465
611,20,6,9,555,34.44950032234192
612,20,6,9,555,34.466482400894165
613,20,6,9,555,34.504353284835815
614,20,6,9,555,34.54125380516052
615,20,6,8,555,34.57915234565735
616,20,7,9,555,34.60209131240845
617,20,7,9,555,34.692590951919556
618,20,6,8,555,34.761643409729004
619,20,7,8,555,34.78056263923645
620,20,6,9,555,34.85079026222229
621,20,6,8,555,34.98384690284729
622,20,7,9,555,35.01170802116394
623,20,7,9,555,35.0872015953064
624,20,7,32,555,35.254780292510986
625,20,6,9,555,35.29874348640442
626,20,6,9,555,35.37501120567322
627,20,7,9,555,35.44482374191284
628,20,7,9,555,35.47874093055725
629,20,7,9,555,35.57121825218201
630,20,7,9,555,35.60113787651062
631,20,6,9,555,35.70788216590881
632,20,6,9,555,35.77634906768799
633,20,7,9,555,35.83998942375183
634,20,7,9,555,35.86891317367554
635,20,6,9,555,35.96957564353943
636,20,6,9,555,36.041837215423584
637,20,6,9,555,36.11511778831482
638,20,6,9,555,36.18197798728943
639,20,7,9,555,36.24283790588379
640,20,7,9,555,36.27275276184082
641,20,7,9,555,36.379554986953735
642,20,6,9,555,36.478310346603394
643,20,6,9,555,36.542139291763306
644,20,7,9,555,36.604971170425415
645,20,7,9,555,36.63489055633545
646,20,6,9,555,36.72468090057373
647,20,6,9,555,36.79150319099426
648,20,5,32,555,36.95717787742615
649,20,7,32,555,37.103596448898315
650,20,6,8,555,37.1345157623291
651,20,6,8,555,37.150471210479736
652,20,6,8,555,37.178422927856445
653,20,6,8,555,37.192386627197266
654,20,7,8,555,37.2273063659668
655,20,6,8,555,37.243223667144775
656,20,6,8,555,37.27516841888428
657,20,6,6,555,37.300071239471436
658,20,6,32,555,37.44667911529541
659,20,6,6,555,37.50951099395752
660,20,6,6,555,37.56735610961914
661,20,6,6,555,37.627808809280396
662,20,6,6,555,37.728501319885254
663,20,6,6,555,37.77968907356262
664,20,6,32,555,37.91531229019165
665,20,6,8,555,37.94673275947571
666,20,6,8,555,37.98167300224304
667,20,6,8,555,38.002583265304565
668,20,6,7,555,38.04470944404602
669,20,6,8,555,38.07342839241028
670,20,6,8,555,38.10331463813782
671,20,6,8,555,38.128562688827515
672,20,6,8,555,38.18045520782471
673,20,6,8,555,38.21136927604675
674,20,6,8,555,38.23258066177368
675,20,6,7,555,38.27047824859619
676,20,6,8,555,38.29641103744507
677,20,6,8,555,38.32507920265198
678,20,6,8,555,38.34613060951233
679,20,6,7,555,38.387059926986694
680,20,6,32,555,38.51960277557373
681,20,6,8,555,38.551517963409424
682,20,7,8,555,38.56647753715515
683,20,6,8,555,38.58277368545532
684,20,6,8,555,38.61901783943176
685,20,7,8,555,38.65189743041992
686,20,6,8,555,38.66984939575195
687,20,6,8,555,38.69793081283569
688,20,6,6,555,38.72089743614197
689,20,6,8,555,38.73971772193909
690,20,7,8,555,38.752686977386475
691,20,6,8,555,38.768614053726196
692,20,6,8,555,38.79357695579529
693,20,6,8,555,38.80651140213013
694,20,7,8,555,38.84297156333923
695,20,6,8,555,38.858954668045044
696,20,6,8,555,38.8888795375824
697,20,6,6,555,38.91580629348755
698,20,6,32,555,39.06050658226013
699,20,6,8,555,39.09631133079529
700,20,6,8,555,39.15924334526062
701,20,6,8,555,39.20711374282837
702,20,6,8,555,39.25102782249451
703,20,6,8,555,39.282915353775024
704,20,6,8,555,39.32797956466675
705,20,6,8,555,39.354910135269165
706,20,6,8,555,39.400827169418335
707,20,6,8,555,39.440810680389404
708,21,7,32,555,39.74071502685547
709,21,7,7,555,39.78060841560364
710,21,7,7,555,39.833905935287476
711,21,7,7,555,39.866891622543335
712,21,7,7,555,39.89574074745178
713,21,7,7,555,39.951624155044556
714,23,7,32,555,40.3534619808197
715,23,7,7,555,40.4093132019043
716,23,6,8,555,40.436527967453
717,23,6,8,555,40.456438302993774
718,23,6,8,555,40.48037648200989
719,23,7,9,555,40.51730704307556
720,23,6,8,555,40.56913709640503
721,23,6,8,555,40.594099044799805
722,23,7,9,555,40.619003772735596
723,23,6,8,555,40.67342519760132
724,23,6,8,555,40.69306755065918
725,23,7,9,555,40.72398638725281
726,23,7,9,555,40.74249315261841
727,23,7,9,555,40.761415243148804
728,23,6,9,555,40.79136872291565
729,23,7,8,555,40.83950662612915
730,23,7,9,555,40.90052366256714
731,23,7,7,555,40.97070074081421
732,23,7,7,555,41.00726127624512
733,23,6,8,555,41.05015683174133
734,23,6,8,555,41.0683171749115
735,23,6,8,555,41.0890474319458
736,23,7,9,555,41.11996507644653
737,23,6,8,555,41.169450759887695
738,23,6,8,555,41.19460654258728
739,23,7,9,555,41.21949338912964
740,23,6,8,555,41.26836276054382
741,23,6,8,555,41.28830909729004
742,23,7,9,555,41.31326866149902
743,23,7,9,555,41.35071277618408
744,23,7,9,555,41.37863850593567
745,23,6,9,555,41.39758920669556
746,23,7,8,555,41.45046806335449
747,23,7,9,555,41.50868034362793
748,25,7,32,555,42.01662468910217
749,25,7,9,555,42.13639855384827
750,25,7,9,555,42.281535387039185
751,25,7,9,555,42.43832230567932
752,25,7,9,555,42.590252161026
753,25,7,9,555,42.839303731918335
754,25,6,32,555,43.06597661972046
755,25,6,8,555,43.101845264434814
756,25,6,8,555,43.14675831794739
757,25,6,8,555,43.18761873245239
758,25,6,8,555,43.261449337005615
759,25,6,8,555,43.30533289909363
760,25,6,32,555,43.47998785972595
761,25,6,9,555,43.53683543205261
762,25,6,9,555,43.58872985839844
763,25,6,9,555,43.91238236427307
764,25,6,9,555,43.95939540863037
765,25,6,9,555,44.186819076538086
766,25,6,9,555,44.21274971961975
767,25,6,9,555,44.48365235328674
768,25,6,9,555,44.78250432014465
769,25,6,9,555,44.829410552978516
770,25,6,9,555,45.06340193748474
771,25,6,9,555,45.10524940490723
772,25,6,32,555,45.45862102508545
773,25,6,7,555,45.49053716659546
774,25,6,7,555,45.53001308441162
775,25,6,7,555,45.58754014968872
776,26,6,32,555,45.91215181350708
777,26,6,8,555,45.96730661392212
778,26,6,8,555,46.02216172218323
779,26,6,7,555,46.070584535598755
780,26,6,8,555,46.10647916793823
781,26,6,7,555,46.14736986160278
782,26,6,8,555,46.1802818775177
783,26,6,8,555,46.233179569244385
784,26,6,8,555,46.28735113143921
785,26,6,7,555,46.33023524284363
786,26,7,32,555,46.5188512802124
787,26,6,9,555,46.58406138420105
788,26,6,9,555,46.62348985671997
789,26,7,8,555,46.63941526412964
790,26,7,8,555,46.713380098342896
791,26,6,9,555,46.87880492210388
792,26,6,9,555,46.91770148277283
793,26,7,8,555,46.93763589859009
794,26,7,8,555,47.06546998023987
795,26,6,9,555,47.16411066055298
796,26,6,9,555,47.253737926483154
797,26,7,8,555,47.32860016822815
798,26,7,8,555,47.35150671005249
799,26,6,9,555,47.42689061164856
800,26,6,9,555,47.46233510971069
801,26,7,8,555,47.47929000854492
802,26,7,8,555,47.54514265060425
803,26,6,9,555,47.69121766090393
804,26,6,9,555,47.724148988723755
805,26,7,8,555,47.741047620773315
806,26,7,8,555,47.814903259277344
807,26,6,9,555,47.96756553649902
808,26,6,9,555,48.00666356086731
809,26,7,8,555,48.02558517456055
810,27,6,32,555,48.54833626747131
811,27,6,7,555,48.59175109863281
812,27,6,6,555,48.62668800354004
813,27,6,7,555,48.651591300964355
814,27,6,7,555,48.687493562698364
815,27,6,6,555,48.74242973327637
816,27,7,32,555,48.926708698272705
817,27,7,8,555,49.0687358379364
818,27,7,9,555,49.19041299819946
819,27,7,9,555,49.48062586784363
820,27,7,9,555,49.59074902534485
821,27,7,8,555,49.87243890762329
822,27,7,9,555,49.969144105911255
823,27,7,8,555,50.25840759277344
824,27,7,9,555,50.35211992263794
825,27,7,8,555,50.6310396194458
826,27,7,9,555,50.72486639022827
827,27,7,9,555,51.0723876953125
828,27,7,32,555,51.445327281951904
829,27,6,9,555,51.4961895942688
830,27,6,9,555,51.51511073112488
831,27,7,9,555,51.53125786781311
832,27,6,9,555,51.557756423950195
833,27,6,9,555,51.59169316291809
834,27,6,9,555,51.61264204978943
835,27,6,9,555,51.64252972602844
836,27,6,8,555,51.680036783218384
837,27,6,8,555,51.71295642852783
838,27,6,9,555,51.74984908103943
839,27,6,9,555,51.80101203918457
840,27,6,7,555,51.82362461090088
841,27,6,7,555,51.85154962539673
842,27,6,9,555,51.88397550582886
843,27,6,9,555,51.90491962432861
844,27,6,9,555,51.92686104774475
845,27,6,9,555,51.9557831287384
846,27,6,9,555,51.97476124763489
847,27,6,9,555,51.998668909072876
848,27,6,8,555,52.02764105796814
849,27,6,8,555,52.05554795265198
850,27,6,9,555,52.0931134223938
851,27,6,9,555,52.132052183151245
852,27,6,7,555,52.15402579307556
853,27,6,7,555,52.176931858062744
854,27,6,32,555,52.36482524871826
855,27,6,8,555,52.41169548034668
856,27,7,8,555,52.425759077072144
857,27,6,8,555,52.45269250869751
858,27,6,8,555,52.469642162323
859,27,6,8,555,52.5025680065155
860,27,6,8,555,52.520519495010376
861,27,6,7,555,52.55243396759033
862,27,7,8,555,52.61726188659668
863,27,7,8,555,52.649203300476074
864,27,6,8,555,52.666157960891724
865,27,6,8,555,52.71004056930542
866,27,6,6,555,52.74298405647278
867,27,6,8,555,52.764890909194946
868,27,7,8,555,52.77885675430298
869,27,6,8,555,52.807053565979004
870,27,6,8,555,52.820048570632935
871,27,6,8,555,52.848968267440796
872,27,6,7,555,52.88013935089111
873,27,7,8,555,52.93972587585449
874,27,7,8,555,52.96862006187439
875,27,6,8,555,52.98508596420288
876,27,6,8,555,53.03100919723511
877,27,6,6,555,53.06275749206543
878,27,5,32,555,53.23857831954956
879,27,5,32,555,53.47136402130127
880,27,5,9,555,53.52125811576843
881,27,5,9,555,53.64789080619812
882,27,5,9,555,53.78709101676941
883,27,5,9,555,54.009459257125854
884,27,5,9,555,54.15011119842529
885,27,6,32,555,54.44431710243225
886,27,6,10,555,54.49402928352356
887,27,6,9,555,54.51897120475769
888,27,7,9,555,54.535884380340576
889,27,6,10,555,54.60670733451843
890,27,6,9,555,54.62864899635315
891,27,7,9,555,54.64563035964966
892,27,6,10,555,54.71271896362305
893,27,6,9,555,54.734474420547485
894,27,7,9,555,54.749465465545654
895,27,6,10,555,54.823615074157715
896,27,7,9,555,54.85257935523987
897,27,6,10,555,54.92933440208435
898,27,6,9,555,54.95629143714905
899,27,7,9,555,54.97223925590515
900,27,6,10,555,55.04353928565979
901,27,6,9,555,55.06847620010376
902,27,7,9,555,55.08543014526367
903,27,7,32,555,55.305681228637695
904,27,7,7,555,55.34565329551697
905,27,7,7,555,55.378586292266846
906,27,7,7,555,55.411524295806885
907,27,7,7,555,55.456429958343506
908,27,7,7,555,55.48735165596008
909,29,6,32,555,56.100566148757935
910,29,6,10,555,56.17835450172424
911,29,6,9,555,56.24015545845032
912,29,6,10,555,56.39764928817749
913,29,6,9,555,56.44751596450806
914,29,6,10,555,56.59792733192444
915,29,6,9,555,56.644002199172974
916,29,6,10,555,56.789469718933105
917,29,6,9,555,56.83473205566406
918,29,6,10,555,56.98037123680115
919,29,6,9,555,57.03716969490051
920,29,6,10,555,57.18390989303589
921,29,5,32,555,57.52492666244507
922,29,5,5,555,57.56282567977905
923,29,7,32,555,57.768759965896606
924,29,7,8,555,57.83384656906128
925,29,7,8,555,58.705912590026855
926,29,7,8,555,59.10612154006958
927,29,7,8,555,59.50692558288574
928,29,7,8,555,59.902873039245605
929,30,6,32,555,60.61057186126709
930,30,6,8,555,60.67839026451111
931,30,6,8,555,60.768415689468384
932,30,6,8,555,60.862929344177246
933,30,6,8,555,60.94371271133423
934,30,6,8,555,61.03244495391846
935,31,5,32,555,61.49257826805115
936,31,5,8,555,61.53247284889221
937,31,5,8,555,61.566381216049194
938,31,5,8,555,61.596378803253174
939,31,5,8,555,61.64977145195007
940,31,5,8,555,61.678693532943726
941,31,8,32,555,61.85827040672302
942,31,6,9,555,61.91212844848633
943,31,8,9,555,62.02142357826233
944,31,6,9,555,62.09758234024048
945,31,8,9,555,62.19888472557068
946,31,6,9,555,62.27522611618042
947,31,8,9,555,62.37955832481384
948,31,6,9,555,62.45339775085449
949,31,6,9,555,62.60798406600952
950,31,8,9,555,62.69715690612793
951,31,6,9,555,62.76505732536316
952,31,8,9,555,62.85479664802551
953,35,6,32,555,63.90254735946655
954,35,6,8,555,63.95643496513367
955,35,6,8,555,63.98240900039673
956,35,6,8,555,64.02928256988525
957,35,6,9,555,64.05920505523682
958,35,6,8,555,64.11203145980835
959,35,6,8,555,64.13842415809631
960,35,6,8,555,64.18622779846191
961,35,6,9,555,64.21511840820312
962,35,6,8,555,64.26977562904358
963,35,6,8,555,64.29270815849304
964,35,6,8,555,64.33886241912842
965,35,6,9,555,64.36648035049438
966,35,6,8,555,64.41933703422546
967,35,6,8,555,64.4399745464325
968,35,6,9,555,64.50184106826782
969,35,6,8,555,64.55490112304688
970,35,6,8,555,64.57487392425537
971,35,6,8,555,64.61298489570618
972,35,6,9,555,64.63928580284119
973,35,6,8,555,64.69115447998047
974,35,6,8,555,64.71106266975403
975,35,6,8,555,64.74758720397949
976,35,6,9,555,64.77168679237366
977,35,6,32,555,64.99713492393494
978,35,6,9,555,65.05177474021912
979,35,6,6,555,65.16924333572388
980,35,6,9,555,65.21711349487305
981,35,6,6,555,65.34879493713379
982,35,6,9,555,65.3986554145813
983,35,6,6,555,65.52963590621948
984,35,6,9,555,65.58733773231506
985,35,6,9,555,65.74598097801208
986,35,6,6,555,65.88760209083557
987,35,6,9,555,65.93543791770935
988,35,6,6,555,66.04795980453491
989,35,7,32,555,66.29889154434204
990,35,7,8,555,66.3766827583313
991,35,6,9,555,66.41956877708435
992,35,6,9,555,66.45198678970337
993,35,6,9,555,66.47888422012329
994,35,7,9,555,66.52378869056702
995,35,7,8,555,66.9884397983551
996,35,7,8,555,67.14735388755798
997,35,6,9,555,67.19220471382141
998,35,6,9,555,67.22814083099365
999,35,6,9,555,67.26320171356201
1000,35,7,8,555,67.91221642494202
1001,35,6,9,555,67.95371150970459
1002,35,6,9,555,67.98662567138672
1003,35,6,9,555,68.01950740814209
1004,35,7,9,555,68.06961345672607
1005,35,7,8,555,68.60088324546814
1006,35,7,8,555,68.78810715675354
1007,35,6,9,555,68.84193873405457
1008,35,6,9,555,68.87983703613281
1009,35,6,9,555,68.91574215888977
1010,35,7,9,555,68.97361373901367
1011,35,7,8,555,69.47034335136414
1012,35,6,9,555,69.67934823036194
1013,35,6,9,555,69.71325755119324
1014,35,6,9,555,69.74616861343384
1015,35,7,8,555,70.36424827575684
1016,35,6,9,555,70.40638017654419
1017,35,6,9,555,70.44113349914551
1018,35,6,9,555,70.47195839881897
1019,35,7,9,555,70.5128481388092
1020,35,7,8,555,71.01371955871582
1021,38,7,32,555,72.23153448104858
1022,38,7,9,555,72.39988875389099
1023,38,7,9,555,72.55447435379028
1024,38,7,9,555,72.70279335975647
1025,38,7,9,555,72.90749454498291
1026,38,7,9,555,73.0175211429596
1027,39,7,32,555,73.75097131729126
1028,39,7,9,555,74.14607763290405
1029,39,7,9,555,74.45779252052307
1030,39,7,9,555,74.7493543624878
1031,39,7,9,555,75.01724052429199
1032,39,7,9,555,75.53280901908875
1033,40,6,32,555,76.07649612426758
1034,40,6,8,555,76.16229462623596
1035,40,6,7,555,76.21172523498535
1036,40,7,8,555,76.24860525131226
1037,40,6,8,555,76.31597137451172
1038,40,6,7,555,76.35982608795166
1039,40,7,8,555,76.38974595069885
1040,40,6,8,555,76.44958662986755
1041,40,6,7,555,76.49648189544678
1042,40,7,8,555,76.53138828277588
1043,40,6,8,555,76.58661675453186
1044,40,6,7,555,76.62809824943542
1045,40,7,8,555,76.66699123382568
1046,40,6,8,555,76.7298231124878
1047,40,6,7,555,76.77769589424133
1048,40,7,8,555,76.81260180473328
1049,40,6,8,555,76.86446285247803
1050,40,7,8,555,76.92480444908142
1051,41,8,32,555,77.54246544837952
1052,41,8,9,555,77.64171075820923
1053,41,8,9,555,77.7363121509552
1054,41,8,9,555,77.8253321647644
1055,41,8,9,555,77.98280644416809
1056,41,8,9,555,78.06456017494202
1057,41,6,32,555,78.38363456726074
1058,41,6,7,555,78.4743902683258
1059,41,6,7,555,78.65552616119385
1060,41,6,7,555,78.824378490448
1061,41,6,7,555,79.13237881660461
1062,41,6,7,555,79.28962469100952
1063,41,5,32,555,79.66913557052612
1064,41,5,9,555,79.74494576454163
1065,41,5,9,555,80.01213192939758
1066,41,5,9,555,80.29752659797668
1067,41,5,9,555,80.53438091278076
1068,41,5,9,555,80.79808807373047
1069,41,6,32,555,81.52854132652283
1070,41,6,10,555,81.6077356338501
1071,41,6,10,555,82.39839339256287
1072,41,6,10,555,83.16255688667297
1073,41,6,10,555,83.93791174888611
1074,41,6,10,555,84.69855070114136
1075,41,7,32,555,86.4592273235321
1076,41,6,9,555,86.5609347820282
1077,41,7,9,555,86.59781098365784
1078,41,6,9,555,87.00554513931274
1079,41,7,9,555,87.03657865524292
1080,41,6,9,555,87.425710439682
1081,41,7,9,555,87.45185971260071
1082,41,6,9,555,87.85690784454346
1083,41,7,9,555,87.88984823226929
1084,41,6,9,555,88.28674602508545
1085,41,7,9,555,88.3196587562561
1086,41,6,9,555,88.7280707359314
1087,41,5,32,555,89.33548974990845
1088,41,5,9,555,89.41427826881409
1089,41,5,9,555,89.99464964866638
1090,41,5,9,555,90.54658246040344
1091,41,5,9,555,91.6049439907074
1092,41,5,9,555,92.15415263175964
1093,45,6,32,555,94.03413915634155
1094,45,6,6,555,94.09697222709656
1095,45,6,10,555,94.14608788490295
1096,45,6,11,555,94.32604956626892
1097,45,6,6,555,94.56835222244263
1098,45,6,10,555,94.6222083568573
1099,45,6,11,555,94.78477358818054
1100,45,6,10,555,95.02665448188782
1101,45,6,11,555,95.18630385398865
1102,45,6,10,555,95.40005898475647
1103,45,6,11,555,95.54920387268066
1104,45,6,6,555,95.75975298881531
1105,45,6,10,555,95.8004539012909
1106,45,6,11,555,95.96141195297241
1107,45,6,10,555,96.2064118385315
1108,45,6,11,555,96.36111855506897
1109,48,5,32,555,97.79851412773132
1110,48,5,9,555,97.87678790092468
1111,48,5,9,555,98.55111241340637
1112,48,5,9,555,99.20329403877258
1113,48,5,9,555,100.41932272911072
1114,48,5,9,555,101.09574913978577
1115,48,6,32,555,102.03902816772461
1116,48,6,9,555,102.1448061466217
1117,48,6,9,555,102.1737289428711
1118,48,6,9,555,102.51529693603516
1119,48,6,9,555,102.53725337982178
1120,48,6,10,555,102.89981436729431
1121,48,6,10,555,102.92372846603394
1122,48,6,9,555,103.19175982475281
1123,48,6,9,555,103.21267771720886
1124,48,6,9,555,103.52924728393555
1125,48,6,9,555,103.55304741859436
1126,48,6,10,555,103.9367880821228
1127,51,7,32,555,105.90065407752991
1128,51,7,11,555,106.35314798355103
1129,51,7,11,555,107.37616276741028
1130,51,7,11,555,108.61902856826782
1131,51,7,11,555,109.99825143814087
1132,51,7,11,555,111.1655580997467
1133,51,6,32,555,111.71061491966248
1134,51,6,8,555,111.79438757896423
1135,51,6,8,555,111.83794331550598
1136,51,6,8,555,111.88562035560608
1137,51,6,8,555,111.93172645568848
1138,51,6,8,555,111.98255610466003
1139,51,5,32,555,112.45765447616577
1140,51,5,6,555,112.52193284034729
1141,51,6,6,555,112.5418529510498
1142,51,6,6,555,112.57077503204346
1143,53,6,32,555,113.84287452697754
1144,53,6,9,555,113.92196559906006
1145,53,6,9,555,114.13459753990173
1146,53,6,9,555,114.31229376792908
1147,53,6,9,555,114.51685166358948
1148,53,6,9,555,114.70636320114136
1149,54,8,32,555,116.03018379211426
1150,54,6,9,555,116.12738728523254
1151,54,8,10,555,116.25040316581726
1152,54,6,9,555,117.42872047424316
1153,54,8,10,555,117.79609966278076
1154,54,6,9,555,119.09991121292114
1155,54,8,10,555,119.3568263053894
1156,54,6,9,555,120.16083884239197
1157,54,8,10,555,120.31407356262207
1158,54,6,9,555,121.43751120567322
1159,54,8,10,555,121.685950756073
1160,54,6,9,555,123.095627784729
1161,54,6,32,555,124.08169794082642
1162,54,6,9,555,124.17046070098877
1163,54,6,9,555,124.31937265396118
1164,54,6,9,555,124.471022605896
1165,54,6,9,555,124.67194557189941
1166,54,6,9,555,124.96411204338074
1167,55,7,32,555,126.57617378234863
1168,55,6,10,555,126.69883847236633
1169,55,7,10,555,126.9095230102539
1170,55,6,10,555,127.04514145851135
1171,55,7,10,555,127.25449228286743
1172,55,6,10,555,127.3975191116333
1173,55,7,10,555,127.57415390014648
1174,55,6,10,555,127.69452238082886
1175,55,7,10,555,127.91824197769165
1176,55,6,10,555,128.2812581062317
1177,55,7,10,555,128.71010375022888
1178,55,6,10,555,128.99916076660156
1179,55,8,32,555,130.57414054870605
1180,55,8,10,555,131.18110346794128
1181,55,8,10,555,133.17194962501526
1182,55,8,10,555,134.23269295692444
1183,55,8,10,555,135.28022575378418
1184,55,8,10,555,136.38622283935547
1185,55,6,32,555,138.5633409023285
1186,55,6,10,555,138.71305465698242
1187,55,6,10,555,139.65398740768433
1188,55,6,10,555,139.78720903396606
1189,55,6,10,555,140.66709780693054
1190,55,6,10,555,140.80384492874146
1191,55,6,10,555,141.6910741329193
1192,55,6,10,555,141.8324658870697
1193,55,6,10,555,142.85032176971436
1194,55,6,10,555,143.02529096603394
1195,55,6,10,555,143.95931839942932
1196,55,6,10,555,145.03830122947693
1197,55,7,32,555,145.5165491104126
1198,55,6,8,555,145.59436917304993
1199,55,7,8,555,145.62326574325562
1200,55,6,8,555,145.6552596092224
1201,55,7,8,555,145.68210768699646
1202,55,6,8,555,145.7150468826294
1203,55,7,8,555,145.74194884300232
1204,55,6,8,555,145.77290844917297
1205,55,6,8,555,145.81477165222168
1206,55,7,8,555,145.84369134902954
1207,55,6,8,555,145.87712168693542
1208,55,7,8,555,145.90404987335205
1209,55,6,32,555,146.42649269104004
1210,55,6,9,555,146.59161281585693
1211,55,6,9,555,146.6305091381073
1212,55,6,9,555,147.25422382354736
1213,55,6,9,555,147.29344034194946
1214,55,6,9,555,147.9243574142456
1215,55,6,9,555,147.96431183815002
1216,55,6,9,555,148.54450798034668
1217,55,6,9,555,148.5853841304779
1218,55,6,9,555,149.2001030445099
1219,55,6,9,555,149.24096608161926
1220,55,6,9,555,149.87502670288086
1221,55,6,32,555,150.8766963481903
1222,55,6,9,555,150.98191714286804
1223,55,6,9,555,151.1129024028778
1224,55,6,9,555,151.34914374351501
1225,55,6,9,555,151.47385430335999
1226,55,6,9,555,151.59230256080627
1227,55,7,32,555,152.1736650466919
1228,55,6,9,555,152.32802081108093
1229,55,7,10,555,152.91090393066406
1230,55,6,9,555,154.39110326766968
1231,55,7,10,555,154.8938262462616
1232,55,6,9,555,156.37181448936462
1233,55,7,10,555,156.85311651229858
1234,55,6,9,555,158.32877039909363
1235,55,7,10,555,158.81592226028442
1236,55,6,9,555,160.23475861549377
1237,55,7,10,555,160.72208619117737
1238,55,6,9,555,162.1585283279419
1239,56,7,32,555,164.97639679908752
1240,56,6,9,555,165.06408524513245
1241,56,7,9,555,165.4335741996765
1242,56,6,9,555,165.76193261146545
1243,56,7,9,555,166.09623312950134
1244,56,6,9,555,166.40294098854065
1245,56,7,9,555,166.7301323413849
1246,56,6,9,555,167.1640818119049
1247,56,7,9,555,167.63233184814453
1248,56,6,9,555,167.9791796207428
1249,56,7,9,555,168.31483268737793
1250,56,6,9,555,168.64026284217834
1251,56,6,32,555,169.98007225990295
1252,56,6,9,555,170.09798097610474
1253,56,6,9,555,170.8907175064087
1254,56,6,9,555,171.6832718849182
1255,56,6,9,555,172.46026277542114
1256,56,6,9,555,173.1904640197754
1257,58,6,32,555,175.65132689476013
1258,58,6,7,555,175.73964262008667
1259,58,6,7,555,175.8032364845276
1260,58,6,7,555,175.8678526878357
1261,58,6,7,555,175.972163438797
1262,58,6,7,555,176.0320019721985
1263,58,5,32,555,176.41473865509033
1264,58,5,8,555,176.48818349838257
1265,58,5,8,555,177.1256754398346
1266,58,5,8,555,177.83578252792358
1267,58,5,8,555,178.45105028152466
1268,58,5,8,555,179.02300024032593
1269,58,6,32,555,180.5502598285675
1270,58,6,10,555,180.64400506019592
1271,58,6,10,555,181.34418272972107
1272,58,6,10,555,181.98681139945984
1273,58,6,10,555,182.65993809700012
1274,58,6,10,555,183.33247637748718
1275,58,6,32,555,184.92984771728516
1276,58,6,11,555,185.05421423912048
1277,58,6,11,555,185.48431062698364
1278,58,6,11,555,185.89195203781128
1279,58,6,11,555,186.28209447860718
1280,58,6,11,555,186.67004203796387
1281,58,6,11,555,187.10230445861816
1282,58,6,11,555,187.53153538703918
1283,58,6,11,555,187.96483635902405
1284,58,6,11,555,188.3595471382141
1285,58,6,11,555,188.75490593910217
1286,58,6,11,555,189.1562201976776
1287,58,6,32,555,190.63873672485352
1288,58,6,9,555,190.7494399547577
1289,58,6,9,555,191.2859673500061
1290,58,6,9,555,191.7888309955597
1291,58,6,9,555,192.27177047729492
1292,58,6,9,555,192.76333904266357
1293,58,7,32,555,194.1857612133026
1294,58,7,10,555,194.34309673309326
1295,58,7,10,555,194.50537586212158
1296,58,7,10,555,194.6630504131317
1297,58,7,10,555,194.81146478652954
1298,58,7,10,555,194.95707893371582
1299,58,5,32,555,195.9776418209076
1300,58,5,10,555,196.09533047676086
1301,58,5,10,555,197.3045642375946
1302,58,5,10,555,198.53256845474243
1303,58,5,10,555,199.62609219551086
1304,58,5,10,555,200.73060822486877
