EX_glc__D_e_rev
EX_h_e
EX_nh4_e_rev
EX_pi_e_rev
EX_so4_e_rev
EX_for_e,EX_h2o_e
EX_o2_e_rev,EX_succ_e
EX_etoh_e,EX_h2o_e,EX_o2_e_rev
EX_ac_e,EX_etoh_e,EX_glyclt_e,EX_h2o_e
EX_ac_e,EX_etoh_e,EX_lac__D_e,EX_o2_e_rev
EX_co2_e_rev,EX_etoh_e,EX_glyc_e,EX_h2o_e
EX_co2_e_rev,EX_etoh_e,EX_for_e,EX_lac__D_e,EX_o2_e_rev
EX_co2_e_rev,EX_etoh_e,EX_lac__D_e,EX_o2_e_rev,EX_val__L_e
EX_ac_e,EX_akg_e,EX_co2_e,EX_fum_e,EX_gly_e,EX_glyclt_e,EX_h2o_e,EX_succ_e
EX_ac_e,EX_ala__D_e,EX_ala__L_e,EX_co2_e,EX_for_e,EX_lac__D_e,EX_o2_e_rev,EX_pyr_e
EX_ac_e,EX_akg_e,EX_co2_e,EX_for_e,EX_fum_e,EX_glyclt_e,EX_lac__D_e,EX_pyr_e,EX_ser__L_e,EX_succ_e
EX_ac_e,EX_akg_e,EX_asn__L_e,EX_co2_e,EX_for_e,EX_fum_e,EX_lac__D_e,EX_pyr_e,EX_ser__L_e,EX_succ_e
EX_akg_e,EX_asn__L_e,EX_co2_e,EX_for_e,EX_fum_e,EX_lac__D_e,EX_pyr_e,EX_ser__L_e,EX_succ_e,EX_ura_e
EX_ac_e,EX_akg_e,EX_asn__L_e,EX_co2_e,EX_fum_e,EX_glu__L_e,EX_gly_e,EX_glyclt_e,EX_lac__D_e,EX_pyr_e,EX_ser__L_e,EX_succ_e,EX_ura_e
EX_ade_e,EX_adn_e,EX_akg_e,EX_asn__L_e,EX_co2_e,EX_cytd_e,EX_for_e,EX_fum_e,EX_glu__L_e,EX_gly_e,EX_gua_e,EX_his__L_e,EX_hxan_e,EX_ins_e,EX_pyr_e,EX_ser__L_e,EX_succ_e,EX_ura_e,EX_uri_e,EX_xan_e,EX_xtsn_e
