DM_ATPex_fap,0.0,309.03556111111106
DM_ATPex_srb,0.0,20.450882720588226
DM_ATPex_syn,0.0,618.0711222222225
DM_bm_fap,0.1,1.1444541538421094
DM_bm_srb,0.1,0.3180906210848817
DM_bm_syn,0.1,1.670647823320479
DM_glyox_syn,0.0,43.37341208576999
DM_polyglcex_gen,0.0,12.613696371882085
EX_CO2ex,0.0,986.2012000000001
EX_CO2ex_rev,13.79879999999983,1000.0
EX_H2Sex_gen,10.7112,1000.0
EX_H2Sex_gen_rev,0.0,989.2888
EX_H2ex_gen,0.0,1000.0
EX_H2ex_gen_rev,0.0,1000.0
EX_NH3ex_gen,-15.571854827026312,996.2460999999998
EX_O2ex_gen,34.89794999999994,1000.0
EX_O2ex_gen_rev,0.0,965.1020500000001
EX_SO4ex_gen,0.0,989.2888
EX_SO4ex_gen_rev,10.7112,1000.0
SK_NH3_syn,0.0,998.7487
SK_NH3_syn_rev,1.2513,1000.0
SK_PHB_fap,0.0,13.684231488314875
SK_hv_gen_rev,381.9288777777778,1000.0
fap1,0.006900000000000001,145.63388239795904
fap10,0.1472,179.49716249999992
fap11,0.147199999999998,104.5879816666666
fap12,0.0,104.4407816666666
fap13,0.0,179.34996249999998
fap14,-149.21620833333333,162.05859379960322
fap15,0.0,179.34996249999995
fap16,-121.12398854166665,58.496473958333354
fap17,0.0,177.90438606770834
fap18,0.0,309.9240277777777
fap19,0.0,130.50746597222212
fap2,-48.61939413265301,-0.07706666666661022
fap20,0.0,309.0355611111112
fap21,0.0,1000.0
fap21_rev,0.0,1000.0
fap22,0.0,1000.0
fap22_rev,0.0,1000.0
fap23,0.0,1000.0
fap24,1.2513,14.320554827026314
fap25,0.1,1.1444541538421094
fap26,0.0,343.3988011904762
fap27,0.0,75.1184877604167
fap28,0.0,46.86090975609757
fap29,0.0,309.03556111111124
fap3,0.2157666666666667,48.758094132653014
fap30,0.0,102.28855317460324
fap31,0.0,58.02023645833332
fap32,0.0,267.71200784313726
fap33,0.0,309.4412611111113
fap34,0.0,46.860909756097556
fap35,0.0,89.67498124999996
fap36,0.0,13.684231488314882
fap37,0.0,60.04054062499998
fap4,0.0,309.03556111111124
fap5,0.0,145.62698239795904
fap6,-0.8030253312792135,97.014488265306
fap7,0.07016666666663696,48.612494132653005
fap8,-0.09766008779452662,48.53379413265293
fap9,-0.7053652434847208,48.48069413265307
pool1,0.0,109.07137450980383
pool2,34.89795000000001,122.00319291666665
pool3,0.0,986.2012000000001
pool4,-1000.0,-13.798800000000028
srb1,0.0,22.073968650793635
srb10,0.0,21.31874938725489
srb11,0.1472,108.67484291666666
srb12,0.0,108.67484291666666
srb13,-0.46822939423691423,108.52764291666654
srb14,0.0,54.263821458333325
srb15,0.0,20.713847976190475
srb16,0.0,20.71384797619048
srb17,0.0,77.04315494281052
srb18,-19.440281309523797,8.631556216931244
srb19,0.0,239.52444460784324
srb2,0.07016666666666667,7.428156216931213
srb20,0.0,40.14315820105819
srb21,0.0,20.450882720588222
srb22,0.1,0.3180906210848817
srb23,0.0,1000.0
srb23_rev,0.0,1000.0
srb24,1.2513,3.9802679416351245
srb25,0.0,1000.0
srb25_rev,0.0,1000.0
srb26,0.0,20.450882720588226
srb27,0.0,20.93364938725489
srb28,0.0,20.450882720588222
srb29,0.0,60.04054062499998
srb3,-0.22319358579455867,14.645812433862375
srb4,-0.027143732999243234,7.34945621693123
srb5,-0.19604985279531542,7.296356216931258
srb6,0.0,20.9336493872549
srb7,0.21576666666666666,7.573756216931201
srb8,0.07706666666661022,7.43505621693123
srb9,0.006899999999973261,22.080868650793626
syn1,0.0,12.613696371882087
syn10,-97.81565757575754,-18.668290476190464
syn11,-97.86875757575753,-18.721390476190436
syn12,0.1472,75.0649117845118
syn13,0.0,961.169019047619
syn13_rev,38.83098095238097,1000.0
syn14,0.0,998.7487
syn15,0.0,618.0711222222224
syn16,0.1,1.670647823320479
syn17,38.72323095238094,125.0
syn18,0.0,77.6859590277778
syn19,0.3851,618.4562222222221
syn2,0.006900000000000001,206.0306074074073
syn20,34.897949999999994,124.57293124999998
syn21,0.0,46.86090975609757
syn22,0.0,46.860909756097556
syn23,0.6762000000000001,639.1085435483881
syn24,45.17366666666667,293.42137272727257
syn25,0.0,618.0711222222227
syn26,0.1472,75.06491178451178
syn27,0.0,74.91771178451181
syn28,0.0,74.91771178451174
syn29,0.0,43.37341208576999
syn3,37.39658095238098,663.0786306451615
syn30,0.0,618.0711222222224
syn31,0.0,60.040540624999984
syn32,0.0,37.458855892255876
syn33,0.0,310.7438361111105
syn4,-526.6423731182797,-93.51455238095241
syn5,0.0,618.0711222222226
syn6,0.2705,96.53355757575751
syn7,0.0,206.02370740740764
syn8,-195.68441515151505,-37.389680952380914
syn9,-97.73695757575753,-18.589590476190438
