<?xml version="1.0" encoding="utf-8" standalone="no"?>
<!DOCTYPE svg PUBLIC "-//W3C//DTD SVG 1.1//EN"
  "http://www.w3.org/Graphics/SVG/1.1/DTD/svg11.dtd">
<!-- Created with matplotlib (https://matplotlib.org/) -->
<svg height="533.1625pt" version="1.1" viewBox="0 0 771.54893 533.1625" width="771.54893pt" xmlns="http://www.w3.org/2000/svg" xmlns:xlink="http://www.w3.org/1999/xlink">
 <defs>
  <style type="text/css">
*{stroke-linecap:butt;stroke-linejoin:round;}
  </style>
 </defs>
 <g id="figure_1">
  <g id="patch_1">
   <path d="M -0 533.1625 
L 771.54893 533.1625 
L 771.54893 0 
L -0 0 
z
" style="fill:#ffffff;"/>
  </g>
  <g id="axes_1">
   <g id="patch_2">
    <path clip-path="url(#pafcd5430f4)" d="M 196.955536 7.2 
L 191.571307 7.2 
L 191.571307 7.2 
L 196.955536 7.2 
z
" style="fill:#a9373b;"/>
   </g>
   <g id="patch_3">
    <path clip-path="url(#pafcd5430f4)" d="M 196.955536 7.2 
L 191.571307 7.2 
L 191.571307 7.2 
L 196.955536 7.2 
z
" style="fill:#2369bd;"/>
   </g>
   <g id="LineCollection_1">
    <path clip-path="url(#pafcd5430f4)" d="M 194.263422 53.3475 
L 194.263422 53.3475 
L 194.263422 84.1125 
L 194.263422 84.1125 
" style="fill:none;stroke:#ffffff;stroke-width:0.5;"/>
    <path clip-path="url(#pafcd5430f4)" d="M 194.263422 22.5825 
L 194.263422 22.5825 
L 194.263422 68.73 
L 194.263422 68.73 
" style="fill:none;stroke:#ffffff;stroke-width:0.5;"/>
    <path clip-path="url(#pafcd5430f4)" d="M 194.263422 268.7025 
L 174.072563 268.7025 
L 174.072563 299.4675 
L 194.263422 299.4675 
" style="fill:none;stroke:#ffffff;stroke-width:0.5;"/>
    <path clip-path="url(#pafcd5430f4)" d="M 194.263422 237.9375 
L 173.338112 237.9375 
L 173.338112 284.085 
L 174.072563 284.085 
" style="fill:none;stroke:#ffffff;stroke-width:0.5;"/>
    <path clip-path="url(#pafcd5430f4)" d="M 194.263422 207.1725 
L 171.605903 207.1725 
L 171.605903 261.01125 
L 173.338112 261.01125 
" style="fill:none;stroke:#ffffff;stroke-width:0.5;"/>
    <path clip-path="url(#pafcd5430f4)" d="M 194.263422 176.4075 
L 171.340893 176.4075 
L 171.340893 234.091875 
L 171.605903 234.091875 
" style="fill:none;stroke:#ffffff;stroke-width:0.5;"/>
    <path clip-path="url(#pafcd5430f4)" d="M 194.263422 145.6425 
L 169.934888 145.6425 
L 169.934888 205.249687 
L 171.340893 205.249687 
" style="fill:none;stroke:#ffffff;stroke-width:0.5;"/>
    <path clip-path="url(#pafcd5430f4)" d="M 194.263422 114.8775 
L 169.166798 114.8775 
L 169.166798 175.446094 
L 169.934888 175.446094 
" style="fill:none;stroke:#ffffff;stroke-width:0.5;"/>
    <path clip-path="url(#pafcd5430f4)" d="M 194.263422 330.2325 
L 163.421376 330.2325 
L 163.421376 360.9975 
L 194.263422 360.9975 
" style="fill:none;stroke:#ffffff;stroke-width:0.5;"/>
    <path clip-path="url(#pafcd5430f4)" d="M 169.166798 145.161797 
L 159.663878 145.161797 
L 159.663878 345.615 
L 163.421376 345.615 
" style="fill:none;stroke:#ffffff;stroke-width:0.5;"/>
    <path clip-path="url(#pafcd5430f4)" d="M 194.263422 453.2925 
L 176.456759 453.2925 
L 176.456759 484.0575 
L 194.263422 484.0575 
" style="fill:none;stroke:#ffffff;stroke-width:0.5;"/>
    <path clip-path="url(#pafcd5430f4)" d="M 194.263422 422.5275 
L 168.78297 422.5275 
L 168.78297 468.675 
L 176.456759 468.675 
" style="fill:none;stroke:#ffffff;stroke-width:0.5;"/>
    <path clip-path="url(#pafcd5430f4)" d="M 194.263422 391.7625 
L 154.069092 391.7625 
L 154.069092 445.60125 
L 168.78297 445.60125 
" style="fill:none;stroke:#ffffff;stroke-width:0.5;"/>
    <path clip-path="url(#pafcd5430f4)" d="M 159.663878 245.388398 
L 134.559939 245.388398 
L 134.559939 418.681875 
L 154.069092 418.681875 
" style="fill:none;stroke:#ffffff;stroke-width:0.5;"/>
    <path clip-path="url(#pafcd5430f4)" d="M 194.263422 45.65625 
L 82.515803 45.65625 
L 82.515803 332.035137 
L 134.559939 332.035137 
" style="fill:none;stroke:#ffffff;stroke-width:0.5;"/>
   </g>
   <g id="legend_1">
    <g id="patch_4">
     <path d="M 9.95 274.832305 
L 120.439844 274.832305 
Q 123.189844 274.832305 123.189844 272.082305 
L 123.189844 234.557695 
Q 123.189844 231.807695 120.439844 231.807695 
L 9.95 231.807695 
Q 7.2 231.807695 7.2 234.557695 
L 7.2 272.082305 
Q 7.2 274.832305 9.95 274.832305 
z
" style="fill:#eaeaf2;opacity:0.8;stroke:#cccccc;stroke-linejoin:miter;"/>
    </g>
    <g id="patch_5">
     <path d="M 12.7 247.149687 
L 40.2 247.149687 
L 40.2 237.524687 
L 12.7 237.524687 
z
" style="fill:#a9373b;"/>
    </g>
    <g id="text_1">
     <!-- Consumed -->
     <defs>
      <path d="M 58.796875 25.09375 
L 68.265625 22.703125 
Q 65.28125 11.03125 57.546875 4.90625 
Q 49.8125 -1.21875 38.625 -1.21875 
Q 27.046875 -1.21875 19.796875 3.484375 
Q 12.546875 8.203125 8.765625 17.140625 
Q 4.984375 26.078125 4.984375 36.328125 
Q 4.984375 47.515625 9.25 55.828125 
Q 13.53125 64.15625 21.40625 68.46875 
Q 29.296875 72.796875 38.765625 72.796875 
Q 49.515625 72.796875 56.828125 67.328125 
Q 64.15625 61.859375 67.046875 51.953125 
L 57.71875 49.75 
Q 55.21875 57.5625 50.484375 61.125 
Q 45.75 64.703125 38.578125 64.703125 
Q 30.328125 64.703125 24.78125 60.734375 
Q 19.234375 56.78125 16.984375 50.109375 
Q 14.75 43.453125 14.75 36.375 
Q 14.75 27.25 17.40625 20.4375 
Q 20.0625 13.625 25.671875 10.25 
Q 31.296875 6.890625 37.84375 6.890625 
Q 45.796875 6.890625 51.3125 11.46875 
Q 56.84375 16.0625 58.796875 25.09375 
z
" id="ArialMT-67"/>
      <path d="M 3.328125 25.921875 
Q 3.328125 40.328125 11.328125 47.265625 
Q 18.015625 53.03125 27.640625 53.03125 
Q 38.328125 53.03125 45.109375 46.015625 
Q 51.90625 39.015625 51.90625 26.65625 
Q 51.90625 16.65625 48.90625 10.90625 
Q 45.90625 5.171875 40.15625 2 
Q 34.421875 -1.171875 27.640625 -1.171875 
Q 16.75 -1.171875 10.03125 5.8125 
Q 3.328125 12.796875 3.328125 25.921875 
z
M 12.359375 25.921875 
Q 12.359375 15.96875 16.703125 11.015625 
Q 21.046875 6.0625 27.640625 6.0625 
Q 34.1875 6.0625 38.53125 11.03125 
Q 42.875 16.015625 42.875 26.21875 
Q 42.875 35.84375 38.5 40.796875 
Q 34.125 45.75 27.640625 45.75 
Q 21.046875 45.75 16.703125 40.8125 
Q 12.359375 35.890625 12.359375 25.921875 
z
" id="ArialMT-111"/>
      <path d="M 6.59375 0 
L 6.59375 51.859375 
L 14.5 51.859375 
L 14.5 44.484375 
Q 20.21875 53.03125 31 53.03125 
Q 35.6875 53.03125 39.625 51.34375 
Q 43.5625 49.65625 45.515625 46.921875 
Q 47.46875 44.1875 48.25 40.4375 
Q 48.734375 37.984375 48.734375 31.890625 
L 48.734375 0 
L 39.9375 0 
L 39.9375 31.546875 
Q 39.9375 36.921875 38.90625 39.578125 
Q 37.890625 42.234375 35.28125 43.8125 
Q 32.671875 45.40625 29.15625 45.40625 
Q 23.53125 45.40625 19.453125 41.84375 
Q 15.375 38.28125 15.375 28.328125 
L 15.375 0 
z
" id="ArialMT-110"/>
      <path d="M 3.078125 15.484375 
L 11.765625 16.84375 
Q 12.5 11.625 15.84375 8.84375 
Q 19.1875 6.0625 25.203125 6.0625 
Q 31.25 6.0625 34.171875 8.515625 
Q 37.109375 10.984375 37.109375 14.3125 
Q 37.109375 17.28125 34.515625 19 
Q 32.71875 20.171875 25.53125 21.96875 
Q 15.875 24.421875 12.140625 26.203125 
Q 8.40625 27.984375 6.46875 31.125 
Q 4.546875 34.28125 4.546875 38.09375 
Q 4.546875 41.546875 6.125 44.5 
Q 7.71875 47.46875 10.453125 49.421875 
Q 12.5 50.921875 16.03125 51.96875 
Q 19.578125 53.03125 23.640625 53.03125 
Q 29.734375 53.03125 34.34375 51.265625 
Q 38.96875 49.515625 41.15625 46.5 
Q 43.359375 43.5 44.1875 38.484375 
L 35.59375 37.3125 
Q 35.015625 41.3125 32.203125 43.546875 
Q 29.390625 45.796875 24.265625 45.796875 
Q 18.21875 45.796875 15.625 43.796875 
Q 13.03125 41.796875 13.03125 39.109375 
Q 13.03125 37.40625 14.109375 36.03125 
Q 15.1875 34.625 17.484375 33.6875 
Q 18.796875 33.203125 25.25 31.453125 
Q 34.578125 28.953125 38.25 27.359375 
Q 41.9375 25.78125 44.03125 22.75 
Q 46.140625 19.734375 46.140625 15.234375 
Q 46.140625 10.84375 43.578125 6.953125 
Q 41.015625 3.078125 36.171875 0.953125 
Q 31.34375 -1.171875 25.25 -1.171875 
Q 15.140625 -1.171875 9.84375 3.03125 
Q 4.546875 7.234375 3.078125 15.484375 
z
" id="ArialMT-115"/>
      <path d="M 40.578125 0 
L 40.578125 7.625 
Q 34.515625 -1.171875 24.125 -1.171875 
Q 19.53125 -1.171875 15.546875 0.578125 
Q 11.578125 2.34375 9.640625 5 
Q 7.71875 7.671875 6.9375 11.53125 
Q 6.390625 14.109375 6.390625 19.734375 
L 6.390625 51.859375 
L 15.1875 51.859375 
L 15.1875 23.09375 
Q 15.1875 16.21875 15.71875 13.8125 
Q 16.546875 10.359375 19.234375 8.375 
Q 21.921875 6.390625 25.875 6.390625 
Q 29.828125 6.390625 33.296875 8.421875 
Q 36.765625 10.453125 38.203125 13.9375 
Q 39.65625 17.4375 39.65625 24.078125 
L 39.65625 51.859375 
L 48.4375 51.859375 
L 48.4375 0 
z
" id="ArialMT-117"/>
      <path d="M 6.59375 0 
L 6.59375 51.859375 
L 14.453125 51.859375 
L 14.453125 44.578125 
Q 16.890625 48.390625 20.9375 50.703125 
Q 25 53.03125 30.171875 53.03125 
Q 35.9375 53.03125 39.625 50.640625 
Q 43.3125 48.25 44.828125 43.953125 
Q 50.984375 53.03125 60.84375 53.03125 
Q 68.5625 53.03125 72.703125 48.75 
Q 76.859375 44.484375 76.859375 35.59375 
L 76.859375 0 
L 68.109375 0 
L 68.109375 32.671875 
Q 68.109375 37.9375 67.25 40.25 
Q 66.40625 42.578125 64.15625 43.984375 
Q 61.921875 45.40625 58.890625 45.40625 
Q 53.421875 45.40625 49.796875 41.765625 
Q 46.1875 38.140625 46.1875 30.125 
L 46.1875 0 
L 37.40625 0 
L 37.40625 33.6875 
Q 37.40625 39.546875 35.25 42.46875 
Q 33.109375 45.40625 28.21875 45.40625 
Q 24.515625 45.40625 21.359375 43.453125 
Q 18.21875 41.5 16.796875 37.734375 
Q 15.375 33.984375 15.375 26.90625 
L 15.375 0 
z
" id="ArialMT-109"/>
      <path d="M 42.09375 16.703125 
L 51.171875 15.578125 
Q 49.03125 7.625 43.21875 3.21875 
Q 37.40625 -1.171875 28.375 -1.171875 
Q 17 -1.171875 10.328125 5.828125 
Q 3.65625 12.84375 3.65625 25.484375 
Q 3.65625 38.578125 10.390625 45.796875 
Q 17.140625 53.03125 27.875 53.03125 
Q 38.28125 53.03125 44.875 45.953125 
Q 51.46875 38.875 51.46875 26.03125 
Q 51.46875 25.25 51.421875 23.6875 
L 12.75 23.6875 
Q 13.234375 15.140625 17.578125 10.59375 
Q 21.921875 6.0625 28.421875 6.0625 
Q 33.25 6.0625 36.671875 8.59375 
Q 40.09375 11.140625 42.09375 16.703125 
z
M 13.234375 30.90625 
L 42.1875 30.90625 
Q 41.609375 37.453125 38.875 40.71875 
Q 34.671875 45.796875 27.984375 45.796875 
Q 21.921875 45.796875 17.796875 41.75 
Q 13.671875 37.703125 13.234375 30.90625 
z
" id="ArialMT-101"/>
      <path d="M 40.234375 0 
L 40.234375 6.546875 
Q 35.296875 -1.171875 25.734375 -1.171875 
Q 19.53125 -1.171875 14.328125 2.25 
Q 9.125 5.671875 6.265625 11.796875 
Q 3.421875 17.921875 3.421875 25.875 
Q 3.421875 33.640625 6 39.96875 
Q 8.59375 46.296875 13.765625 49.65625 
Q 18.953125 53.03125 25.34375 53.03125 
Q 30.03125 53.03125 33.6875 51.046875 
Q 37.359375 49.078125 39.65625 45.90625 
L 39.65625 71.578125 
L 48.390625 71.578125 
L 48.390625 0 
z
M 12.453125 25.875 
Q 12.453125 15.921875 16.640625 10.984375 
Q 20.84375 6.0625 26.5625 6.0625 
Q 32.328125 6.0625 36.34375 10.765625 
Q 40.375 15.484375 40.375 25.140625 
Q 40.375 35.796875 36.265625 40.765625 
Q 32.171875 45.75 26.171875 45.75 
Q 20.3125 45.75 16.375 40.96875 
Q 12.453125 36.1875 12.453125 25.875 
z
" id="ArialMT-100"/>
     </defs>
     <g style="fill:#262626;" transform="translate(51.2 247.149687)scale(0.1375 -0.1375)">
      <use xlink:href="#ArialMT-67"/>
      <use x="72.216797" xlink:href="#ArialMT-111"/>
      <use x="127.832031" xlink:href="#ArialMT-110"/>
      <use x="183.447266" xlink:href="#ArialMT-115"/>
      <use x="233.447266" xlink:href="#ArialMT-117"/>
      <use x="289.0625" xlink:href="#ArialMT-109"/>
      <use x="372.363281" xlink:href="#ArialMT-101"/>
      <use x="427.978516" xlink:href="#ArialMT-100"/>
     </g>
    </g>
    <g id="patch_6">
     <path d="M 12.7 266.599492 
L 40.2 266.599492 
L 40.2 256.974492 
L 12.7 256.974492 
z
" style="fill:#2369bd;"/>
    </g>
    <g id="text_2">
     <!-- Produced -->
     <defs>
      <path d="M 7.71875 0 
L 7.71875 71.578125 
L 34.71875 71.578125 
Q 41.84375 71.578125 45.609375 70.90625 
Q 50.875 70.015625 54.4375 67.546875 
Q 58.015625 65.09375 60.1875 60.640625 
Q 62.359375 56.203125 62.359375 50.875 
Q 62.359375 41.75 56.546875 35.421875 
Q 50.734375 29.109375 35.546875 29.109375 
L 17.1875 29.109375 
L 17.1875 0 
z
M 17.1875 37.546875 
L 35.6875 37.546875 
Q 44.875 37.546875 48.734375 40.96875 
Q 52.59375 44.390625 52.59375 50.59375 
Q 52.59375 55.078125 50.3125 58.265625 
Q 48.046875 61.46875 44.34375 62.5 
Q 41.9375 63.140625 35.5 63.140625 
L 17.1875 63.140625 
z
" id="ArialMT-80"/>
      <path d="M 6.5 0 
L 6.5 51.859375 
L 14.40625 51.859375 
L 14.40625 44 
Q 17.4375 49.515625 20 51.265625 
Q 22.5625 53.03125 25.640625 53.03125 
Q 30.078125 53.03125 34.671875 50.203125 
L 31.640625 42.046875 
Q 28.421875 43.953125 25.203125 43.953125 
Q 22.3125 43.953125 20.015625 42.21875 
Q 17.71875 40.484375 16.75 37.40625 
Q 15.28125 32.71875 15.28125 27.15625 
L 15.28125 0 
z
" id="ArialMT-114"/>
      <path d="M 40.4375 19 
L 49.078125 17.875 
Q 47.65625 8.9375 41.8125 3.875 
Q 35.984375 -1.171875 27.484375 -1.171875 
Q 16.84375 -1.171875 10.375 5.78125 
Q 3.90625 12.75 3.90625 25.734375 
Q 3.90625 34.125 6.6875 40.421875 
Q 9.46875 46.734375 15.15625 49.875 
Q 20.84375 53.03125 27.546875 53.03125 
Q 35.984375 53.03125 41.359375 48.75 
Q 46.734375 44.484375 48.25 36.625 
L 39.703125 35.296875 
Q 38.484375 40.53125 35.375 43.15625 
Q 32.28125 45.796875 27.875 45.796875 
Q 21.234375 45.796875 17.078125 41.03125 
Q 12.9375 36.28125 12.9375 25.984375 
Q 12.9375 15.53125 16.9375 10.796875 
Q 20.953125 6.0625 27.390625 6.0625 
Q 32.5625 6.0625 36.03125 9.234375 
Q 39.5 12.40625 40.4375 19 
z
" id="ArialMT-99"/>
     </defs>
     <g style="fill:#262626;" transform="translate(51.2 266.599492)scale(0.1375 -0.1375)">
      <use xlink:href="#ArialMT-80"/>
      <use x="66.699219" xlink:href="#ArialMT-114"/>
      <use x="100" xlink:href="#ArialMT-111"/>
      <use x="155.615234" xlink:href="#ArialMT-100"/>
      <use x="211.230469" xlink:href="#ArialMT-117"/>
      <use x="266.845703" xlink:href="#ArialMT-99"/>
      <use x="316.845703" xlink:href="#ArialMT-101"/>
      <use x="372.460938" xlink:href="#ArialMT-100"/>
     </g>
    </g>
   </g>
  </g>
  <g id="axes_2">
   <g id="patch_7">
    <path d="M 194.563422 499.44 
L 663.903422 499.44 
L 663.903422 7.2 
L 194.563422 7.2 
z
" style="fill:#eaeaf2;"/>
   </g>
   <g id="matplotlib.axis_1">
    <g id="text_3">
     <!-- Minimal pathways (34) -->
     <defs>
      <path d="M 7.421875 0 
L 7.421875 71.578125 
L 21.6875 71.578125 
L 38.625 20.90625 
Q 40.96875 13.8125 42.046875 10.296875 
Q 43.265625 14.203125 45.84375 21.78125 
L 62.984375 71.578125 
L 75.734375 71.578125 
L 75.734375 0 
L 66.609375 0 
L 66.609375 59.90625 
L 45.796875 0 
L 37.25 0 
L 16.546875 60.9375 
L 16.546875 0 
z
" id="ArialMT-77"/>
      <path d="M 6.640625 61.46875 
L 6.640625 71.578125 
L 15.4375 71.578125 
L 15.4375 61.46875 
z
M 6.640625 0 
L 6.640625 51.859375 
L 15.4375 51.859375 
L 15.4375 0 
z
" id="ArialMT-105"/>
      <path d="M 40.4375 6.390625 
Q 35.546875 2.25 31.03125 0.53125 
Q 26.515625 -1.171875 21.34375 -1.171875 
Q 12.796875 -1.171875 8.203125 3 
Q 3.609375 7.171875 3.609375 13.671875 
Q 3.609375 17.484375 5.34375 20.625 
Q 7.078125 23.78125 9.890625 25.6875 
Q 12.703125 27.59375 16.21875 28.5625 
Q 18.796875 29.25 24.03125 29.890625 
Q 34.671875 31.15625 39.703125 32.90625 
Q 39.75 34.71875 39.75 35.203125 
Q 39.75 40.578125 37.25 42.78125 
Q 33.890625 45.75 27.25 45.75 
Q 21.046875 45.75 18.09375 43.578125 
Q 15.140625 41.40625 13.71875 35.890625 
L 5.125 37.0625 
Q 6.296875 42.578125 8.984375 45.96875 
Q 11.671875 49.359375 16.75 51.1875 
Q 21.828125 53.03125 28.515625 53.03125 
Q 35.15625 53.03125 39.296875 51.46875 
Q 43.453125 49.90625 45.40625 47.53125 
Q 47.359375 45.171875 48.140625 41.546875 
Q 48.578125 39.3125 48.578125 33.453125 
L 48.578125 21.734375 
Q 48.578125 9.46875 49.140625 6.21875 
Q 49.703125 2.984375 51.375 0 
L 42.1875 0 
Q 40.828125 2.734375 40.4375 6.390625 
z
M 39.703125 26.03125 
Q 34.90625 24.078125 25.34375 22.703125 
Q 19.921875 21.921875 17.671875 20.9375 
Q 15.4375 19.96875 14.203125 18.09375 
Q 12.984375 16.21875 12.984375 13.921875 
Q 12.984375 10.40625 15.640625 8.0625 
Q 18.3125 5.71875 23.4375 5.71875 
Q 28.515625 5.71875 32.46875 7.9375 
Q 36.421875 10.15625 38.28125 14.015625 
Q 39.703125 17 39.703125 22.796875 
z
" id="ArialMT-97"/>
      <path d="M 6.390625 0 
L 6.390625 71.578125 
L 15.1875 71.578125 
L 15.1875 0 
z
" id="ArialMT-108"/>
      <path id="ArialMT-32"/>
      <path d="M 6.59375 -19.875 
L 6.59375 51.859375 
L 14.59375 51.859375 
L 14.59375 45.125 
Q 17.4375 49.078125 21 51.046875 
Q 24.5625 53.03125 29.640625 53.03125 
Q 36.28125 53.03125 41.359375 49.609375 
Q 46.4375 46.1875 49.015625 39.953125 
Q 51.609375 33.734375 51.609375 26.3125 
Q 51.609375 18.359375 48.75 11.984375 
Q 45.90625 5.609375 40.453125 2.21875 
Q 35.015625 -1.171875 29 -1.171875 
Q 24.609375 -1.171875 21.109375 0.6875 
Q 17.625 2.546875 15.375 5.375 
L 15.375 -19.875 
z
M 14.546875 25.640625 
Q 14.546875 15.625 18.59375 10.84375 
Q 22.65625 6.0625 28.421875 6.0625 
Q 34.28125 6.0625 38.453125 11.015625 
Q 42.625 15.96875 42.625 26.375 
Q 42.625 36.28125 38.546875 41.203125 
Q 34.46875 46.140625 28.8125 46.140625 
Q 23.1875 46.140625 18.859375 40.890625 
Q 14.546875 35.640625 14.546875 25.640625 
z
" id="ArialMT-112"/>
      <path d="M 25.78125 7.859375 
L 27.046875 0.09375 
Q 23.34375 -0.6875 20.40625 -0.6875 
Q 15.625 -0.6875 12.984375 0.828125 
Q 10.359375 2.34375 9.28125 4.8125 
Q 8.203125 7.28125 8.203125 15.1875 
L 8.203125 45.015625 
L 1.765625 45.015625 
L 1.765625 51.859375 
L 8.203125 51.859375 
L 8.203125 64.703125 
L 16.9375 69.96875 
L 16.9375 51.859375 
L 25.78125 51.859375 
L 25.78125 45.015625 
L 16.9375 45.015625 
L 16.9375 14.703125 
Q 16.9375 10.9375 17.40625 9.859375 
Q 17.875 8.796875 18.921875 8.15625 
Q 19.96875 7.515625 21.921875 7.515625 
Q 23.390625 7.515625 25.78125 7.859375 
z
" id="ArialMT-116"/>
      <path d="M 6.59375 0 
L 6.59375 71.578125 
L 15.375 71.578125 
L 15.375 45.90625 
Q 21.53125 53.03125 30.90625 53.03125 
Q 36.671875 53.03125 40.921875 50.75 
Q 45.171875 48.484375 47 44.484375 
Q 48.828125 40.484375 48.828125 32.859375 
L 48.828125 0 
L 40.046875 0 
L 40.046875 32.859375 
Q 40.046875 39.453125 37.1875 42.453125 
Q 34.328125 45.453125 29.109375 45.453125 
Q 25.203125 45.453125 21.75 43.421875 
Q 18.3125 41.40625 16.84375 37.9375 
Q 15.375 34.46875 15.375 28.375 
L 15.375 0 
z
" id="ArialMT-104"/>
      <path d="M 16.15625 0 
L 0.296875 51.859375 
L 9.375 51.859375 
L 17.625 21.921875 
L 20.703125 10.796875 
Q 20.90625 11.625 23.390625 21.484375 
L 31.640625 51.859375 
L 40.671875 51.859375 
L 48.4375 21.78125 
L 51.03125 11.859375 
L 54 21.875 
L 62.890625 51.859375 
L 71.4375 51.859375 
L 55.21875 0 
L 46.09375 0 
L 37.84375 31.0625 
L 35.84375 39.890625 
L 25.34375 0 
z
" id="ArialMT-119"/>
      <path d="M 6.203125 -19.96875 
L 5.21875 -11.71875 
Q 8.109375 -12.5 10.25 -12.5 
Q 13.1875 -12.5 14.9375 -11.515625 
Q 16.703125 -10.546875 17.828125 -8.796875 
Q 18.65625 -7.46875 20.515625 -2.25 
Q 20.75 -1.515625 21.296875 -0.09375 
L 1.609375 51.859375 
L 11.078125 51.859375 
L 21.875 21.828125 
Q 23.96875 16.109375 25.640625 9.8125 
Q 27.15625 15.875 29.25 21.625 
L 40.328125 51.859375 
L 49.125 51.859375 
L 29.390625 -0.875 
Q 26.21875 -9.421875 24.46875 -12.640625 
Q 22.125 -17 19.09375 -19.015625 
Q 16.0625 -21.046875 11.859375 -21.046875 
Q 9.328125 -21.046875 6.203125 -19.96875 
z
" id="ArialMT-121"/>
      <path d="M 23.390625 -21.046875 
Q 16.109375 -11.859375 11.078125 0.4375 
Q 6.0625 12.75 6.0625 25.921875 
Q 6.0625 37.546875 9.8125 48.1875 
Q 14.203125 60.546875 23.390625 72.796875 
L 29.6875 72.796875 
Q 23.78125 62.640625 21.875 58.296875 
Q 18.890625 51.5625 17.1875 44.234375 
Q 15.09375 35.109375 15.09375 25.875 
Q 15.09375 2.390625 29.6875 -21.046875 
z
" id="ArialMT-40"/>
      <path d="M 4.203125 18.890625 
L 12.984375 20.0625 
Q 14.5 12.59375 18.140625 9.296875 
Q 21.78125 6 27 6 
Q 33.203125 6 37.46875 10.296875 
Q 41.75 14.59375 41.75 20.953125 
Q 41.75 27 37.796875 30.921875 
Q 33.84375 34.859375 27.734375 34.859375 
Q 25.25 34.859375 21.53125 33.890625 
L 22.515625 41.609375 
Q 23.390625 41.5 23.921875 41.5 
Q 29.546875 41.5 34.03125 44.421875 
Q 38.53125 47.359375 38.53125 53.46875 
Q 38.53125 58.296875 35.25 61.46875 
Q 31.984375 64.65625 26.8125 64.65625 
Q 21.6875 64.65625 18.265625 61.421875 
Q 14.84375 58.203125 13.875 51.765625 
L 5.078125 53.328125 
Q 6.6875 62.15625 12.390625 67.015625 
Q 18.109375 71.875 26.609375 71.875 
Q 32.46875 71.875 37.390625 69.359375 
Q 42.328125 66.84375 44.9375 62.5 
Q 47.5625 58.15625 47.5625 53.265625 
Q 47.5625 48.640625 45.0625 44.828125 
Q 42.578125 41.015625 37.703125 38.765625 
Q 44.046875 37.3125 47.5625 32.6875 
Q 51.078125 28.078125 51.078125 21.140625 
Q 51.078125 11.765625 44.234375 5.25 
Q 37.40625 -1.265625 26.953125 -1.265625 
Q 17.53125 -1.265625 11.296875 4.34375 
Q 5.078125 9.96875 4.203125 18.890625 
z
" id="ArialMT-51"/>
      <path d="M 32.328125 0 
L 32.328125 17.140625 
L 1.265625 17.140625 
L 1.265625 25.203125 
L 33.9375 71.578125 
L 41.109375 71.578125 
L 41.109375 25.203125 
L 50.78125 25.203125 
L 50.78125 17.140625 
L 41.109375 17.140625 
L 41.109375 0 
z
M 32.328125 25.203125 
L 32.328125 57.46875 
L 9.90625 25.203125 
z
" id="ArialMT-52"/>
      <path d="M 12.359375 -21.046875 
L 6.0625 -21.046875 
Q 20.65625 2.390625 20.65625 25.875 
Q 20.65625 35.0625 18.5625 44.09375 
Q 16.890625 51.421875 13.921875 58.15625 
Q 12.015625 62.546875 6.0625 72.796875 
L 12.359375 72.796875 
Q 21.53125 60.546875 25.921875 48.1875 
Q 29.6875 37.546875 29.6875 25.921875 
Q 29.6875 12.75 24.625 0.4375 
Q 19.578125 -11.859375 12.359375 -21.046875 
z
" id="ArialMT-41"/>
     </defs>
     <g style="fill:#262626;" transform="translate(309.199672 520.91125)scale(0.24 -0.24)">
      <use xlink:href="#ArialMT-77"/>
      <use x="83.300781" xlink:href="#ArialMT-105"/>
      <use x="105.517578" xlink:href="#ArialMT-110"/>
      <use x="161.132812" xlink:href="#ArialMT-105"/>
      <use x="183.349609" xlink:href="#ArialMT-109"/>
      <use x="266.650391" xlink:href="#ArialMT-97"/>
      <use x="322.265625" xlink:href="#ArialMT-108"/>
      <use x="344.482422" xlink:href="#ArialMT-32"/>
      <use x="372.265625" xlink:href="#ArialMT-112"/>
      <use x="427.880859" xlink:href="#ArialMT-97"/>
      <use x="483.496094" xlink:href="#ArialMT-116"/>
      <use x="511.279297" xlink:href="#ArialMT-104"/>
      <use x="566.894531" xlink:href="#ArialMT-119"/>
      <use x="639.111328" xlink:href="#ArialMT-97"/>
      <use x="694.726562" xlink:href="#ArialMT-121"/>
      <use x="744.726562" xlink:href="#ArialMT-115"/>
      <use x="794.726562" xlink:href="#ArialMT-32"/>
      <use x="822.509766" xlink:href="#ArialMT-40"/>
      <use x="855.810547" xlink:href="#ArialMT-51"/>
      <use x="911.425781" xlink:href="#ArialMT-52"/>
      <use x="967.041016" xlink:href="#ArialMT-41"/>
     </g>
    </g>
   </g>
   <g id="matplotlib.axis_2">
    <g id="ytick_1">
     <g id="line2d_1">
      <defs>
       <path d="M 0 0 
L 6 0 
" id="m34936363f3" style="stroke:#262626;stroke-width:1.25;"/>
      </defs>
      <g>
       <use style="fill:#262626;stroke:#262626;stroke-width:1.25;" x="663.903422" xlink:href="#m34936363f3" y="22.5825"/>
      </g>
     </g>
     <g id="text_4">
      <!-- Ammonium -->
      <defs>
       <path d="M -0.140625 0 
L 27.34375 71.578125 
L 37.546875 71.578125 
L 66.84375 0 
L 56.0625 0 
L 47.703125 21.6875 
L 17.78125 21.6875 
L 9.90625 0 
z
M 20.515625 29.390625 
L 44.78125 29.390625 
L 37.3125 49.21875 
Q 33.890625 58.25 32.234375 64.0625 
Q 30.859375 57.171875 28.375 50.390625 
z
" id="ArialMT-65"/>
      </defs>
      <g style="fill:#262626;" transform="translate(673.403422 27.503496)scale(0.1375 -0.1375)">
       <use xlink:href="#ArialMT-65"/>
       <use x="66.699219" xlink:href="#ArialMT-109"/>
       <use x="150" xlink:href="#ArialMT-109"/>
       <use x="233.300781" xlink:href="#ArialMT-111"/>
       <use x="288.916016" xlink:href="#ArialMT-110"/>
       <use x="344.53125" xlink:href="#ArialMT-105"/>
       <use x="366.748047" xlink:href="#ArialMT-117"/>
       <use x="422.363281" xlink:href="#ArialMT-109"/>
      </g>
     </g>
    </g>
    <g id="ytick_2">
     <g id="line2d_2">
      <g>
       <use style="fill:#262626;stroke:#262626;stroke-width:1.25;" x="663.903422" xlink:href="#m34936363f3" y="53.3475"/>
      </g>
     </g>
     <g id="text_5">
      <!-- Phosphate -->
      <g style="fill:#262626;" transform="translate(673.403422 58.268496)scale(0.1375 -0.1375)">
       <use xlink:href="#ArialMT-80"/>
       <use x="66.699219" xlink:href="#ArialMT-104"/>
       <use x="122.314453" xlink:href="#ArialMT-111"/>
       <use x="177.929688" xlink:href="#ArialMT-115"/>
       <use x="227.929688" xlink:href="#ArialMT-112"/>
       <use x="283.544922" xlink:href="#ArialMT-104"/>
       <use x="339.160156" xlink:href="#ArialMT-97"/>
       <use x="394.775391" xlink:href="#ArialMT-116"/>
       <use x="422.558594" xlink:href="#ArialMT-101"/>
      </g>
     </g>
    </g>
    <g id="ytick_3">
     <g id="line2d_3">
      <g>
       <use style="fill:#262626;stroke:#262626;stroke-width:1.25;" x="663.903422" xlink:href="#m34936363f3" y="84.1125"/>
      </g>
     </g>
     <g id="text_6">
      <!-- D-Glucose -->
      <defs>
       <path d="M 7.71875 0 
L 7.71875 71.578125 
L 32.375 71.578125 
Q 40.71875 71.578125 45.125 70.5625 
Q 51.265625 69.140625 55.609375 65.4375 
Q 61.28125 60.640625 64.078125 53.1875 
Q 66.890625 45.75 66.890625 36.1875 
Q 66.890625 28.03125 64.984375 21.734375 
Q 63.09375 15.4375 60.109375 11.296875 
Q 57.125 7.171875 53.578125 4.796875 
Q 50.046875 2.4375 45.046875 1.21875 
Q 40.046875 0 33.546875 0 
z
M 17.1875 8.453125 
L 32.46875 8.453125 
Q 39.546875 8.453125 43.578125 9.765625 
Q 47.609375 11.078125 50 13.484375 
Q 53.375 16.84375 55.25 22.53125 
Q 57.125 28.21875 57.125 36.328125 
Q 57.125 47.5625 53.4375 53.59375 
Q 49.75 59.625 44.484375 61.671875 
Q 40.671875 63.140625 32.234375 63.140625 
L 17.1875 63.140625 
z
" id="ArialMT-68"/>
       <path d="M 3.171875 21.484375 
L 3.171875 30.328125 
L 30.171875 30.328125 
L 30.171875 21.484375 
z
" id="ArialMT-45"/>
       <path d="M 41.21875 28.078125 
L 41.21875 36.46875 
L 71.53125 36.53125 
L 71.53125 9.96875 
Q 64.546875 4.390625 57.125 1.578125 
Q 49.703125 -1.21875 41.890625 -1.21875 
Q 31.34375 -1.21875 22.71875 3.296875 
Q 14.109375 7.8125 9.71875 16.359375 
Q 5.328125 24.90625 5.328125 35.453125 
Q 5.328125 45.90625 9.6875 54.953125 
Q 14.0625 64.015625 22.265625 68.40625 
Q 30.46875 72.796875 41.15625 72.796875 
Q 48.921875 72.796875 55.1875 70.28125 
Q 61.46875 67.78125 65.03125 63.28125 
Q 68.609375 58.796875 70.453125 51.5625 
L 61.921875 49.21875 
Q 60.296875 54.6875 57.90625 57.8125 
Q 55.515625 60.9375 51.0625 62.8125 
Q 46.625 64.703125 41.21875 64.703125 
Q 34.71875 64.703125 29.984375 62.71875 
Q 25.25 60.75 22.34375 57.515625 
Q 19.4375 54.296875 17.828125 50.4375 
Q 15.09375 43.796875 15.09375 36.03125 
Q 15.09375 26.46875 18.390625 20.015625 
Q 21.6875 13.578125 27.984375 10.453125 
Q 34.28125 7.328125 41.359375 7.328125 
Q 47.515625 7.328125 53.375 9.6875 
Q 59.234375 12.0625 62.25 14.75 
L 62.25 28.078125 
z
" id="ArialMT-71"/>
      </defs>
      <g style="fill:#262626;" transform="translate(673.403422 89.033496)scale(0.1375 -0.1375)">
       <use xlink:href="#ArialMT-68"/>
       <use x="72.216797" xlink:href="#ArialMT-45"/>
       <use x="105.517578" xlink:href="#ArialMT-71"/>
       <use x="183.300781" xlink:href="#ArialMT-108"/>
       <use x="205.517578" xlink:href="#ArialMT-117"/>
       <use x="261.132812" xlink:href="#ArialMT-99"/>
       <use x="311.132812" xlink:href="#ArialMT-111"/>
       <use x="366.748047" xlink:href="#ArialMT-115"/>
       <use x="416.748047" xlink:href="#ArialMT-101"/>
      </g>
     </g>
    </g>
    <g id="ytick_4">
     <g id="line2d_4">
      <g>
       <use style="fill:#262626;stroke:#262626;stroke-width:1.25;" x="663.903422" xlink:href="#m34936363f3" y="114.8775"/>
      </g>
     </g>
     <g id="text_7">
      <!-- Succinate -->
      <defs>
       <path d="M 4.5 23 
L 13.421875 23.78125 
Q 14.0625 18.40625 16.375 14.96875 
Q 18.703125 11.53125 23.578125 9.40625 
Q 28.46875 7.28125 34.578125 7.28125 
Q 39.984375 7.28125 44.140625 8.890625 
Q 48.296875 10.5 50.3125 13.296875 
Q 52.34375 16.109375 52.34375 19.4375 
Q 52.34375 22.796875 50.390625 25.3125 
Q 48.4375 27.828125 43.953125 29.546875 
Q 41.0625 30.671875 31.203125 33.03125 
Q 21.34375 35.40625 17.390625 37.5 
Q 12.25 40.1875 9.734375 44.15625 
Q 7.234375 48.140625 7.234375 53.078125 
Q 7.234375 58.5 10.296875 63.203125 
Q 13.375 67.921875 19.28125 70.359375 
Q 25.203125 72.796875 32.421875 72.796875 
Q 40.375 72.796875 46.453125 70.234375 
Q 52.546875 67.671875 55.8125 62.6875 
Q 59.078125 57.71875 59.328125 51.421875 
L 50.25 50.734375 
Q 49.515625 57.515625 45.28125 60.984375 
Q 41.0625 64.453125 32.8125 64.453125 
Q 24.21875 64.453125 20.28125 61.296875 
Q 16.359375 58.15625 16.359375 53.71875 
Q 16.359375 49.859375 19.140625 47.359375 
Q 21.875 44.875 33.421875 42.265625 
Q 44.96875 39.65625 49.265625 37.703125 
Q 55.515625 34.8125 58.484375 30.390625 
Q 61.46875 25.984375 61.46875 20.21875 
Q 61.46875 14.5 58.203125 9.4375 
Q 54.9375 4.390625 48.796875 1.578125 
Q 42.671875 -1.21875 35.015625 -1.21875 
Q 25.296875 -1.21875 18.71875 1.609375 
Q 12.15625 4.4375 8.421875 10.125 
Q 4.6875 15.828125 4.5 23 
z
" id="ArialMT-83"/>
      </defs>
      <g style="fill:#262626;" transform="translate(673.403422 119.798496)scale(0.1375 -0.1375)">
       <use xlink:href="#ArialMT-83"/>
       <use x="66.699219" xlink:href="#ArialMT-117"/>
       <use x="122.314453" xlink:href="#ArialMT-99"/>
       <use x="172.314453" xlink:href="#ArialMT-99"/>
       <use x="222.314453" xlink:href="#ArialMT-105"/>
       <use x="244.53125" xlink:href="#ArialMT-110"/>
       <use x="300.146484" xlink:href="#ArialMT-97"/>
       <use x="355.761719" xlink:href="#ArialMT-116"/>
       <use x="383.544922" xlink:href="#ArialMT-101"/>
      </g>
     </g>
    </g>
    <g id="ytick_5">
     <g id="line2d_5">
      <g>
       <use style="fill:#262626;stroke:#262626;stroke-width:1.25;" x="663.903422" xlink:href="#m34936363f3" y="145.6425"/>
      </g>
     </g>
     <g id="text_8">
      <!-- Acetate -->
      <g style="fill:#262626;" transform="translate(673.403422 150.563496)scale(0.1375 -0.1375)">
       <use xlink:href="#ArialMT-65"/>
       <use x="66.699219" xlink:href="#ArialMT-99"/>
       <use x="116.699219" xlink:href="#ArialMT-101"/>
       <use x="172.314453" xlink:href="#ArialMT-116"/>
       <use x="200.097656" xlink:href="#ArialMT-97"/>
       <use x="255.712891" xlink:href="#ArialMT-116"/>
       <use x="283.496094" xlink:href="#ArialMT-101"/>
      </g>
     </g>
    </g>
    <g id="ytick_6">
     <g id="line2d_6">
      <g>
       <use style="fill:#262626;stroke:#262626;stroke-width:1.25;" x="663.903422" xlink:href="#m34936363f3" y="176.4075"/>
      </g>
     </g>
     <g id="text_9">
      <!-- Acetaldehyde -->
      <g style="fill:#262626;" transform="translate(673.403422 181.328496)scale(0.1375 -0.1375)">
       <use xlink:href="#ArialMT-65"/>
       <use x="66.699219" xlink:href="#ArialMT-99"/>
       <use x="116.699219" xlink:href="#ArialMT-101"/>
       <use x="172.314453" xlink:href="#ArialMT-116"/>
       <use x="200.097656" xlink:href="#ArialMT-97"/>
       <use x="255.712891" xlink:href="#ArialMT-108"/>
       <use x="277.929688" xlink:href="#ArialMT-100"/>
       <use x="333.544922" xlink:href="#ArialMT-101"/>
       <use x="389.160156" xlink:href="#ArialMT-104"/>
       <use x="444.775391" xlink:href="#ArialMT-121"/>
       <use x="494.775391" xlink:href="#ArialMT-100"/>
       <use x="550.390625" xlink:href="#ArialMT-101"/>
      </g>
     </g>
    </g>
    <g id="ytick_7">
     <g id="line2d_7">
      <g>
       <use style="fill:#262626;stroke:#262626;stroke-width:1.25;" x="663.903422" xlink:href="#m34936363f3" y="207.1725"/>
      </g>
     </g>
     <g id="text_10">
      <!-- D-Lactate -->
      <defs>
       <path d="M 7.328125 0 
L 7.328125 71.578125 
L 16.796875 71.578125 
L 16.796875 8.453125 
L 52.046875 8.453125 
L 52.046875 0 
z
" id="ArialMT-76"/>
      </defs>
      <g style="fill:#262626;" transform="translate(673.403422 212.093496)scale(0.1375 -0.1375)">
       <use xlink:href="#ArialMT-68"/>
       <use x="72.216797" xlink:href="#ArialMT-45"/>
       <use x="105.517578" xlink:href="#ArialMT-76"/>
       <use x="161.132812" xlink:href="#ArialMT-97"/>
       <use x="216.748047" xlink:href="#ArialMT-99"/>
       <use x="266.748047" xlink:href="#ArialMT-116"/>
       <use x="294.53125" xlink:href="#ArialMT-97"/>
       <use x="350.146484" xlink:href="#ArialMT-116"/>
       <use x="377.929688" xlink:href="#ArialMT-101"/>
      </g>
     </g>
    </g>
    <g id="ytick_8">
     <g id="line2d_8">
      <g>
       <use style="fill:#262626;stroke:#262626;stroke-width:1.25;" x="663.903422" xlink:href="#m34936363f3" y="237.9375"/>
      </g>
     </g>
     <g id="text_11">
      <!-- 2-Oxoglutarate -->
      <defs>
       <path d="M 50.34375 8.453125 
L 50.34375 0 
L 3.03125 0 
Q 2.9375 3.171875 4.046875 6.109375 
Q 5.859375 10.9375 9.828125 15.625 
Q 13.8125 20.3125 21.34375 26.46875 
Q 33.015625 36.03125 37.109375 41.625 
Q 41.21875 47.21875 41.21875 52.203125 
Q 41.21875 57.421875 37.46875 61 
Q 33.734375 64.59375 27.734375 64.59375 
Q 21.390625 64.59375 17.578125 60.78125 
Q 13.765625 56.984375 13.71875 50.25 
L 4.6875 51.171875 
Q 5.609375 61.28125 11.65625 66.578125 
Q 17.71875 71.875 27.9375 71.875 
Q 38.234375 71.875 44.234375 66.15625 
Q 50.25 60.453125 50.25 52 
Q 50.25 47.703125 48.484375 43.546875 
Q 46.734375 39.40625 42.65625 34.8125 
Q 38.578125 30.21875 29.109375 22.21875 
Q 21.1875 15.578125 18.9375 13.203125 
Q 16.703125 10.84375 15.234375 8.453125 
z
" id="ArialMT-50"/>
       <path d="M 4.828125 34.859375 
Q 4.828125 52.6875 14.390625 62.765625 
Q 23.96875 72.859375 39.109375 72.859375 
Q 49.03125 72.859375 56.984375 68.109375 
Q 64.9375 63.375 69.109375 54.90625 
Q 73.296875 46.4375 73.296875 35.6875 
Q 73.296875 24.8125 68.890625 16.21875 
Q 64.5 7.625 56.4375 3.203125 
Q 48.390625 -1.21875 39.0625 -1.21875 
Q 28.953125 -1.21875 20.984375 3.65625 
Q 13.03125 8.546875 8.921875 16.984375 
Q 4.828125 25.4375 4.828125 34.859375 
z
M 14.59375 34.71875 
Q 14.59375 21.78125 21.546875 14.328125 
Q 28.515625 6.890625 39.015625 6.890625 
Q 49.703125 6.890625 56.609375 14.40625 
Q 63.53125 21.921875 63.53125 35.75 
Q 63.53125 44.484375 60.578125 51 
Q 57.625 57.515625 51.921875 61.109375 
Q 46.234375 64.703125 39.15625 64.703125 
Q 29.109375 64.703125 21.84375 57.78125 
Q 14.59375 50.875 14.59375 34.71875 
z
" id="ArialMT-79"/>
       <path d="M 0.734375 0 
L 19.671875 26.953125 
L 2.15625 51.859375 
L 13.140625 51.859375 
L 21.09375 39.703125 
Q 23.34375 36.234375 24.703125 33.890625 
Q 26.859375 37.109375 28.65625 39.59375 
L 37.40625 51.859375 
L 47.90625 51.859375 
L 29.984375 27.4375 
L 49.265625 0 
L 38.484375 0 
L 27.828125 16.109375 
L 25 20.453125 
L 11.375 0 
z
" id="ArialMT-120"/>
       <path d="M 4.984375 -4.296875 
L 13.53125 -5.5625 
Q 14.0625 -9.515625 16.5 -11.328125 
Q 19.78125 -13.765625 25.4375 -13.765625 
Q 31.546875 -13.765625 34.859375 -11.328125 
Q 38.1875 -8.890625 39.359375 -4.5 
Q 40.046875 -1.8125 39.984375 6.78125 
Q 34.234375 0 25.640625 0 
Q 14.9375 0 9.078125 7.71875 
Q 3.21875 15.4375 3.21875 26.21875 
Q 3.21875 33.640625 5.90625 39.90625 
Q 8.59375 46.1875 13.6875 49.609375 
Q 18.796875 53.03125 25.6875 53.03125 
Q 34.859375 53.03125 40.828125 45.609375 
L 40.828125 51.859375 
L 48.921875 51.859375 
L 48.921875 7.03125 
Q 48.921875 -5.078125 46.453125 -10.125 
Q 44 -15.1875 38.640625 -18.109375 
Q 33.296875 -21.046875 25.484375 -21.046875 
Q 16.21875 -21.046875 10.5 -16.875 
Q 4.78125 -12.703125 4.984375 -4.296875 
z
M 12.25 26.859375 
Q 12.25 16.65625 16.296875 11.96875 
Q 20.359375 7.28125 26.46875 7.28125 
Q 32.515625 7.28125 36.609375 11.9375 
Q 40.71875 16.609375 40.71875 26.5625 
Q 40.71875 36.078125 36.5 40.90625 
Q 32.28125 45.75 26.3125 45.75 
Q 20.453125 45.75 16.34375 40.984375 
Q 12.25 36.234375 12.25 26.859375 
z
" id="ArialMT-103"/>
      </defs>
      <g style="fill:#262626;" transform="translate(673.403422 242.946582)scale(0.1375 -0.1375)">
       <use xlink:href="#ArialMT-50"/>
       <use x="55.615234" xlink:href="#ArialMT-45"/>
       <use x="88.916016" xlink:href="#ArialMT-79"/>
       <use x="166.699219" xlink:href="#ArialMT-120"/>
       <use x="216.699219" xlink:href="#ArialMT-111"/>
       <use x="272.314453" xlink:href="#ArialMT-103"/>
       <use x="327.929688" xlink:href="#ArialMT-108"/>
       <use x="350.146484" xlink:href="#ArialMT-117"/>
       <use x="405.761719" xlink:href="#ArialMT-116"/>
       <use x="433.544922" xlink:href="#ArialMT-97"/>
       <use x="489.160156" xlink:href="#ArialMT-114"/>
       <use x="522.460938" xlink:href="#ArialMT-97"/>
       <use x="578.076172" xlink:href="#ArialMT-116"/>
       <use x="605.859375" xlink:href="#ArialMT-101"/>
      </g>
     </g>
    </g>
    <g id="ytick_9">
     <g id="line2d_9">
      <g>
       <use style="fill:#262626;stroke:#262626;stroke-width:1.25;" x="663.903422" xlink:href="#m34936363f3" y="268.7025"/>
      </g>
     </g>
     <g id="text_12">
      <!-- Pyruvate -->
      <defs>
       <path d="M 21 0 
L 1.265625 51.859375 
L 10.546875 51.859375 
L 21.6875 20.796875 
Q 23.484375 15.765625 25 10.359375 
Q 26.171875 14.453125 28.265625 20.21875 
L 39.796875 51.859375 
L 48.828125 51.859375 
L 29.203125 0 
z
" id="ArialMT-118"/>
      </defs>
      <g style="fill:#262626;" transform="translate(673.403422 273.623496)scale(0.1375 -0.1375)">
       <use xlink:href="#ArialMT-80"/>
       <use x="66.699219" xlink:href="#ArialMT-121"/>
       <use x="116.699219" xlink:href="#ArialMT-114"/>
       <use x="150" xlink:href="#ArialMT-117"/>
       <use x="205.615234" xlink:href="#ArialMT-118"/>
       <use x="255.615234" xlink:href="#ArialMT-97"/>
       <use x="311.230469" xlink:href="#ArialMT-116"/>
       <use x="339.013672" xlink:href="#ArialMT-101"/>
      </g>
     </g>
    </g>
    <g id="ytick_10">
     <g id="line2d_10">
      <g>
       <use style="fill:#262626;stroke:#262626;stroke-width:1.25;" x="663.903422" xlink:href="#m34936363f3" y="299.4675"/>
      </g>
     </g>
     <g id="text_13">
      <!-- L-Glutamate -->
      <g style="fill:#262626;" transform="translate(673.403422 304.388496)scale(0.1375 -0.1375)">
       <use xlink:href="#ArialMT-76"/>
       <use x="55.615234" xlink:href="#ArialMT-45"/>
       <use x="88.916016" xlink:href="#ArialMT-71"/>
       <use x="166.699219" xlink:href="#ArialMT-108"/>
       <use x="188.916016" xlink:href="#ArialMT-117"/>
       <use x="244.53125" xlink:href="#ArialMT-116"/>
       <use x="272.314453" xlink:href="#ArialMT-97"/>
       <use x="327.929688" xlink:href="#ArialMT-109"/>
       <use x="411.230469" xlink:href="#ArialMT-97"/>
       <use x="466.845703" xlink:href="#ArialMT-116"/>
       <use x="494.628906" xlink:href="#ArialMT-101"/>
      </g>
     </g>
    </g>
    <g id="ytick_11">
     <g id="line2d_11">
      <g>
       <use style="fill:#262626;stroke:#262626;stroke-width:1.25;" x="663.903422" xlink:href="#m34936363f3" y="330.2325"/>
      </g>
     </g>
     <g id="text_14">
      <!-- O2 -->
      <g style="fill:#262626;" transform="translate(673.403422 335.153496)scale(0.1375 -0.1375)">
       <use xlink:href="#ArialMT-79"/>
       <use x="77.783203" xlink:href="#ArialMT-50"/>
      </g>
     </g>
    </g>
    <g id="ytick_12">
     <g id="line2d_12">
      <g>
       <use style="fill:#262626;stroke:#262626;stroke-width:1.25;" x="663.903422" xlink:href="#m34936363f3" y="360.9975"/>
      </g>
     </g>
     <g id="text_15">
      <!-- CO2 -->
      <g style="fill:#262626;" transform="translate(673.403422 365.918496)scale(0.1375 -0.1375)">
       <use xlink:href="#ArialMT-67"/>
       <use x="72.216797" xlink:href="#ArialMT-79"/>
       <use x="150" xlink:href="#ArialMT-50"/>
      </g>
     </g>
    </g>
    <g id="ytick_13">
     <g id="line2d_13">
      <g>
       <use style="fill:#262626;stroke:#262626;stroke-width:1.25;" x="663.903422" xlink:href="#m34936363f3" y="391.7625"/>
      </g>
     </g>
     <g id="text_16">
      <!-- H2O -->
      <defs>
       <path d="M 8.015625 0 
L 8.015625 71.578125 
L 17.484375 71.578125 
L 17.484375 42.1875 
L 54.6875 42.1875 
L 54.6875 71.578125 
L 64.15625 71.578125 
L 64.15625 0 
L 54.6875 0 
L 54.6875 33.734375 
L 17.484375 33.734375 
L 17.484375 0 
z
" id="ArialMT-72"/>
      </defs>
      <g style="fill:#262626;" transform="translate(673.403422 396.683496)scale(0.1375 -0.1375)">
       <use xlink:href="#ArialMT-72"/>
       <use x="72.216797" xlink:href="#ArialMT-50"/>
       <use x="127.832031" xlink:href="#ArialMT-79"/>
      </g>
     </g>
    </g>
    <g id="ytick_14">
     <g id="line2d_14">
      <g>
       <use style="fill:#262626;stroke:#262626;stroke-width:1.25;" x="663.903422" xlink:href="#m34936363f3" y="422.5275"/>
      </g>
     </g>
     <g id="text_17">
      <!-- Ethanol -->
      <defs>
       <path d="M 7.90625 0 
L 7.90625 71.578125 
L 59.671875 71.578125 
L 59.671875 63.140625 
L 17.390625 63.140625 
L 17.390625 41.21875 
L 56.984375 41.21875 
L 56.984375 32.8125 
L 17.390625 32.8125 
L 17.390625 8.453125 
L 61.328125 8.453125 
L 61.328125 0 
z
" id="ArialMT-69"/>
      </defs>
      <g style="fill:#262626;" transform="translate(673.403422 427.448496)scale(0.1375 -0.1375)">
       <use xlink:href="#ArialMT-69"/>
       <use x="66.699219" xlink:href="#ArialMT-116"/>
       <use x="94.482422" xlink:href="#ArialMT-104"/>
       <use x="150.097656" xlink:href="#ArialMT-97"/>
       <use x="205.712891" xlink:href="#ArialMT-110"/>
       <use x="261.328125" xlink:href="#ArialMT-111"/>
       <use x="316.943359" xlink:href="#ArialMT-108"/>
      </g>
     </g>
    </g>
    <g id="ytick_15">
     <g id="line2d_15">
      <g>
       <use style="fill:#262626;stroke:#262626;stroke-width:1.25;" x="663.903422" xlink:href="#m34936363f3" y="453.2925"/>
      </g>
     </g>
     <g id="text_18">
      <!-- H+ -->
      <defs>
       <path d="M 25.046875 11.578125 
L 25.046875 31.203125 
L 5.5625 31.203125 
L 5.5625 39.40625 
L 25.046875 39.40625 
L 25.046875 58.890625 
L 33.34375 58.890625 
L 33.34375 39.40625 
L 52.828125 39.40625 
L 52.828125 31.203125 
L 33.34375 31.203125 
L 33.34375 11.578125 
z
" id="ArialMT-43"/>
      </defs>
      <g style="fill:#262626;" transform="translate(673.403422 458.213496)scale(0.1375 -0.1375)">
       <use xlink:href="#ArialMT-72"/>
       <use x="72.216797" xlink:href="#ArialMT-43"/>
      </g>
     </g>
    </g>
    <g id="ytick_16">
     <g id="line2d_16">
      <g>
       <use style="fill:#262626;stroke:#262626;stroke-width:1.25;" x="663.903422" xlink:href="#m34936363f3" y="484.0575"/>
      </g>
     </g>
     <g id="text_19">
      <!-- Formate -->
      <defs>
       <path d="M 8.203125 0 
L 8.203125 71.578125 
L 56.5 71.578125 
L 56.5 63.140625 
L 17.671875 63.140625 
L 17.671875 40.96875 
L 51.265625 40.96875 
L 51.265625 32.515625 
L 17.671875 32.515625 
L 17.671875 0 
z
" id="ArialMT-70"/>
      </defs>
      <g style="fill:#262626;" transform="translate(673.403422 488.978496)scale(0.1375 -0.1375)">
       <use xlink:href="#ArialMT-70"/>
       <use x="61.083984" xlink:href="#ArialMT-111"/>
       <use x="116.699219" xlink:href="#ArialMT-114"/>
       <use x="150" xlink:href="#ArialMT-109"/>
       <use x="233.300781" xlink:href="#ArialMT-97"/>
       <use x="288.916016" xlink:href="#ArialMT-116"/>
       <use x="316.699219" xlink:href="#ArialMT-101"/>
      </g>
     </g>
    </g>
   </g>
   <g id="QuadMesh_1">
    <path clip-path="url(#p879855ee20)" d="M 194.563422 7.2 
L 223.897172 7.2 
L 223.897172 37.965 
L 194.563422 37.965 
L 194.563422 7.2 
" style="fill:#a9373b;"/>
    <path clip-path="url(#p879855ee20)" d="M 223.897172 7.2 
L 253.230922 7.2 
L 253.230922 37.965 
L 223.897172 37.965 
L 223.897172 7.2 
" style="fill:#a9373b;"/>
    <path clip-path="url(#p879855ee20)" d="M 253.230922 7.2 
L 282.564672 7.2 
L 282.564672 37.965 
L 253.230922 37.965 
L 253.230922 7.2 
" style="fill:#a9373b;"/>
    <path clip-path="url(#p879855ee20)" d="M 282.564672 7.2 
L 311.898422 7.2 
L 311.898422 37.965 
L 282.564672 37.965 
L 282.564672 7.2 
" style="fill:#a9373b;"/>
    <path clip-path="url(#p879855ee20)" d="M 311.898422 7.2 
L 341.232172 7.2 
L 341.232172 37.965 
L 311.898422 37.965 
L 311.898422 7.2 
" style="fill:#a9373b;"/>
    <path clip-path="url(#p879855ee20)" d="M 341.232172 7.2 
L 370.565922 7.2 
L 370.565922 37.965 
L 341.232172 37.965 
L 341.232172 7.2 
" style="fill:#a9373b;"/>
    <path clip-path="url(#p879855ee20)" d="M 370.565922 7.2 
L 399.899672 7.2 
L 399.899672 37.965 
L 370.565922 37.965 
L 370.565922 7.2 
" style="fill:#a9373b;"/>
    <path clip-path="url(#p879855ee20)" d="M 399.899672 7.2 
L 429.233422 7.2 
L 429.233422 37.965 
L 399.899672 37.965 
L 399.899672 7.2 
" style="fill:#a9373b;"/>
    <path clip-path="url(#p879855ee20)" d="M 429.233422 7.2 
L 458.567172 7.2 
L 458.567172 37.965 
L 429.233422 37.965 
L 429.233422 7.2 
" style="fill:#a9373b;"/>
    <path clip-path="url(#p879855ee20)" d="M 458.567172 7.2 
L 487.900922 7.2 
L 487.900922 37.965 
L 458.567172 37.965 
L 458.567172 7.2 
" style="fill:#a9373b;"/>
    <path clip-path="url(#p879855ee20)" d="M 487.900922 7.2 
L 517.234672 7.2 
L 517.234672 37.965 
L 487.900922 37.965 
L 487.900922 7.2 
" style="fill:#a9373b;"/>
    <path clip-path="url(#p879855ee20)" d="M 517.234672 7.2 
L 546.568422 7.2 
L 546.568422 37.965 
L 517.234672 37.965 
L 517.234672 7.2 
" style="fill:#a9373b;"/>
    <path clip-path="url(#p879855ee20)" d="M 546.568422 7.2 
L 575.902172 7.2 
L 575.902172 37.965 
L 546.568422 37.965 
L 546.568422 7.2 
" style="fill:#a9373b;"/>
    <path clip-path="url(#p879855ee20)" d="M 575.902172 7.2 
L 605.235922 7.2 
L 605.235922 37.965 
L 575.902172 37.965 
L 575.902172 7.2 
" style="fill:#a9373b;"/>
    <path clip-path="url(#p879855ee20)" d="M 605.235922 7.2 
L 634.569672 7.2 
L 634.569672 37.965 
L 605.235922 37.965 
L 605.235922 7.2 
" style="fill:#a9373b;"/>
    <path clip-path="url(#p879855ee20)" d="M 634.569672 7.2 
L 663.903422 7.2 
L 663.903422 37.965 
L 634.569672 37.965 
L 634.569672 7.2 
" style="fill:#a9373b;"/>
    <path clip-path="url(#p879855ee20)" d="M 194.563422 37.965 
L 223.897172 37.965 
L 223.897172 68.73 
L 194.563422 68.73 
L 194.563422 37.965 
" style="fill:#a9373b;"/>
    <path clip-path="url(#p879855ee20)" d="M 223.897172 37.965 
L 253.230922 37.965 
L 253.230922 68.73 
L 223.897172 68.73 
L 223.897172 37.965 
" style="fill:#a9373b;"/>
    <path clip-path="url(#p879855ee20)" d="M 253.230922 37.965 
L 282.564672 37.965 
L 282.564672 68.73 
L 253.230922 68.73 
L 253.230922 37.965 
" style="fill:#a9373b;"/>
    <path clip-path="url(#p879855ee20)" d="M 282.564672 37.965 
L 311.898422 37.965 
L 311.898422 68.73 
L 282.564672 68.73 
L 282.564672 37.965 
" style="fill:#a9373b;"/>
    <path clip-path="url(#p879855ee20)" d="M 311.898422 37.965 
L 341.232172 37.965 
L 341.232172 68.73 
L 311.898422 68.73 
L 311.898422 37.965 
" style="fill:#a9373b;"/>
    <path clip-path="url(#p879855ee20)" d="M 341.232172 37.965 
L 370.565922 37.965 
L 370.565922 68.73 
L 341.232172 68.73 
L 341.232172 37.965 
" style="fill:#a9373b;"/>
    <path clip-path="url(#p879855ee20)" d="M 370.565922 37.965 
L 399.899672 37.965 
L 399.899672 68.73 
L 370.565922 68.73 
L 370.565922 37.965 
" style="fill:#a9373b;"/>
    <path clip-path="url(#p879855ee20)" d="M 399.899672 37.965 
L 429.233422 37.965 
L 429.233422 68.73 
L 399.899672 68.73 
L 399.899672 37.965 
" style="fill:#a9373b;"/>
    <path clip-path="url(#p879855ee20)" d="M 429.233422 37.965 
L 458.567172 37.965 
L 458.567172 68.73 
L 429.233422 68.73 
L 429.233422 37.965 
" style="fill:#a9373b;"/>
    <path clip-path="url(#p879855ee20)" d="M 458.567172 37.965 
L 487.900922 37.965 
L 487.900922 68.73 
L 458.567172 68.73 
L 458.567172 37.965 
" style="fill:#a9373b;"/>
    <path clip-path="url(#p879855ee20)" d="M 487.900922 37.965 
L 517.234672 37.965 
L 517.234672 68.73 
L 487.900922 68.73 
L 487.900922 37.965 
" style="fill:#a9373b;"/>
    <path clip-path="url(#p879855ee20)" d="M 517.234672 37.965 
L 546.568422 37.965 
L 546.568422 68.73 
L 517.234672 68.73 
L 517.234672 37.965 
" style="fill:#a9373b;"/>
    <path clip-path="url(#p879855ee20)" d="M 546.568422 37.965 
L 575.902172 37.965 
L 575.902172 68.73 
L 546.568422 68.73 
L 546.568422 37.965 
" style="fill:#a9373b;"/>
    <path clip-path="url(#p879855ee20)" d="M 575.902172 37.965 
L 605.235922 37.965 
L 605.235922 68.73 
L 575.902172 68.73 
L 575.902172 37.965 
" style="fill:#a9373b;"/>
    <path clip-path="url(#p879855ee20)" d="M 605.235922 37.965 
L 634.569672 37.965 
L 634.569672 68.73 
L 605.235922 68.73 
L 605.235922 37.965 
" style="fill:#a9373b;"/>
    <path clip-path="url(#p879855ee20)" d="M 634.569672 37.965 
L 663.903422 37.965 
L 663.903422 68.73 
L 634.569672 68.73 
L 634.569672 37.965 
" style="fill:#a9373b;"/>
    <path clip-path="url(#p879855ee20)" d="M 194.563422 68.73 
L 223.897172 68.73 
L 223.897172 99.495 
L 194.563422 99.495 
L 194.563422 68.73 
" style="fill:#a9373b;"/>
    <path clip-path="url(#p879855ee20)" d="M 223.897172 68.73 
L 253.230922 68.73 
L 253.230922 99.495 
L 223.897172 99.495 
L 223.897172 68.73 
" style="fill:#a9373b;"/>
    <path clip-path="url(#p879855ee20)" d="M 253.230922 68.73 
L 282.564672 68.73 
L 282.564672 99.495 
L 253.230922 99.495 
L 253.230922 68.73 
" style="fill:#a9373b;"/>
    <path clip-path="url(#p879855ee20)" d="M 282.564672 68.73 
L 311.898422 68.73 
L 311.898422 99.495 
L 282.564672 99.495 
L 282.564672 68.73 
" style="fill:#a9373b;"/>
    <path clip-path="url(#p879855ee20)" d="M 311.898422 68.73 
L 341.232172 68.73 
L 341.232172 99.495 
L 311.898422 99.495 
L 311.898422 68.73 
" style="fill:#a9373b;"/>
    <path clip-path="url(#p879855ee20)" d="M 341.232172 68.73 
L 370.565922 68.73 
L 370.565922 99.495 
L 341.232172 99.495 
L 341.232172 68.73 
" style="fill:#a9373b;"/>
    <path clip-path="url(#p879855ee20)" d="M 370.565922 68.73 
L 399.899672 68.73 
L 399.899672 99.495 
L 370.565922 99.495 
L 370.565922 68.73 
" style="fill:#a9373b;"/>
    <path clip-path="url(#p879855ee20)" d="M 399.899672 68.73 
L 429.233422 68.73 
L 429.233422 99.495 
L 399.899672 99.495 
L 399.899672 68.73 
" style="fill:#a9373b;"/>
    <path clip-path="url(#p879855ee20)" d="M 429.233422 68.73 
L 458.567172 68.73 
L 458.567172 99.495 
L 429.233422 99.495 
L 429.233422 68.73 
" style="fill:#a9373b;"/>
    <path clip-path="url(#p879855ee20)" d="M 458.567172 68.73 
L 487.900922 68.73 
L 487.900922 99.495 
L 458.567172 99.495 
L 458.567172 68.73 
" style="fill:#a9373b;"/>
    <path clip-path="url(#p879855ee20)" d="M 487.900922 68.73 
L 517.234672 68.73 
L 517.234672 99.495 
L 487.900922 99.495 
L 487.900922 68.73 
" style="fill:#a9373b;"/>
    <path clip-path="url(#p879855ee20)" d="M 517.234672 68.73 
L 546.568422 68.73 
L 546.568422 99.495 
L 517.234672 99.495 
L 517.234672 68.73 
" style="fill:#a9373b;"/>
    <path clip-path="url(#p879855ee20)" d="M 546.568422 68.73 
L 575.902172 68.73 
L 575.902172 99.495 
L 546.568422 99.495 
L 546.568422 68.73 
" style="fill:#a9373b;"/>
    <path clip-path="url(#p879855ee20)" d="M 575.902172 68.73 
L 605.235922 68.73 
L 605.235922 99.495 
L 575.902172 99.495 
L 575.902172 68.73 
" style="fill:#a9373b;"/>
    <path clip-path="url(#p879855ee20)" d="M 605.235922 68.73 
L 634.569672 68.73 
L 634.569672 99.495 
L 605.235922 99.495 
L 605.235922 68.73 
" style="fill:#a9373b;"/>
    <path clip-path="url(#p879855ee20)" d="M 634.569672 68.73 
L 663.903422 68.73 
L 663.903422 99.495 
L 634.569672 99.495 
L 634.569672 68.73 
" style="fill:#a9373b;"/>
    <path clip-path="url(#p879855ee20)" d="M 194.563422 99.495 
L 223.897172 99.495 
L 223.897172 130.26 
L 194.563422 130.26 
L 194.563422 99.495 
" style="fill:#2369bd;"/>
    <path clip-path="url(#p879855ee20)" d="M 223.897172 99.495 
L 253.230922 99.495 
L 253.230922 130.26 
L 223.897172 130.26 
L 223.897172 99.495 
" style="fill:#faf5f5;"/>
    <path clip-path="url(#p879855ee20)" d="M 253.230922 99.495 
L 282.564672 99.495 
L 282.564672 130.26 
L 253.230922 130.26 
L 253.230922 99.495 
" style="fill:#2369bd;"/>
    <path clip-path="url(#p879855ee20)" d="M 282.564672 99.495 
L 311.898422 99.495 
L 311.898422 130.26 
L 282.564672 130.26 
L 282.564672 99.495 
" style="fill:#2369bd;"/>
    <path clip-path="url(#p879855ee20)" d="M 311.898422 99.495 
L 341.232172 99.495 
L 341.232172 130.26 
L 311.898422 130.26 
L 311.898422 99.495 
" style="fill:#faf5f5;"/>
    <path clip-path="url(#p879855ee20)" d="M 341.232172 99.495 
L 370.565922 99.495 
L 370.565922 130.26 
L 341.232172 130.26 
L 341.232172 99.495 
" style="fill:#faf5f5;"/>
    <path clip-path="url(#p879855ee20)" d="M 370.565922 99.495 
L 399.899672 99.495 
L 399.899672 130.26 
L 370.565922 130.26 
L 370.565922 99.495 
" style="fill:#faf5f5;"/>
    <path clip-path="url(#p879855ee20)" d="M 399.899672 99.495 
L 429.233422 99.495 
L 429.233422 130.26 
L 399.899672 130.26 
L 399.899672 99.495 
" style="fill:#faf5f5;"/>
    <path clip-path="url(#p879855ee20)" d="M 429.233422 99.495 
L 458.567172 99.495 
L 458.567172 130.26 
L 429.233422 130.26 
L 429.233422 99.495 
" style="fill:#faf5f5;"/>
    <path clip-path="url(#p879855ee20)" d="M 458.567172 99.495 
L 487.900922 99.495 
L 487.900922 130.26 
L 458.567172 130.26 
L 458.567172 99.495 
" style="fill:#2369bd;"/>
    <path clip-path="url(#p879855ee20)" d="M 487.900922 99.495 
L 517.234672 99.495 
L 517.234672 130.26 
L 487.900922 130.26 
L 487.900922 99.495 
" style="fill:#2369bd;"/>
    <path clip-path="url(#p879855ee20)" d="M 517.234672 99.495 
L 546.568422 99.495 
L 546.568422 130.26 
L 517.234672 130.26 
L 517.234672 99.495 
" style="fill:#faf5f5;"/>
    <path clip-path="url(#p879855ee20)" d="M 546.568422 99.495 
L 575.902172 99.495 
L 575.902172 130.26 
L 546.568422 130.26 
L 546.568422 99.495 
" style="fill:#faf5f5;"/>
    <path clip-path="url(#p879855ee20)" d="M 575.902172 99.495 
L 605.235922 99.495 
L 605.235922 130.26 
L 575.902172 130.26 
L 575.902172 99.495 
" style="fill:#faf5f5;"/>
    <path clip-path="url(#p879855ee20)" d="M 605.235922 99.495 
L 634.569672 99.495 
L 634.569672 130.26 
L 605.235922 130.26 
L 605.235922 99.495 
" style="fill:#faf5f5;"/>
    <path clip-path="url(#p879855ee20)" d="M 634.569672 99.495 
L 663.903422 99.495 
L 663.903422 130.26 
L 634.569672 130.26 
L 634.569672 99.495 
" style="fill:#faf5f5;"/>
    <path clip-path="url(#p879855ee20)" d="M 194.563422 130.26 
L 223.897172 130.26 
L 223.897172 161.025 
L 194.563422 161.025 
L 194.563422 130.26 
" style="fill:#faf5f5;"/>
    <path clip-path="url(#p879855ee20)" d="M 223.897172 130.26 
L 253.230922 130.26 
L 253.230922 161.025 
L 223.897172 161.025 
L 223.897172 130.26 
" style="fill:#faf5f5;"/>
    <path clip-path="url(#p879855ee20)" d="M 253.230922 130.26 
L 282.564672 130.26 
L 282.564672 161.025 
L 253.230922 161.025 
L 253.230922 130.26 
" style="fill:#faf5f5;"/>
    <path clip-path="url(#p879855ee20)" d="M 282.564672 130.26 
L 311.898422 130.26 
L 311.898422 161.025 
L 282.564672 161.025 
L 282.564672 130.26 
" style="fill:#2369bd;"/>
    <path clip-path="url(#p879855ee20)" d="M 311.898422 130.26 
L 341.232172 130.26 
L 341.232172 161.025 
L 311.898422 161.025 
L 311.898422 130.26 
" style="fill:#2369bd;"/>
    <path clip-path="url(#p879855ee20)" d="M 341.232172 130.26 
L 370.565922 130.26 
L 370.565922 161.025 
L 341.232172 161.025 
L 341.232172 130.26 
" style="fill:#faf5f5;"/>
    <path clip-path="url(#p879855ee20)" d="M 370.565922 130.26 
L 399.899672 130.26 
L 399.899672 161.025 
L 370.565922 161.025 
L 370.565922 130.26 
" style="fill:#2369bd;"/>
    <path clip-path="url(#p879855ee20)" d="M 399.899672 130.26 
L 429.233422 130.26 
L 429.233422 161.025 
L 399.899672 161.025 
L 399.899672 130.26 
" style="fill:#faf5f5;"/>
    <path clip-path="url(#p879855ee20)" d="M 429.233422 130.26 
L 458.567172 130.26 
L 458.567172 161.025 
L 429.233422 161.025 
L 429.233422 130.26 
" style="fill:#2369bd;"/>
    <path clip-path="url(#p879855ee20)" d="M 458.567172 130.26 
L 487.900922 130.26 
L 487.900922 161.025 
L 458.567172 161.025 
L 458.567172 130.26 
" style="fill:#faf5f5;"/>
    <path clip-path="url(#p879855ee20)" d="M 487.900922 130.26 
L 517.234672 130.26 
L 517.234672 161.025 
L 487.900922 161.025 
L 487.900922 130.26 
" style="fill:#faf5f5;"/>
    <path clip-path="url(#p879855ee20)" d="M 517.234672 130.26 
L 546.568422 130.26 
L 546.568422 161.025 
L 517.234672 161.025 
L 517.234672 130.26 
" style="fill:#2369bd;"/>
    <path clip-path="url(#p879855ee20)" d="M 546.568422 130.26 
L 575.902172 130.26 
L 575.902172 161.025 
L 546.568422 161.025 
L 546.568422 130.26 
" style="fill:#faf5f5;"/>
    <path clip-path="url(#p879855ee20)" d="M 575.902172 130.26 
L 605.235922 130.26 
L 605.235922 161.025 
L 575.902172 161.025 
L 575.902172 130.26 
" style="fill:#2369bd;"/>
    <path clip-path="url(#p879855ee20)" d="M 605.235922 130.26 
L 634.569672 130.26 
L 634.569672 161.025 
L 605.235922 161.025 
L 605.235922 130.26 
" style="fill:#2369bd;"/>
    <path clip-path="url(#p879855ee20)" d="M 634.569672 130.26 
L 663.903422 130.26 
L 663.903422 161.025 
L 634.569672 161.025 
L 634.569672 130.26 
" style="fill:#2369bd;"/>
    <path clip-path="url(#p879855ee20)" d="M 194.563422 161.025 
L 223.897172 161.025 
L 223.897172 191.79 
L 194.563422 191.79 
L 194.563422 161.025 
" style="fill:#faf5f5;"/>
    <path clip-path="url(#p879855ee20)" d="M 223.897172 161.025 
L 253.230922 161.025 
L 253.230922 191.79 
L 223.897172 191.79 
L 223.897172 161.025 
" style="fill:#faf5f5;"/>
    <path clip-path="url(#p879855ee20)" d="M 253.230922 161.025 
L 282.564672 161.025 
L 282.564672 191.79 
L 253.230922 191.79 
L 253.230922 161.025 
" style="fill:#faf5f5;"/>
    <path clip-path="url(#p879855ee20)" d="M 282.564672 161.025 
L 311.898422 161.025 
L 311.898422 191.79 
L 282.564672 191.79 
L 282.564672 161.025 
" style="fill:#faf5f5;"/>
    <path clip-path="url(#p879855ee20)" d="M 311.898422 161.025 
L 341.232172 161.025 
L 341.232172 191.79 
L 311.898422 191.79 
L 311.898422 161.025 
" style="fill:#2369bd;"/>
    <path clip-path="url(#p879855ee20)" d="M 341.232172 161.025 
L 370.565922 161.025 
L 370.565922 191.79 
L 341.232172 191.79 
L 341.232172 161.025 
" style="fill:#2369bd;"/>
    <path clip-path="url(#p879855ee20)" d="M 370.565922 161.025 
L 399.899672 161.025 
L 399.899672 191.79 
L 370.565922 191.79 
L 370.565922 161.025 
" style="fill:#faf5f5;"/>
    <path clip-path="url(#p879855ee20)" d="M 399.899672 161.025 
L 429.233422 161.025 
L 429.233422 191.79 
L 399.899672 191.79 
L 399.899672 161.025 
" style="fill:#2369bd;"/>
    <path clip-path="url(#p879855ee20)" d="M 429.233422 161.025 
L 458.567172 161.025 
L 458.567172 191.79 
L 429.233422 191.79 
L 429.233422 161.025 
" style="fill:#faf5f5;"/>
    <path clip-path="url(#p879855ee20)" d="M 458.567172 161.025 
L 487.900922 161.025 
L 487.900922 191.79 
L 458.567172 191.79 
L 458.567172 161.025 
" style="fill:#2369bd;"/>
    <path clip-path="url(#p879855ee20)" d="M 487.900922 161.025 
L 517.234672 161.025 
L 517.234672 191.79 
L 487.900922 191.79 
L 487.900922 161.025 
" style="fill:#faf5f5;"/>
    <path clip-path="url(#p879855ee20)" d="M 517.234672 161.025 
L 546.568422 161.025 
L 546.568422 191.79 
L 517.234672 191.79 
L 517.234672 161.025 
" style="fill:#faf5f5;"/>
    <path clip-path="url(#p879855ee20)" d="M 546.568422 161.025 
L 575.902172 161.025 
L 575.902172 191.79 
L 546.568422 191.79 
L 546.568422 161.025 
" style="fill:#faf5f5;"/>
    <path clip-path="url(#p879855ee20)" d="M 575.902172 161.025 
L 605.235922 161.025 
L 605.235922 191.79 
L 575.902172 191.79 
L 575.902172 161.025 
" style="fill:#faf5f5;"/>
    <path clip-path="url(#p879855ee20)" d="M 605.235922 161.025 
L 634.569672 161.025 
L 634.569672 191.79 
L 605.235922 191.79 
L 605.235922 161.025 
" style="fill:#faf5f5;"/>
    <path clip-path="url(#p879855ee20)" d="M 634.569672 161.025 
L 663.903422 161.025 
L 663.903422 191.79 
L 634.569672 191.79 
L 634.569672 161.025 
" style="fill:#faf5f5;"/>
    <path clip-path="url(#p879855ee20)" d="M 194.563422 191.79 
L 223.897172 191.79 
L 223.897172 222.555 
L 194.563422 222.555 
L 194.563422 191.79 
" style="fill:#faf5f5;"/>
    <path clip-path="url(#p879855ee20)" d="M 223.897172 191.79 
L 253.230922 191.79 
L 253.230922 222.555 
L 223.897172 222.555 
L 223.897172 191.79 
" style="fill:#faf5f5;"/>
    <path clip-path="url(#p879855ee20)" d="M 253.230922 191.79 
L 282.564672 191.79 
L 282.564672 222.555 
L 253.230922 222.555 
L 253.230922 191.79 
" style="fill:#faf5f5;"/>
    <path clip-path="url(#p879855ee20)" d="M 282.564672 191.79 
L 311.898422 191.79 
L 311.898422 222.555 
L 282.564672 222.555 
L 282.564672 191.79 
" style="fill:#faf5f5;"/>
    <path clip-path="url(#p879855ee20)" d="M 311.898422 191.79 
L 341.232172 191.79 
L 341.232172 222.555 
L 311.898422 222.555 
L 311.898422 191.79 
" style="fill:#faf5f5;"/>
    <path clip-path="url(#p879855ee20)" d="M 341.232172 191.79 
L 370.565922 191.79 
L 370.565922 222.555 
L 341.232172 222.555 
L 341.232172 191.79 
" style="fill:#faf5f5;"/>
    <path clip-path="url(#p879855ee20)" d="M 370.565922 191.79 
L 399.899672 191.79 
L 399.899672 222.555 
L 370.565922 222.555 
L 370.565922 191.79 
" style="fill:#faf5f5;"/>
    <path clip-path="url(#p879855ee20)" d="M 399.899672 191.79 
L 429.233422 191.79 
L 429.233422 222.555 
L 399.899672 222.555 
L 399.899672 191.79 
" style="fill:#faf5f5;"/>
    <path clip-path="url(#p879855ee20)" d="M 429.233422 191.79 
L 458.567172 191.79 
L 458.567172 222.555 
L 429.233422 222.555 
L 429.233422 191.79 
" style="fill:#faf5f5;"/>
    <path clip-path="url(#p879855ee20)" d="M 458.567172 191.79 
L 487.900922 191.79 
L 487.900922 222.555 
L 458.567172 222.555 
L 458.567172 191.79 
" style="fill:#faf5f5;"/>
    <path clip-path="url(#p879855ee20)" d="M 487.900922 191.79 
L 517.234672 191.79 
L 517.234672 222.555 
L 487.900922 222.555 
L 487.900922 191.79 
" style="fill:#faf5f5;"/>
    <path clip-path="url(#p879855ee20)" d="M 517.234672 191.79 
L 546.568422 191.79 
L 546.568422 222.555 
L 517.234672 222.555 
L 517.234672 191.79 
" style="fill:#faf5f5;"/>
    <path clip-path="url(#p879855ee20)" d="M 546.568422 191.79 
L 575.902172 191.79 
L 575.902172 222.555 
L 546.568422 222.555 
L 546.568422 191.79 
" style="fill:#faf5f5;"/>
    <path clip-path="url(#p879855ee20)" d="M 575.902172 191.79 
L 605.235922 191.79 
L 605.235922 222.555 
L 575.902172 222.555 
L 575.902172 191.79 
" style="fill:#faf5f5;"/>
    <path clip-path="url(#p879855ee20)" d="M 605.235922 191.79 
L 634.569672 191.79 
L 634.569672 222.555 
L 605.235922 222.555 
L 605.235922 191.79 
" style="fill:#2369bd;"/>
    <path clip-path="url(#p879855ee20)" d="M 634.569672 191.79 
L 663.903422 191.79 
L 663.903422 222.555 
L 634.569672 222.555 
L 634.569672 191.79 
" style="fill:#faf5f5;"/>
    <path clip-path="url(#p879855ee20)" d="M 194.563422 222.555 
L 223.897172 222.555 
L 223.897172 253.32 
L 194.563422 253.32 
L 194.563422 222.555 
" style="fill:#faf5f5;"/>
    <path clip-path="url(#p879855ee20)" d="M 223.897172 222.555 
L 253.230922 222.555 
L 253.230922 253.32 
L 223.897172 253.32 
L 223.897172 222.555 
" style="fill:#faf5f5;"/>
    <path clip-path="url(#p879855ee20)" d="M 253.230922 222.555 
L 282.564672 222.555 
L 282.564672 253.32 
L 253.230922 253.32 
L 253.230922 222.555 
" style="fill:#faf5f5;"/>
    <path clip-path="url(#p879855ee20)" d="M 282.564672 222.555 
L 311.898422 222.555 
L 311.898422 253.32 
L 282.564672 253.32 
L 282.564672 222.555 
" style="fill:#faf5f5;"/>
    <path clip-path="url(#p879855ee20)" d="M 311.898422 222.555 
L 341.232172 222.555 
L 341.232172 253.32 
L 311.898422 253.32 
L 311.898422 222.555 
" style="fill:#faf5f5;"/>
    <path clip-path="url(#p879855ee20)" d="M 341.232172 222.555 
L 370.565922 222.555 
L 370.565922 253.32 
L 341.232172 253.32 
L 341.232172 222.555 
" style="fill:#faf5f5;"/>
    <path clip-path="url(#p879855ee20)" d="M 370.565922 222.555 
L 399.899672 222.555 
L 399.899672 253.32 
L 370.565922 253.32 
L 370.565922 222.555 
" style="fill:#faf5f5;"/>
    <path clip-path="url(#p879855ee20)" d="M 399.899672 222.555 
L 429.233422 222.555 
L 429.233422 253.32 
L 399.899672 253.32 
L 399.899672 222.555 
" style="fill:#2369bd;"/>
    <path clip-path="url(#p879855ee20)" d="M 429.233422 222.555 
L 458.567172 222.555 
L 458.567172 253.32 
L 429.233422 253.32 
L 429.233422 222.555 
" style="fill:#faf5f5;"/>
    <path clip-path="url(#p879855ee20)" d="M 458.567172 222.555 
L 487.900922 222.555 
L 487.900922 253.32 
L 458.567172 253.32 
L 458.567172 222.555 
" style="fill:#faf5f5;"/>
    <path clip-path="url(#p879855ee20)" d="M 487.900922 222.555 
L 517.234672 222.555 
L 517.234672 253.32 
L 487.900922 253.32 
L 487.900922 222.555 
" style="fill:#faf5f5;"/>
    <path clip-path="url(#p879855ee20)" d="M 517.234672 222.555 
L 546.568422 222.555 
L 546.568422 253.32 
L 517.234672 253.32 
L 517.234672 222.555 
" style="fill:#faf5f5;"/>
    <path clip-path="url(#p879855ee20)" d="M 546.568422 222.555 
L 575.902172 222.555 
L 575.902172 253.32 
L 546.568422 253.32 
L 546.568422 222.555 
" style="fill:#faf5f5;"/>
    <path clip-path="url(#p879855ee20)" d="M 575.902172 222.555 
L 605.235922 222.555 
L 605.235922 253.32 
L 575.902172 253.32 
L 575.902172 222.555 
" style="fill:#faf5f5;"/>
    <path clip-path="url(#p879855ee20)" d="M 605.235922 222.555 
L 634.569672 222.555 
L 634.569672 253.32 
L 605.235922 253.32 
L 605.235922 222.555 
" style="fill:#faf5f5;"/>
    <path clip-path="url(#p879855ee20)" d="M 634.569672 222.555 
L 663.903422 222.555 
L 663.903422 253.32 
L 634.569672 253.32 
L 634.569672 222.555 
" style="fill:#faf5f5;"/>
    <path clip-path="url(#p879855ee20)" d="M 194.563422 253.32 
L 223.897172 253.32 
L 223.897172 284.085 
L 194.563422 284.085 
L 194.563422 253.32 
" style="fill:#faf5f5;"/>
    <path clip-path="url(#p879855ee20)" d="M 223.897172 253.32 
L 253.230922 253.32 
L 253.230922 284.085 
L 223.897172 284.085 
L 223.897172 253.32 
" style="fill:#faf5f5;"/>
    <path clip-path="url(#p879855ee20)" d="M 253.230922 253.32 
L 282.564672 253.32 
L 282.564672 284.085 
L 253.230922 284.085 
L 253.230922 253.32 
" style="fill:#faf5f5;"/>
    <path clip-path="url(#p879855ee20)" d="M 282.564672 253.32 
L 311.898422 253.32 
L 311.898422 284.085 
L 282.564672 284.085 
L 282.564672 253.32 
" style="fill:#faf5f5;"/>
    <path clip-path="url(#p879855ee20)" d="M 311.898422 253.32 
L 341.232172 253.32 
L 341.232172 284.085 
L 311.898422 284.085 
L 311.898422 253.32 
" style="fill:#faf5f5;"/>
    <path clip-path="url(#p879855ee20)" d="M 341.232172 253.32 
L 370.565922 253.32 
L 370.565922 284.085 
L 341.232172 284.085 
L 341.232172 253.32 
" style="fill:#faf5f5;"/>
    <path clip-path="url(#p879855ee20)" d="M 370.565922 253.32 
L 399.899672 253.32 
L 399.899672 284.085 
L 370.565922 284.085 
L 370.565922 253.32 
" style="fill:#faf5f5;"/>
    <path clip-path="url(#p879855ee20)" d="M 399.899672 253.32 
L 429.233422 253.32 
L 429.233422 284.085 
L 399.899672 284.085 
L 399.899672 253.32 
" style="fill:#faf5f5;"/>
    <path clip-path="url(#p879855ee20)" d="M 429.233422 253.32 
L 458.567172 253.32 
L 458.567172 284.085 
L 429.233422 284.085 
L 429.233422 253.32 
" style="fill:#faf5f5;"/>
    <path clip-path="url(#p879855ee20)" d="M 458.567172 253.32 
L 487.900922 253.32 
L 487.900922 284.085 
L 458.567172 284.085 
L 458.567172 253.32 
" style="fill:#faf5f5;"/>
    <path clip-path="url(#p879855ee20)" d="M 487.900922 253.32 
L 517.234672 253.32 
L 517.234672 284.085 
L 487.900922 284.085 
L 487.900922 253.32 
" style="fill:#faf5f5;"/>
    <path clip-path="url(#p879855ee20)" d="M 517.234672 253.32 
L 546.568422 253.32 
L 546.568422 284.085 
L 517.234672 284.085 
L 517.234672 253.32 
" style="fill:#2369bd;"/>
    <path clip-path="url(#p879855ee20)" d="M 546.568422 253.32 
L 575.902172 253.32 
L 575.902172 284.085 
L 546.568422 284.085 
L 546.568422 253.32 
" style="fill:#faf5f5;"/>
    <path clip-path="url(#p879855ee20)" d="M 575.902172 253.32 
L 605.235922 253.32 
L 605.235922 284.085 
L 575.902172 284.085 
L 575.902172 253.32 
" style="fill:#faf5f5;"/>
    <path clip-path="url(#p879855ee20)" d="M 605.235922 253.32 
L 634.569672 253.32 
L 634.569672 284.085 
L 605.235922 284.085 
L 605.235922 253.32 
" style="fill:#faf5f5;"/>
    <path clip-path="url(#p879855ee20)" d="M 634.569672 253.32 
L 663.903422 253.32 
L 663.903422 284.085 
L 634.569672 284.085 
L 634.569672 253.32 
" style="fill:#faf5f5;"/>
    <path clip-path="url(#p879855ee20)" d="M 194.563422 284.085 
L 223.897172 284.085 
L 223.897172 314.85 
L 194.563422 314.85 
L 194.563422 284.085 
" style="fill:#faf5f5;"/>
    <path clip-path="url(#p879855ee20)" d="M 223.897172 284.085 
L 253.230922 284.085 
L 253.230922 314.85 
L 223.897172 314.85 
L 223.897172 284.085 
" style="fill:#faf5f5;"/>
    <path clip-path="url(#p879855ee20)" d="M 253.230922 284.085 
L 282.564672 284.085 
L 282.564672 314.85 
L 253.230922 314.85 
L 253.230922 284.085 
" style="fill:#faf5f5;"/>
    <path clip-path="url(#p879855ee20)" d="M 282.564672 284.085 
L 311.898422 284.085 
L 311.898422 314.85 
L 282.564672 314.85 
L 282.564672 284.085 
" style="fill:#faf5f5;"/>
    <path clip-path="url(#p879855ee20)" d="M 311.898422 284.085 
L 341.232172 284.085 
L 341.232172 314.85 
L 311.898422 314.85 
L 311.898422 284.085 
" style="fill:#faf5f5;"/>
    <path clip-path="url(#p879855ee20)" d="M 341.232172 284.085 
L 370.565922 284.085 
L 370.565922 314.85 
L 341.232172 314.85 
L 341.232172 284.085 
" style="fill:#faf5f5;"/>
    <path clip-path="url(#p879855ee20)" d="M 370.565922 284.085 
L 399.899672 284.085 
L 399.899672 314.85 
L 370.565922 314.85 
L 370.565922 284.085 
" style="fill:#faf5f5;"/>
    <path clip-path="url(#p879855ee20)" d="M 399.899672 284.085 
L 429.233422 284.085 
L 429.233422 314.85 
L 399.899672 314.85 
L 399.899672 284.085 
" style="fill:#faf5f5;"/>
    <path clip-path="url(#p879855ee20)" d="M 429.233422 284.085 
L 458.567172 284.085 
L 458.567172 314.85 
L 429.233422 314.85 
L 429.233422 284.085 
" style="fill:#faf5f5;"/>
    <path clip-path="url(#p879855ee20)" d="M 458.567172 284.085 
L 487.900922 284.085 
L 487.900922 314.85 
L 458.567172 314.85 
L 458.567172 284.085 
" style="fill:#faf5f5;"/>
    <path clip-path="url(#p879855ee20)" d="M 487.900922 284.085 
L 517.234672 284.085 
L 517.234672 314.85 
L 487.900922 314.85 
L 487.900922 284.085 
" style="fill:#faf5f5;"/>
    <path clip-path="url(#p879855ee20)" d="M 517.234672 284.085 
L 546.568422 284.085 
L 546.568422 314.85 
L 517.234672 314.85 
L 517.234672 284.085 
" style="fill:#faf5f5;"/>
    <path clip-path="url(#p879855ee20)" d="M 546.568422 284.085 
L 575.902172 284.085 
L 575.902172 314.85 
L 546.568422 314.85 
L 546.568422 284.085 
" style="fill:#faf5f5;"/>
    <path clip-path="url(#p879855ee20)" d="M 575.902172 284.085 
L 605.235922 284.085 
L 605.235922 314.85 
L 575.902172 314.85 
L 575.902172 284.085 
" style="fill:#faf5f5;"/>
    <path clip-path="url(#p879855ee20)" d="M 605.235922 284.085 
L 634.569672 284.085 
L 634.569672 314.85 
L 605.235922 314.85 
L 605.235922 284.085 
" style="fill:#faf5f5;"/>
    <path clip-path="url(#p879855ee20)" d="M 634.569672 284.085 
L 663.903422 284.085 
L 663.903422 314.85 
L 634.569672 314.85 
L 634.569672 284.085 
" style="fill:#2369bd;"/>
    <path clip-path="url(#p879855ee20)" d="M 194.563422 314.85 
L 223.897172 314.85 
L 223.897172 345.615 
L 194.563422 345.615 
L 194.563422 314.85 
" style="fill:#faf5f5;"/>
    <path clip-path="url(#p879855ee20)" d="M 223.897172 314.85 
L 253.230922 314.85 
L 253.230922 345.615 
L 223.897172 345.615 
L 223.897172 314.85 
" style="fill:#faf5f5;"/>
    <path clip-path="url(#p879855ee20)" d="M 253.230922 314.85 
L 282.564672 314.85 
L 282.564672 345.615 
L 253.230922 345.615 
L 253.230922 314.85 
" style="fill:#faf5f5;"/>
    <path clip-path="url(#p879855ee20)" d="M 282.564672 314.85 
L 311.898422 314.85 
L 311.898422 345.615 
L 282.564672 345.615 
L 282.564672 314.85 
" style="fill:#faf5f5;"/>
    <path clip-path="url(#p879855ee20)" d="M 311.898422 314.85 
L 341.232172 314.85 
L 341.232172 345.615 
L 311.898422 345.615 
L 311.898422 314.85 
" style="fill:#faf5f5;"/>
    <path clip-path="url(#p879855ee20)" d="M 341.232172 314.85 
L 370.565922 314.85 
L 370.565922 345.615 
L 341.232172 345.615 
L 341.232172 314.85 
" style="fill:#faf5f5;"/>
    <path clip-path="url(#p879855ee20)" d="M 370.565922 314.85 
L 399.899672 314.85 
L 399.899672 345.615 
L 370.565922 345.615 
L 370.565922 314.85 
" style="fill:#a9373b;"/>
    <path clip-path="url(#p879855ee20)" d="M 399.899672 314.85 
L 429.233422 314.85 
L 429.233422 345.615 
L 399.899672 345.615 
L 399.899672 314.85 
" style="fill:#faf5f5;"/>
    <path clip-path="url(#p879855ee20)" d="M 429.233422 314.85 
L 458.567172 314.85 
L 458.567172 345.615 
L 429.233422 345.615 
L 429.233422 314.85 
" style="fill:#a9373b;"/>
    <path clip-path="url(#p879855ee20)" d="M 458.567172 314.85 
L 487.900922 314.85 
L 487.900922 345.615 
L 458.567172 345.615 
L 458.567172 314.85 
" style="fill:#faf5f5;"/>
    <path clip-path="url(#p879855ee20)" d="M 487.900922 314.85 
L 517.234672 314.85 
L 517.234672 345.615 
L 487.900922 345.615 
L 487.900922 314.85 
" style="fill:#a9373b;"/>
    <path clip-path="url(#p879855ee20)" d="M 517.234672 314.85 
L 546.568422 314.85 
L 546.568422 345.615 
L 517.234672 345.615 
L 517.234672 314.85 
" style="fill:#faf5f5;"/>
    <path clip-path="url(#p879855ee20)" d="M 546.568422 314.85 
L 575.902172 314.85 
L 575.902172 345.615 
L 546.568422 345.615 
L 546.568422 314.85 
" style="fill:#a9373b;"/>
    <path clip-path="url(#p879855ee20)" d="M 575.902172 314.85 
L 605.235922 314.85 
L 605.235922 345.615 
L 575.902172 345.615 
L 575.902172 314.85 
" style="fill:#faf5f5;"/>
    <path clip-path="url(#p879855ee20)" d="M 605.235922 314.85 
L 634.569672 314.85 
L 634.569672 345.615 
L 605.235922 345.615 
L 605.235922 314.85 
" style="fill:#faf5f5;"/>
    <path clip-path="url(#p879855ee20)" d="M 634.569672 314.85 
L 663.903422 314.85 
L 663.903422 345.615 
L 634.569672 345.615 
L 634.569672 314.85 
" style="fill:#faf5f5;"/>
    <path clip-path="url(#p879855ee20)" d="M 194.563422 345.615 
L 223.897172 345.615 
L 223.897172 376.38 
L 194.563422 376.38 
L 194.563422 345.615 
" style="fill:#faf5f5;"/>
    <path clip-path="url(#p879855ee20)" d="M 223.897172 345.615 
L 253.230922 345.615 
L 253.230922 376.38 
L 223.897172 376.38 
L 223.897172 345.615 
" style="fill:#2369bd;"/>
    <path clip-path="url(#p879855ee20)" d="M 253.230922 345.615 
L 282.564672 345.615 
L 282.564672 376.38 
L 253.230922 376.38 
L 253.230922 345.615 
" style="fill:#faf5f5;"/>
    <path clip-path="url(#p879855ee20)" d="M 282.564672 345.615 
L 311.898422 345.615 
L 311.898422 376.38 
L 282.564672 376.38 
L 282.564672 345.615 
" style="fill:#a9373b;"/>
    <path clip-path="url(#p879855ee20)" d="M 311.898422 345.615 
L 341.232172 345.615 
L 341.232172 376.38 
L 311.898422 376.38 
L 311.898422 345.615 
" style="fill:#faf5f5;"/>
    <path clip-path="url(#p879855ee20)" d="M 341.232172 345.615 
L 370.565922 345.615 
L 370.565922 376.38 
L 341.232172 376.38 
L 341.232172 345.615 
" style="fill:#a9373b;"/>
    <path clip-path="url(#p879855ee20)" d="M 370.565922 345.615 
L 399.899672 345.615 
L 399.899672 376.38 
L 370.565922 376.38 
L 370.565922 345.615 
" style="fill:#faf5f5;"/>
    <path clip-path="url(#p879855ee20)" d="M 399.899672 345.615 
L 429.233422 345.615 
L 429.233422 376.38 
L 399.899672 376.38 
L 399.899672 345.615 
" style="fill:#faf5f5;"/>
    <path clip-path="url(#p879855ee20)" d="M 429.233422 345.615 
L 458.567172 345.615 
L 458.567172 376.38 
L 429.233422 376.38 
L 429.233422 345.615 
" style="fill:#faf5f5;"/>
    <path clip-path="url(#p879855ee20)" d="M 458.567172 345.615 
L 487.900922 345.615 
L 487.900922 376.38 
L 458.567172 376.38 
L 458.567172 345.615 
" style="fill:#a9373b;"/>
    <path clip-path="url(#p879855ee20)" d="M 487.900922 345.615 
L 517.234672 345.615 
L 517.234672 376.38 
L 487.900922 376.38 
L 487.900922 345.615 
" style="fill:#faf5f5;"/>
    <path clip-path="url(#p879855ee20)" d="M 517.234672 345.615 
L 546.568422 345.615 
L 546.568422 376.38 
L 517.234672 376.38 
L 517.234672 345.615 
" style="fill:#faf5f5;"/>
    <path clip-path="url(#p879855ee20)" d="M 546.568422 345.615 
L 575.902172 345.615 
L 575.902172 376.38 
L 546.568422 376.38 
L 546.568422 345.615 
" style="fill:#2369bd;"/>
    <path clip-path="url(#p879855ee20)" d="M 575.902172 345.615 
L 605.235922 345.615 
L 605.235922 376.38 
L 575.902172 376.38 
L 575.902172 345.615 
" style="fill:#faf5f5;"/>
    <path clip-path="url(#p879855ee20)" d="M 605.235922 345.615 
L 634.569672 345.615 
L 634.569672 376.38 
L 605.235922 376.38 
L 605.235922 345.615 
" style="fill:#faf5f5;"/>
    <path clip-path="url(#p879855ee20)" d="M 634.569672 345.615 
L 663.903422 345.615 
L 663.903422 376.38 
L 634.569672 376.38 
L 634.569672 345.615 
" style="fill:#faf5f5;"/>
    <path clip-path="url(#p879855ee20)" d="M 194.563422 376.38 
L 223.897172 376.38 
L 223.897172 407.145 
L 194.563422 407.145 
L 194.563422 376.38 
" style="fill:#2369bd;"/>
    <path clip-path="url(#p879855ee20)" d="M 223.897172 376.38 
L 253.230922 376.38 
L 253.230922 407.145 
L 223.897172 407.145 
L 223.897172 376.38 
" style="fill:#faf5f5;"/>
    <path clip-path="url(#p879855ee20)" d="M 253.230922 376.38 
L 282.564672 376.38 
L 282.564672 407.145 
L 253.230922 407.145 
L 253.230922 376.38 
" style="fill:#faf5f5;"/>
    <path clip-path="url(#p879855ee20)" d="M 282.564672 376.38 
L 311.898422 376.38 
L 311.898422 407.145 
L 282.564672 407.145 
L 282.564672 376.38 
" style="fill:#2369bd;"/>
    <path clip-path="url(#p879855ee20)" d="M 311.898422 376.38 
L 341.232172 376.38 
L 341.232172 407.145 
L 311.898422 407.145 
L 311.898422 376.38 
" style="fill:#faf5f5;"/>
    <path clip-path="url(#p879855ee20)" d="M 341.232172 376.38 
L 370.565922 376.38 
L 370.565922 407.145 
L 341.232172 407.145 
L 341.232172 376.38 
" style="fill:#2369bd;"/>
    <path clip-path="url(#p879855ee20)" d="M 370.565922 376.38 
L 399.899672 376.38 
L 399.899672 407.145 
L 370.565922 407.145 
L 370.565922 376.38 
" style="fill:#2369bd;"/>
    <path clip-path="url(#p879855ee20)" d="M 399.899672 376.38 
L 429.233422 376.38 
L 429.233422 407.145 
L 399.899672 407.145 
L 399.899672 376.38 
" style="fill:#faf5f5;"/>
    <path clip-path="url(#p879855ee20)" d="M 429.233422 376.38 
L 458.567172 376.38 
L 458.567172 407.145 
L 429.233422 407.145 
L 429.233422 376.38 
" style="fill:#faf5f5;"/>
    <path clip-path="url(#p879855ee20)" d="M 458.567172 376.38 
L 487.900922 376.38 
L 487.900922 407.145 
L 458.567172 407.145 
L 458.567172 376.38 
" style="fill:#2369bd;"/>
    <path clip-path="url(#p879855ee20)" d="M 487.900922 376.38 
L 517.234672 376.38 
L 517.234672 407.145 
L 487.900922 407.145 
L 487.900922 376.38 
" style="fill:#2369bd;"/>
    <path clip-path="url(#p879855ee20)" d="M 517.234672 376.38 
L 546.568422 376.38 
L 546.568422 407.145 
L 517.234672 407.145 
L 517.234672 376.38 
" style="fill:#faf5f5;"/>
    <path clip-path="url(#p879855ee20)" d="M 546.568422 376.38 
L 575.902172 376.38 
L 575.902172 407.145 
L 546.568422 407.145 
L 546.568422 376.38 
" style="fill:#2369bd;"/>
    <path clip-path="url(#p879855ee20)" d="M 575.902172 376.38 
L 605.235922 376.38 
L 605.235922 407.145 
L 575.902172 407.145 
L 575.902172 376.38 
" style="fill:#a9373b;"/>
    <path clip-path="url(#p879855ee20)" d="M 605.235922 376.38 
L 634.569672 376.38 
L 634.569672 407.145 
L 605.235922 407.145 
L 605.235922 376.38 
" style="fill:#faf5f5;"/>
    <path clip-path="url(#p879855ee20)" d="M 634.569672 376.38 
L 663.903422 376.38 
L 663.903422 407.145 
L 634.569672 407.145 
L 634.569672 376.38 
" style="fill:#faf5f5;"/>
    <path clip-path="url(#p879855ee20)" d="M 194.563422 407.145 
L 223.897172 407.145 
L 223.897172 437.91 
L 194.563422 437.91 
L 194.563422 407.145 
" style="fill:#2369bd;"/>
    <path clip-path="url(#p879855ee20)" d="M 223.897172 407.145 
L 253.230922 407.145 
L 253.230922 437.91 
L 223.897172 437.91 
L 223.897172 407.145 
" style="fill:#2369bd;"/>
    <path clip-path="url(#p879855ee20)" d="M 253.230922 407.145 
L 282.564672 407.145 
L 282.564672 437.91 
L 253.230922 437.91 
L 253.230922 407.145 
" style="fill:#2369bd;"/>
    <path clip-path="url(#p879855ee20)" d="M 282.564672 407.145 
L 311.898422 407.145 
L 311.898422 437.91 
L 282.564672 437.91 
L 282.564672 407.145 
" style="fill:#faf5f5;"/>
    <path clip-path="url(#p879855ee20)" d="M 311.898422 407.145 
L 341.232172 407.145 
L 341.232172 437.91 
L 311.898422 437.91 
L 311.898422 407.145 
" style="fill:#2369bd;"/>
    <path clip-path="url(#p879855ee20)" d="M 341.232172 407.145 
L 370.565922 407.145 
L 370.565922 437.91 
L 341.232172 437.91 
L 341.232172 407.145 
" style="fill:#faf5f5;"/>
    <path clip-path="url(#p879855ee20)" d="M 370.565922 407.145 
L 399.899672 407.145 
L 399.899672 437.91 
L 370.565922 437.91 
L 370.565922 407.145 
" style="fill:#faf5f5;"/>
    <path clip-path="url(#p879855ee20)" d="M 399.899672 407.145 
L 429.233422 407.145 
L 429.233422 437.91 
L 399.899672 437.91 
L 399.899672 407.145 
" style="fill:#2369bd;"/>
    <path clip-path="url(#p879855ee20)" d="M 429.233422 407.145 
L 458.567172 407.145 
L 458.567172 437.91 
L 429.233422 437.91 
L 429.233422 407.145 
" style="fill:#2369bd;"/>
    <path clip-path="url(#p879855ee20)" d="M 458.567172 407.145 
L 487.900922 407.145 
L 487.900922 437.91 
L 458.567172 437.91 
L 458.567172 407.145 
" style="fill:#faf5f5;"/>
    <path clip-path="url(#p879855ee20)" d="M 487.900922 407.145 
L 517.234672 407.145 
L 517.234672 437.91 
L 487.900922 437.91 
L 487.900922 407.145 
" style="fill:#faf5f5;"/>
    <path clip-path="url(#p879855ee20)" d="M 517.234672 407.145 
L 546.568422 407.145 
L 546.568422 437.91 
L 517.234672 437.91 
L 517.234672 407.145 
" style="fill:#2369bd;"/>
    <path clip-path="url(#p879855ee20)" d="M 546.568422 407.145 
L 575.902172 407.145 
L 575.902172 437.91 
L 546.568422 437.91 
L 546.568422 407.145 
" style="fill:#faf5f5;"/>
    <path clip-path="url(#p879855ee20)" d="M 575.902172 407.145 
L 605.235922 407.145 
L 605.235922 437.91 
L 575.902172 437.91 
L 575.902172 407.145 
" style="fill:#2369bd;"/>
    <path clip-path="url(#p879855ee20)" d="M 605.235922 407.145 
L 634.569672 407.145 
L 634.569672 437.91 
L 605.235922 437.91 
L 605.235922 407.145 
" style="fill:#2369bd;"/>
    <path clip-path="url(#p879855ee20)" d="M 634.569672 407.145 
L 663.903422 407.145 
L 663.903422 437.91 
L 634.569672 437.91 
L 634.569672 407.145 
" style="fill:#2369bd;"/>
    <path clip-path="url(#p879855ee20)" d="M 194.563422 437.91 
L 223.897172 437.91 
L 223.897172 468.675 
L 194.563422 468.675 
L 194.563422 437.91 
" style="fill:#2369bd;"/>
    <path clip-path="url(#p879855ee20)" d="M 223.897172 437.91 
L 253.230922 437.91 
L 253.230922 468.675 
L 223.897172 468.675 
L 223.897172 437.91 
" style="fill:#2369bd;"/>
    <path clip-path="url(#p879855ee20)" d="M 253.230922 437.91 
L 282.564672 437.91 
L 282.564672 468.675 
L 253.230922 468.675 
L 253.230922 437.91 
" style="fill:#2369bd;"/>
    <path clip-path="url(#p879855ee20)" d="M 282.564672 437.91 
L 311.898422 437.91 
L 311.898422 468.675 
L 282.564672 468.675 
L 282.564672 437.91 
" style="fill:#2369bd;"/>
    <path clip-path="url(#p879855ee20)" d="M 311.898422 437.91 
L 341.232172 437.91 
L 341.232172 468.675 
L 311.898422 468.675 
L 311.898422 437.91 
" style="fill:#2369bd;"/>
    <path clip-path="url(#p879855ee20)" d="M 341.232172 437.91 
L 370.565922 437.91 
L 370.565922 468.675 
L 341.232172 468.675 
L 341.232172 437.91 
" style="fill:#2369bd;"/>
    <path clip-path="url(#p879855ee20)" d="M 370.565922 437.91 
L 399.899672 437.91 
L 399.899672 468.675 
L 370.565922 468.675 
L 370.565922 437.91 
" style="fill:#2369bd;"/>
    <path clip-path="url(#p879855ee20)" d="M 399.899672 437.91 
L 429.233422 437.91 
L 429.233422 468.675 
L 399.899672 468.675 
L 399.899672 437.91 
" style="fill:#2369bd;"/>
    <path clip-path="url(#p879855ee20)" d="M 429.233422 437.91 
L 458.567172 437.91 
L 458.567172 468.675 
L 429.233422 468.675 
L 429.233422 437.91 
" style="fill:#2369bd;"/>
    <path clip-path="url(#p879855ee20)" d="M 458.567172 437.91 
L 487.900922 437.91 
L 487.900922 468.675 
L 458.567172 468.675 
L 458.567172 437.91 
" style="fill:#2369bd;"/>
    <path clip-path="url(#p879855ee20)" d="M 487.900922 437.91 
L 517.234672 437.91 
L 517.234672 468.675 
L 487.900922 468.675 
L 487.900922 437.91 
" style="fill:#2369bd;"/>
    <path clip-path="url(#p879855ee20)" d="M 517.234672 437.91 
L 546.568422 437.91 
L 546.568422 468.675 
L 517.234672 468.675 
L 517.234672 437.91 
" style="fill:#2369bd;"/>
    <path clip-path="url(#p879855ee20)" d="M 546.568422 437.91 
L 575.902172 437.91 
L 575.902172 468.675 
L 546.568422 468.675 
L 546.568422 437.91 
" style="fill:#2369bd;"/>
    <path clip-path="url(#p879855ee20)" d="M 575.902172 437.91 
L 605.235922 437.91 
L 605.235922 468.675 
L 575.902172 468.675 
L 575.902172 437.91 
" style="fill:#2369bd;"/>
    <path clip-path="url(#p879855ee20)" d="M 605.235922 437.91 
L 634.569672 437.91 
L 634.569672 468.675 
L 605.235922 468.675 
L 605.235922 437.91 
" style="fill:#2369bd;"/>
    <path clip-path="url(#p879855ee20)" d="M 634.569672 437.91 
L 663.903422 437.91 
L 663.903422 468.675 
L 634.569672 468.675 
L 634.569672 437.91 
" style="fill:#2369bd;"/>
    <path clip-path="url(#p879855ee20)" d="M 194.563422 468.675 
L 223.897172 468.675 
L 223.897172 499.44 
L 194.563422 499.44 
L 194.563422 468.675 
" style="fill:#faf5f5;"/>
    <path clip-path="url(#p879855ee20)" d="M 223.897172 468.675 
L 253.230922 468.675 
L 253.230922 499.44 
L 223.897172 499.44 
L 223.897172 468.675 
" style="fill:#2369bd;"/>
    <path clip-path="url(#p879855ee20)" d="M 253.230922 468.675 
L 282.564672 468.675 
L 282.564672 499.44 
L 253.230922 499.44 
L 253.230922 468.675 
" style="fill:#2369bd;"/>
    <path clip-path="url(#p879855ee20)" d="M 282.564672 468.675 
L 311.898422 468.675 
L 311.898422 499.44 
L 282.564672 499.44 
L 282.564672 468.675 
" style="fill:#faf5f5;"/>
    <path clip-path="url(#p879855ee20)" d="M 311.898422 468.675 
L 341.232172 468.675 
L 341.232172 499.44 
L 311.898422 499.44 
L 311.898422 468.675 
" style="fill:#2369bd;"/>
    <path clip-path="url(#p879855ee20)" d="M 341.232172 468.675 
L 370.565922 468.675 
L 370.565922 499.44 
L 341.232172 499.44 
L 341.232172 468.675 
" style="fill:#2369bd;"/>
    <path clip-path="url(#p879855ee20)" d="M 370.565922 468.675 
L 399.899672 468.675 
L 399.899672 499.44 
L 370.565922 499.44 
L 370.565922 468.675 
" style="fill:#2369bd;"/>
    <path clip-path="url(#p879855ee20)" d="M 399.899672 468.675 
L 429.233422 468.675 
L 429.233422 499.44 
L 399.899672 499.44 
L 399.899672 468.675 
" style="fill:#2369bd;"/>
    <path clip-path="url(#p879855ee20)" d="M 429.233422 468.675 
L 458.567172 468.675 
L 458.567172 499.44 
L 429.233422 499.44 
L 429.233422 468.675 
" style="fill:#2369bd;"/>
    <path clip-path="url(#p879855ee20)" d="M 458.567172 468.675 
L 487.900922 468.675 
L 487.900922 499.44 
L 458.567172 499.44 
L 458.567172 468.675 
" style="fill:#faf5f5;"/>
    <path clip-path="url(#p879855ee20)" d="M 487.900922 468.675 
L 517.234672 468.675 
L 517.234672 499.44 
L 487.900922 499.44 
L 487.900922 468.675 
" style="fill:#faf5f5;"/>
    <path clip-path="url(#p879855ee20)" d="M 517.234672 468.675 
L 546.568422 468.675 
L 546.568422 499.44 
L 517.234672 499.44 
L 517.234672 468.675 
" style="fill:#2369bd;"/>
    <path clip-path="url(#p879855ee20)" d="M 546.568422 468.675 
L 575.902172 468.675 
L 575.902172 499.44 
L 546.568422 499.44 
L 546.568422 468.675 
" style="fill:#faf5f5;"/>
    <path clip-path="url(#p879855ee20)" d="M 575.902172 468.675 
L 605.235922 468.675 
L 605.235922 499.44 
L 575.902172 499.44 
L 575.902172 468.675 
" style="fill:#2369bd;"/>
    <path clip-path="url(#p879855ee20)" d="M 605.235922 468.675 
L 634.569672 468.675 
L 634.569672 499.44 
L 605.235922 499.44 
L 605.235922 468.675 
" style="fill:#2369bd;"/>
    <path clip-path="url(#p879855ee20)" d="M 634.569672 468.675 
L 663.903422 468.675 
L 663.903422 499.44 
L 634.569672 499.44 
L 634.569672 468.675 
" style="fill:#2369bd;"/>
   </g>
  </g>
 </g>
 <defs>
  <clipPath id="pafcd5430f4">
   <rect height="492.24" width="117.335" x="76.928422" y="7.2"/>
  </clipPath>
  <clipPath id="p879855ee20">
   <rect height="492.24" width="469.34" x="194.563422" y="7.2"/>
  </clipPath>
 </defs>
</svg>
